﻿,,,,,,,,,,,,,,,,,,,,,,,,,,,,,,,,,,,,,,,,,
Telemetry Data Report,,,,,,,,,,,,,,,,,,,,,,,,,,,,,,,,,,,,,,,,,
Telemetry Data for 154441 - 154441 - 04/25/2019 ,,,,,,,,,,,,,,,,,,,,,,,,,,,,,,,,,,,,,,,,,
Date Logged (ET (-05:00)),Date Received (ET (-05:00)),Log Reason,Latitude,Longitude,Speed MPH,Used Speed Limit (MPH),Speed Band,Speed Accuracy (MPH),Heading Degrees,Altitude (ft),Position Accuracy (ft),PDOP Raw,Ignition,Gps Status Fix OK,Gps Status Fix 3D,Digital Inputs,Digital Outputs,Driver Id Type,Driver Id Data,Trip Type Code,Project Code,Analog 1,Analog 2,Analog 3,Analog 4,Analog 5,Analog 6,Analog 7,Analog 8,Analog 9,Analog 10,Analog 11,Analog 12,Analog 13,Analog 14,Analog 15,Analog 16,Analog 17,Analog 18,Analog 19,Analog 20
04/25/2019 08:00,04/25/2019 14:33,Heartbeat Status,42.9661256,-85.6778675,0,,,1.79,0,607,144,23,Off,True,True,00000010000000000000000000000000,000000000000000000,,,,,"3,991",,"2,109",12,,,,,,,16,36,434,"14,382",24,,,,,
04/25/2019 10:50,04/25/2019 14:33,Heartbeat Status,43.0255690,-85.6890328,0,,,1.12,358,751,69,36,Off,True,True,00000010000000000000000000000000,000000000000000000,,,,,"3,979",,"2,481",,,,,,,,0,0,0,0,0,,,,,
04/25/2019 10:52,04/25/2019 14:33,Start Of Trip,43.0255690,-85.6890328,0,,,1.12,358,751,69,36,On,True,True,00000011000000000000000000000001,000000000000000000,,,,,"3,978",,"2,564",,,,,,,,0,1,0,0,1,,,,,
04/25/2019 10:54,04/25/2019 14:33,Distance Travelled,43.0313295,-85.6887461,0,,,0.89,0,896,79,16,On,True,True,00000011000000000000000000000001,000000000000000000,,,,,"3,978",,"2,564",,,,,,,,0,1,0,0,1,,,,,
04/25/2019 10:58,04/25/2019 14:33,Elapsed Time,43.0311657,-85.6888882,0,,,1.12,0,876,141,16,On,True,True,00000011000000000000000000000001,000000000000000000,,,,,"3,975",,"2,619",,,,,,,,0,2,1,45,1,,,,,
04/25/2019 11:00,04/25/2019 14:33,End Of Trip,43.0312238,-85.6889222,0,,,1.34,60,820,135,17,Off,True,True,00000010000000000000000000000000,000000000000000000,,,,,"3,980",,"2,531",,,,,,,,0,2,2,49,1,,,,,
04/25/2019 11:03,04/25/2019 14:33,Start Of Trip,43.0312238,-85.6889222,0,,,1.34,60,820,135,17,On,True,True,00000011000000000000000000000001,000000000000000000,,,,,"3,980",,"2,533",,,,,,,,0,3,5,61,2,,,,,
04/25/2019 11:05,04/25/2019 14:33,Distance Travelled,43.0265131,-85.6894231,37,,,0.45,176,748,69,14,On,True,True,00000011000000000000000000000001,000000000000000000,,,,,"3,980",,"2,533",,,,,,,,0,3,5,61,2,,,,,
04/25/2019 11:08,04/25/2019 14:33,Elapsed Time,43.0206884,-85.6871957,0,,,0.67,0,689,135,21,On,True,True,00000011000000000000000000000001,000000000000000000,,,,,"3,972",,"2,601",,,,,,,,0,4,6,69,2,,,,,
04/25/2019 11:10,04/25/2019 14:33,Elapsed Time,43.0207427,-85.6873887,0,,,1.34,0,755,118,14,On,True,True,00000011000000000000000000000001,000000000000000000,,,,,"3,974",,"2,571",,,,,,,,0,4,7,71,2,,,,,
04/25/2019 11:12,04/25/2019 14:33,Elapsed Time,43.0204264,-85.6886135,10,,,0.89,156,725,151,20,On,True,True,00000011000000000000000000000001,000000000000000000,,,,,"3,975",,"2,541",,,,,,,,0,4,8,75,2,,,,,
04/25/2019 11:14,04/25/2019 14:33,End Of Trip,43.0207364,-85.6883971,4,,,0.67,348,778,151,22,Off,True,True,00000010000000000000000000000000,000000000000000000,,,,,"3,973",,"2,559",,,,,,,,0,4,9,115,2,,,,,
04/25/2019 11:15,04/25/2019 14:33,Start Of Trip,43.0207364,-85.6883971,4,,,0.67,348,778,151,22,On,True,True,00000011000000000000000000000001,000000000000000000,,,,,"3,972",,"2,560",,,,,,,,0,5,10,120,3,,,,,
04/25/2019 11:19,04/25/2019 14:33,Distance Travelled,43.0348295,-85.6895743,24,,,0.67,358,797,59,14,On,True,True,00000011000000000000000000000001,000000000000000000,,,,,"3,972",,"2,560",,,,,,,,0,5,10,120,3,,,,,
04/25/2019 11:22,04/25/2019 14:33,Elapsed Time,43.0658877,-85.6898695,64,,,0.67,358,768,112,16,On,True,True,00000011000000000000000000000001,000000000000000000,,,,,"3,968",,"2,625",,,,,,,,0,6,11,128,3,,,,,
04/25/2019 11:24,04/25/2019 14:33,Elapsed Time,43.0988357,-85.6945006,71,,,0.67,336,791,135,16,On,True,True,00000011000000000000000000000001,000000000000000000,,,,,"3,972",,"2,586",,,,,,,,0,6,12,132,3,,,,,
04/25/2019 11:26,04/25/2019 14:33,Elapsed Time,43.1289316,-85.7100338,56,,,0.45,358,830,115,15,On,True,True,00000011000000000000000000000001,000000000000000000,,,,,"3,973",,"2,560",,,,,,,,0,6,13,136,3,,,,,
04/25/2019 11:28,04/25/2019 14:33,Elapsed Time,43.1521833,-85.7099507,43,,,0.45,0,837,135,19,On,True,True,00000011000000000000000000000001,000000000000000000,,,,,"3,974",,"2,551",,,,,,,,0,6,14,141,3,,,,,
04/25/2019 11:30,04/25/2019 14:33,Elapsed Time,43.1606225,-85.7087973,0,,,1.12,116,794,118,20,On,True,True,00000011000000000000000000000001,000000000000000000,,,,,"3,972",,"2,563",,,,,,,,0,6,15,145,3,,,,,
04/25/2019 11:32,04/25/2019 14:33,Elapsed Time,43.1606979,-85.7089833,0,,,1.34,0,735,108,19,On,True,True,00000011000000000000000000000001,000000000000000000,,,,,"3,973",,"2,561",,,,,,,,0,6,16,148,3,,,,,
04/25/2019 11:34,04/25/2019 14:33,Elapsed Time,43.1606987,-85.7089371,0,,,1.12,0,735,105,19,On,True,True,00000011000000000000000000000001,000000000000000000,,,,,"3,974",,"2,539",,,,,,,,0,6,17,151,3,,,,,
04/25/2019 11:36,04/25/2019 14:33,End Of Trip,43.1607536,-85.7089423,0,,,1.12,0,804,89,19,Off,True,True,00000010000000000000000000000000,000000000000000000,,,,,"3,973",,"2,526",,,,,,,,0,6,18,190,3,,,,,
04/25/2019 11:42,04/25/2019 14:33,Start Of Trip,43.1607536,-85.7089423,0,,,1.12,0,804,89,19,On,True,True,00000011000000000000000000000001,000000000000000000,,,,,"3,976",,"2,508",,,,,,,,0,7,20,197,4,,,,,
04/25/2019 11:44,04/25/2019 14:33,Distance Travelled,43.1609098,-85.7140092,31,,,0.45,270,801,52,19,On,True,True,00000011000000000000000000000001,000000000000000000,,,,,"3,976",,"2,508",,,,,,,,0,7,20,197,4,,,,,
04/25/2019 11:47,04/25/2019 14:33,Elapsed Time,43.1613617,-85.7475569,48,,,0.45,270,840,112,21,On,True,True,00000011000000000000000000000001,000000000000000000,,,,,"3,971",,"2,597",,,,,,,,0,8,21,204,4,,,,,
04/25/2019 11:49,04/25/2019 14:33,Elapsed Time,43.1468911,-85.7520292,45,,,0.45,270,804,115,17,On,True,True,00000011000000000000000000000001,000000000000000000,,,,,"3,970",,"2,570",,,,,,,,0,8,22,207,4,,,,,
04/25/2019 11:51,04/25/2019 14:33,Elapsed Time,43.1396783,-85.7699281,48,,,0.45,178,932,89,16,On,True,True,00000011000000000000000000000001,000000000000000000,,,,,"3,972",,"2,532",,,,,,,,0,8,23,212,4,,,,,
04/25/2019 11:53,04/25/2019 14:33,Elapsed Time,43.1162136,-85.7686619,43,,,0.45,176,919,102,16,On,True,True,00000011000000000000000000000001,000000000000000000,,,,,"3,974",,"2,516",,,,,,,,0,8,24,215,4,,,,,
04/25/2019 11:55,04/25/2019 14:33,Elapsed Time,43.1107166,-85.7688715,1,,,1.12,188,984,108,16,On,True,True,00000011000000000000000000000001,000000000000000000,,,,,"3,974",,"2,508",,,,,,,,0,8,25,218,4,,,,,
04/25/2019 11:57,04/25/2019 14:33,Elapsed Time,43.1110556,-85.7688634,0,,,2.68,18,902,102,14,On,True,True,00000011000000000000000000000001,000000000000000000,,,,,"3,974",,"2,537",,,,,,,,0,8,26,222,4,,,,,
04/25/2019 12:00,04/25/2019 14:33,Elapsed Time,43.1111040,-85.7688532,0,,,2.46,0,830,141,16,On,True,True,00000011000000000000000000000001,000000000000000000,,,,,"3,974",,"2,502",,,,,,,,0,8,27,247,4,,,,,
04/25/2019 12:15,04/25/2019 14:33,Heartbeat Status,43.1110894,-85.7688465,0,,,1.12,0,791,92,35,Off,True,True,00000010000000000000000000000000,000000000000000000,,,,,"3,973",,"2,466",,,,,,,,0,0,0,0,0,,,,,
04/25/2019 12:18,04/25/2019 14:33,Heartbeat Status,43.1111451,-85.7689019,0,,,1.12,0,860,98,23,Off,True,True,00000010000000000000000000000000,000000000000000000,,,,,"3,976",,"2,489",,,,,,,,0,1,0,0,0,,,,,
04/25/2019 12:41,04/25/2019 14:33,Heartbeat Status,43.1110949,-85.7688708,0,,,2.01,44,869,105,31,Off,True,True,00000010000000000000000000000000,000000000000000000,,,,,"3,975",,"2,433",,,,,,,,0,0,0,0,0,,,,,
04/25/2019 15:11,04/26/2019 10:30,Sensor Value Elapsed Time,43.3387673,-85.7537943,0,,,2.68,0,801,118,17,Off,True,True,00000010000000000000000000000000,000000000000000000,,,,,"3,961",,924,7,804,"5,645",,,,,0,0,18,"1,178",0,,,,,
04/25/2019 15:26,04/26/2019 10:30,Sensor Value Elapsed Time,43.3387673,-85.7537943,0,,,2.68,0,801,118,17,Off,True,True,00000010000000000000000000000000,000000000000000000,,,,,"3,965",,844,7,704,"5,887",,,,,0,0,20,"1,298",0,,,,,
04/25/2019 21:30,04/26/2019 10:30,Sensor Value Elapsed Time,43.3387673,-85.7537943,0,,,2.68,0,801,118,17,Off,True,True,00000010000000000000000000000000,000000000000000000,,,,,"3,969",,732,7,603,"6,848",,,,,0,0,22,"1,418",0,,,,,
,,,,,,,,,,,,,,,,,,,,,,,,,,,,,,,,,,,,,,,,,