[
    {
      "measurement": "154416",
      "tags": {
        "Company": "Apples USA",
        "Project": "Apple IoT Test",
        "Tag_Data_Hash": "25a74288-f874-4f61-8a78-cba1fc0acf7b",
        "SensorID": "154416"
      },
      "fields": {
        "Status": "Heartbeat Status",
        "Latitude": 33.7479363,
        "Longitude": -84.3768449,
        "Speed_KmH": 0,
        "Speed_Accuracy_KmH": 1.44,
        "Heading_Degrees": 0,
        "Altitude_m": 306,
        "Position_Accuracy_m": 28,
        "PDOP_Raw": 26,
        "Ignition": "Off",
        "Gps_Status_Fix_OK": true,
        "Gps_Status_Fix_3D": true,
        "Analog_1": 4076,
        "Analog_3": 2067,
        "Analog_4": 7,
        "BigChain_Hash": "50942c01-1699-417a-a767-74a35929d15d",
        "Iota_Hash": "5805fb5b-5e31-420b-b671-1d0c16c95f16",
        "Penta_Hash": "ee6bdb29-3043-499d-a235-ab5d61191c08",
        "Logged": "23\/4\/19 4:03"
      },
      "timestamp": "2019-04-22T18:03:00.000Z"
    },
    {
      "measurement": "154416",
      "tags": {
        "Company": "Apples USA",
        "Project": "Apple IoT Test",
        "Tag_Data_Hash": "25a74288-f874-4f61-8a78-cba1fc0acf7b",
        "SensorID": "154416"
      },
      "fields": {
        "Status": "Start Of Trip",
        "Latitude": 33.7479363,
        "Longitude": -84.3768449,
        "Speed_KmH": 0,
        "Speed_Accuracy_KmH": 1.44,
        "Heading_Degrees": 0,
        "Altitude_m": 306,
        "Position_Accuracy_m": 28,
        "PDOP_Raw": 26,
        "Ignition": "On",
        "Gps_Status_Fix_OK": true,
        "Gps_Status_Fix_3D": true,
        "Analog_1": 4080,
        "Analog_3": 2065,
        "Analog_4": 8,
        "BigChain_Hash": "50942c01-1699-417a-a767-74a35929d15d",
        "Iota_Hash": "5805fb5b-5e31-420b-b671-1d0c16c95f16",
        "Penta_Hash": "ee6bdb29-3043-499d-a235-ab5d61191c08",
        "Logged": "23\/4\/19 6:39"
      },
      "timestamp": "2019-04-22T20:39:00.000Z"
    },
    {
      "measurement": "154416",
      "tags": {
        "Company": "Apples USA",
        "Project": "Apple IoT Test",
        "Tag_Data_Hash": "25a74288-f874-4f61-8a78-cba1fc0acf7b",
        "SensorID": "154416"
      },
      "fields": {
        "Status": "Distance Travelled",
        "Latitude": 33.746587,
        "Longitude": -84.3793873,
        "Speed_KmH": 43,
        "Speed_Accuracy_KmH": 0.72,
        "Heading_Degrees": 180,
        "Altitude_m": 321,
        "Position_Accuracy_m": 14,
        "PDOP_Raw": 14,
        "Ignition": "On",
        "Gps_Status_Fix_OK": true,
        "Gps_Status_Fix_3D": true,
        "Analog_1": 4080,
        "Analog_3": 2065,
        "Analog_4": 8,
        "BigChain_Hash": "50942c01-1699-417a-a767-74a35929d15d",
        "Iota_Hash": "5805fb5b-5e31-420b-b671-1d0c16c95f16",
        "Penta_Hash": "ee6bdb29-3043-499d-a235-ab5d61191c08",
        "Logged": "23\/4\/19 6:40"
      },
      "timestamp": "2019-04-22T20:40:00.000Z"
    },
    {
      "measurement": "154416",
      "tags": {
        "Company": "Apples USA",
        "Project": "Apple IoT Test",
        "Tag_Data_Hash": "25a74288-f874-4f61-8a78-cba1fc0acf7b",
        "SensorID": "154416"
      },
      "fields": {
        "Status": "Elapsed Time",
        "Latitude": 33.7419317,
        "Longitude": -84.3907778,
        "Speed_KmH": 0,
        "Speed_Accuracy_KmH": 1.8,
        "Heading_Degrees": 0,
        "Altitude_m": 324,
        "Position_Accuracy_m": 44,
        "PDOP_Raw": 19,
        "Ignition": "On",
        "Gps_Status_Fix_OK": true,
        "Gps_Status_Fix_3D": true,
        "Analog_1": 4080,
        "Analog_3": 2077,
        "Analog_4": 13,
        "BigChain_Hash": "50942c01-1699-417a-a767-74a35929d15d",
        "Iota_Hash": "5805fb5b-5e31-420b-b671-1d0c16c95f16",
        "Penta_Hash": "ee6bdb29-3043-499d-a235-ab5d61191c08",
        "Logged": "23\/4\/19 6:42"
      },
      "timestamp": "2019-04-22T20:42:00.000Z"
    },
    {
      "measurement": "154416",
      "tags": {
        "Company": "Apples USA",
        "Project": "Apple IoT Test",
        "Tag_Data_Hash": "25a74288-f874-4f61-8a78-cba1fc0acf7b",
        "SensorID": "154416"
      },
      "fields": {
        "Status": "Elapsed Time",
        "Latitude": 33.7434249,
        "Longitude": -84.3981519,
        "Speed_KmH": 0,
        "Speed_Accuracy_KmH": 2.52,
        "Heading_Degrees": 282,
        "Altitude_m": 301,
        "Position_Accuracy_m": 30,
        "PDOP_Raw": 21,
        "Ignition": "On",
        "Gps_Status_Fix_OK": true,
        "Gps_Status_Fix_3D": true,
        "Analog_1": 4076,
        "Analog_3": 2113,
        "Analog_4": 13,
        "BigChain_Hash": "50942c01-1699-417a-a767-74a35929d15d",
        "Iota_Hash": "5805fb5b-5e31-420b-b671-1d0c16c95f16",
        "Penta_Hash": "ee6bdb29-3043-499d-a235-ab5d61191c08",
        "Logged": "23\/4\/19 6:44"
      },
      "timestamp": "2019-04-22T20:44:00.000Z"
    },
    {
      "measurement": "154416",
      "tags": {
        "Company": "Apples USA",
        "Project": "Apple IoT Test",
        "Tag_Data_Hash": "25a74288-f874-4f61-8a78-cba1fc0acf7b",
        "SensorID": "154416"
      },
      "fields": {
        "Status": "Elapsed Time",
        "Latitude": 33.7435351,
        "Longitude": -84.3988359,
        "Speed_KmH": 0,
        "Speed_Accuracy_KmH": 4.68,
        "Heading_Degrees": 264,
        "Altitude_m": 267,
        "Position_Accuracy_m": 38,
        "PDOP_Raw": 23,
        "Ignition": "On",
        "Gps_Status_Fix_OK": true,
        "Gps_Status_Fix_3D": true,
        "Analog_1": 4080,
        "Analog_3": 2096,
        "Analog_4": 13,
        "BigChain_Hash": "50942c01-1699-417a-a767-74a35929d15d",
        "Iota_Hash": "5805fb5b-5e31-420b-b671-1d0c16c95f16",
        "Penta_Hash": "ee6bdb29-3043-499d-a235-ab5d61191c08",
        "Logged": "23\/4\/19 6:46"
      },
      "timestamp": "2019-04-22T20:46:00.000Z"
    },
    {
      "measurement": "154416",
      "tags": {
        "Company": "Apples USA",
        "Project": "Apple IoT Test",
        "Tag_Data_Hash": "25a74288-f874-4f61-8a78-cba1fc0acf7b",
        "SensorID": "154416"
      },
      "fields": {
        "Status": "Elapsed Time",
        "Latitude": 33.7435162,
        "Longitude": -84.3981277,
        "Speed_KmH": 1,
        "Speed_Accuracy_KmH": 3.96,
        "Heading_Degrees": 128,
        "Altitude_m": 299,
        "Position_Accuracy_m": 49,
        "PDOP_Raw": 19,
        "Ignition": "On",
        "Gps_Status_Fix_OK": true,
        "Gps_Status_Fix_3D": true,
        "Analog_1": 4078,
        "Analog_3": 2127,
        "Analog_4": 13,
        "BigChain_Hash": "50942c01-1699-417a-a767-74a35929d15d",
        "Iota_Hash": "5805fb5b-5e31-420b-b671-1d0c16c95f16",
        "Penta_Hash": "ee6bdb29-3043-499d-a235-ab5d61191c08",
        "Logged": "23\/4\/19 6:48"
      },
      "timestamp": "2019-04-22T20:48:00.000Z"
    },
    {
      "measurement": "154416",
      "tags": {
        "Company": "Apples USA",
        "Project": "Apple IoT Test",
        "Tag_Data_Hash": "25a74288-f874-4f61-8a78-cba1fc0acf7b",
        "SensorID": "154416"
      },
      "fields": {
        "Status": "End Of Trip",
        "Latitude": 33.7436854,
        "Longitude": -84.3986624,
        "Speed_KmH": 0,
        "Speed_Accuracy_KmH": 4.68,
        "Heading_Degrees": 120,
        "Altitude_m": 294,
        "Position_Accuracy_m": 44,
        "PDOP_Raw": 18,
        "Ignition": "Off",
        "Gps_Status_Fix_OK": true,
        "Gps_Status_Fix_3D": true,
        "Analog_1": 4076,
        "Analog_3": 2163,
        "Analog_4": 13,
        "BigChain_Hash": "50942c01-1699-417a-a767-74a35929d15d",
        "Iota_Hash": "5805fb5b-5e31-420b-b671-1d0c16c95f16",
        "Penta_Hash": "ee6bdb29-3043-499d-a235-ab5d61191c08",
        "Logged": "23\/4\/19 6:51"
      },
      "timestamp": "2019-04-22T20:51:00.000Z"
    },
    {
      "measurement": "154416",
      "tags": {
        "Company": "Apples USA",
        "Project": "Apple IoT Test",
        "Tag_Data_Hash": "25a74288-f874-4f61-8a78-cba1fc0acf7b",
        "SensorID": "154416"
      },
      "fields": {
        "Status": "Start Of Trip",
        "Latitude": 33.7436854,
        "Longitude": -84.3986624,
        "Speed_KmH": 0,
        "Speed_Accuracy_KmH": 4.68,
        "Heading_Degrees": 120,
        "Altitude_m": 294,
        "Position_Accuracy_m": 44,
        "PDOP_Raw": 18,
        "Ignition": "On",
        "Gps_Status_Fix_OK": true,
        "Gps_Status_Fix_3D": true,
        "Analog_1": 4065,
        "Analog_3": 2520,
        "Analog_4": 29,
        "BigChain_Hash": "50942c01-1699-417a-a767-74a35929d15d",
        "Iota_Hash": "5805fb5b-5e31-420b-b671-1d0c16c95f16",
        "Penta_Hash": "ee6bdb29-3043-499d-a235-ab5d61191c08",
        "Logged": "23\/4\/19 8:40"
      },
      "timestamp": "2019-04-22T22:40:00.000Z"
    },
    {
      "measurement": "154416",
      "tags": {
        "Company": "Apples USA",
        "Project": "Apple IoT Test",
        "Tag_Data_Hash": "25a74288-f874-4f61-8a78-cba1fc0acf7b",
        "SensorID": "154416"
      },
      "fields": {
        "Status": "Distance Travelled",
        "Latitude": 33.7476592,
        "Longitude": -84.3977259,
        "Speed_KmH": 41,
        "Speed_Accuracy_KmH": 1.44,
        "Heading_Degrees": 352,
        "Altitude_m": 295,
        "Position_Accuracy_m": 26,
        "PDOP_Raw": 21,
        "Ignition": "On",
        "Gps_Status_Fix_OK": true,
        "Gps_Status_Fix_3D": true,
        "Analog_1": 4065,
        "Analog_3": 2520,
        "Analog_4": 29,
        "BigChain_Hash": "50942c01-1699-417a-a767-74a35929d15d",
        "Iota_Hash": "5805fb5b-5e31-420b-b671-1d0c16c95f16",
        "Penta_Hash": "ee6bdb29-3043-499d-a235-ab5d61191c08",
        "Logged": "23\/4\/19 8:41"
      },
      "timestamp": "2019-04-22T22:41:00.000Z"
    },
    {
      "measurement": "154416",
      "tags": {
        "Company": "Apples USA",
        "Project": "Apple IoT Test",
        "Tag_Data_Hash": "25a74288-f874-4f61-8a78-cba1fc0acf7b",
        "SensorID": "154416"
      },
      "fields": {
        "Status": "Elapsed Time",
        "Latitude": 33.7536518,
        "Longitude": -84.3928912,
        "Speed_KmH": 29,
        "Speed_Accuracy_KmH": 3.96,
        "Heading_Degrees": 34,
        "Altitude_m": 321,
        "Position_Accuracy_m": 40,
        "PDOP_Raw": 25,
        "Ignition": "On",
        "Gps_Status_Fix_OK": true,
        "Gps_Status_Fix_3D": true,
        "Analog_1": 4065,
        "Analog_3": 2554,
        "Analog_4": 12,
        "BigChain_Hash": "50942c01-1699-417a-a767-74a35929d15d",
        "Iota_Hash": "5805fb5b-5e31-420b-b671-1d0c16c95f16",
        "Penta_Hash": "ee6bdb29-3043-499d-a235-ab5d61191c08",
        "Logged": "23\/4\/19 8:43"
      },
      "timestamp": "2019-04-22T22:43:00.000Z"
    },
    {
      "measurement": "154416",
      "tags": {
        "Company": "Apples USA",
        "Project": "Apple IoT Test",
        "Tag_Data_Hash": "25a74288-f874-4f61-8a78-cba1fc0acf7b",
        "SensorID": "154416"
      },
      "fields": {
        "Status": "Elapsed Time",
        "Latitude": 33.7573888,
        "Longitude": -84.3922092,
        "Speed_KmH": 27,
        "Speed_Accuracy_KmH": 3.24,
        "Heading_Degrees": 48,
        "Altitude_m": 324,
        "Position_Accuracy_m": 48,
        "PDOP_Raw": 22,
        "Ignition": "On",
        "Gps_Status_Fix_OK": true,
        "Gps_Status_Fix_3D": true,
        "Analog_1": 4061,
        "Analog_3": 2592,
        "Analog_4": 12,
        "BigChain_Hash": "50942c01-1699-417a-a767-74a35929d15d",
        "Iota_Hash": "5805fb5b-5e31-420b-b671-1d0c16c95f16",
        "Penta_Hash": "ee6bdb29-3043-499d-a235-ab5d61191c08",
        "Logged": "23\/4\/19 8:45"
      },
      "timestamp": "2019-04-22T22:45:00.000Z"
    },
    {
      "measurement": "154416",
      "tags": {
        "Company": "Apples USA",
        "Project": "Apple IoT Test",
        "Tag_Data_Hash": "25a74288-f874-4f61-8a78-cba1fc0acf7b",
        "SensorID": "154416"
      },
      "fields": {
        "Status": "Elapsed Time",
        "Latitude": 33.7611033,
        "Longitude": -84.3907157,
        "Speed_KmH": 19,
        "Speed_Accuracy_KmH": 2.16,
        "Heading_Degrees": 28,
        "Altitude_m": 370,
        "Position_Accuracy_m": 38,
        "PDOP_Raw": 30,
        "Ignition": "On",
        "Gps_Status_Fix_OK": true,
        "Gps_Status_Fix_3D": true,
        "Analog_1": 4067,
        "Analog_3": 2532,
        "Analog_4": 12,
        "BigChain_Hash": "50942c01-1699-417a-a767-74a35929d15d",
        "Iota_Hash": "5805fb5b-5e31-420b-b671-1d0c16c95f16",
        "Penta_Hash": "ee6bdb29-3043-499d-a235-ab5d61191c08",
        "Logged": "23\/4\/19 8:48"
      },
      "timestamp": "2019-04-22T22:48:00.000Z"
    },
    {
      "measurement": "154416",
      "tags": {
        "Company": "Apples USA",
        "Project": "Apple IoT Test",
        "Tag_Data_Hash": "25a74288-f874-4f61-8a78-cba1fc0acf7b",
        "SensorID": "154416"
      },
      "fields": {
        "Status": "End Of Trip",
        "Latitude": 33.7611675,
        "Longitude": -84.3906194,
        "Speed_KmH": 19,
        "Speed_Accuracy_KmH": 5.4,
        "Heading_Degrees": 36,
        "Altitude_m": 370,
        "Position_Accuracy_m": 34,
        "PDOP_Raw": 30,
        "Ignition": "Off",
        "Gps_Status_Fix_OK": true,
        "Gps_Status_Fix_3D": true,
        "Analog_1": 4070,
        "Analog_3": 2513,
        "Analog_4": 12,
        "BigChain_Hash": "50942c01-1699-417a-a767-74a35929d15d",
        "Iota_Hash": "5805fb5b-5e31-420b-b671-1d0c16c95f16",
        "Penta_Hash": "ee6bdb29-3043-499d-a235-ab5d61191c08",
        "Logged": "23\/4\/19 8:54"
      },
      "timestamp": "2019-04-22T22:54:00.000Z"
    },
    {
      "measurement": "154416",
      "tags": {
        "Company": "Apples USA",
        "Project": "Apple IoT Test",
        "Tag_Data_Hash": "25a74288-f874-4f61-8a78-cba1fc0acf7b",
        "SensorID": "154416"
      },
      "fields": {
        "Status": "Start Of Trip",
        "Latitude": 33.7611675,
        "Longitude": -84.3906194,
        "Speed_KmH": 19,
        "Speed_Accuracy_KmH": 5.4,
        "Heading_Degrees": 36,
        "Altitude_m": 370,
        "Position_Accuracy_m": 34,
        "PDOP_Raw": 30,
        "Ignition": "On",
        "Gps_Status_Fix_OK": true,
        "Gps_Status_Fix_3D": true,
        "Analog_1": 4059,
        "Analog_3": 2614,
        "Analog_4": 7,
        "BigChain_Hash": "50942c01-1699-417a-a767-74a35929d15d",
        "Iota_Hash": "5805fb5b-5e31-420b-b671-1d0c16c95f16",
        "Penta_Hash": "ee6bdb29-3043-499d-a235-ab5d61191c08",
        "Logged": "23\/4\/19 9:12"
      },
      "timestamp": "2019-04-22T23:12:00.000Z"
    },
    {
      "measurement": "154416",
      "tags": {
        "Company": "Apples USA",
        "Project": "Apple IoT Test",
        "Tag_Data_Hash": "25a74288-f874-4f61-8a78-cba1fc0acf7b",
        "SensorID": "154416"
      },
      "fields": {
        "Status": "Distance Travelled",
        "Latitude": 33.7561896,
        "Longitude": -84.3888855,
        "Speed_KmH": 0,
        "Speed_Accuracy_KmH": 4.68,
        "Heading_Degrees": 216,
        "Altitude_m": 393,
        "Position_Accuracy_m": 25,
        "PDOP_Raw": 29,
        "Ignition": "On",
        "Gps_Status_Fix_OK": true,
        "Gps_Status_Fix_3D": true,
        "Analog_1": 4059,
        "Analog_3": 2614,
        "Analog_4": 7,
        "BigChain_Hash": "50942c01-1699-417a-a767-74a35929d15d",
        "Iota_Hash": "5805fb5b-5e31-420b-b671-1d0c16c95f16",
        "Penta_Hash": "ee6bdb29-3043-499d-a235-ab5d61191c08",
        "Logged": "23\/4\/19 9:14"
      },
      "timestamp": "2019-04-22T23:14:00.000Z"
    },
    {
      "measurement": "154416",
      "tags": {
        "Company": "Apples USA",
        "Project": "Apple IoT Test",
        "Tag_Data_Hash": "25a74288-f874-4f61-8a78-cba1fc0acf7b",
        "SensorID": "154416"
      },
      "fields": {
        "Status": "Elapsed Time",
        "Latitude": 33.7572322,
        "Longitude": -84.3874559,
        "Speed_KmH": 8,
        "Speed_Accuracy_KmH": 2.52,
        "Heading_Degrees": 82,
        "Altitude_m": 384,
        "Position_Accuracy_m": 34,
        "PDOP_Raw": 21,
        "Ignition": "On",
        "Gps_Status_Fix_OK": true,
        "Gps_Status_Fix_3D": true,
        "Analog_1": 4064,
        "Analog_3": 2599,
        "Analog_4": 13,
        "BigChain_Hash": "50942c01-1699-417a-a767-74a35929d15d",
        "Iota_Hash": "5805fb5b-5e31-420b-b671-1d0c16c95f16",
        "Penta_Hash": "ee6bdb29-3043-499d-a235-ab5d61191c08",
        "Logged": "23\/4\/19 9:16"
      },
      "timestamp": "2019-04-22T23:16:00.000Z"
    },
    {
      "measurement": "154416",
      "tags": {
        "Company": "Apples USA",
        "Project": "Apple IoT Test",
        "Tag_Data_Hash": "25a74288-f874-4f61-8a78-cba1fc0acf7b",
        "SensorID": "154416"
      },
      "fields": {
        "Status": "Elapsed Time",
        "Latitude": 33.7573825,
        "Longitude": -84.3868031,
        "Speed_KmH": 0,
        "Speed_Accuracy_KmH": 3.24,
        "Heading_Degrees": 296,
        "Altitude_m": 278,
        "Position_Accuracy_m": 35,
        "PDOP_Raw": 25,
        "Ignition": "On",
        "Gps_Status_Fix_OK": true,
        "Gps_Status_Fix_3D": true,
        "Analog_1": 4064,
        "Analog_3": 2587,
        "Analog_4": 13,
        "BigChain_Hash": "50942c01-1699-417a-a767-74a35929d15d",
        "Iota_Hash": "5805fb5b-5e31-420b-b671-1d0c16c95f16",
        "Penta_Hash": "ee6bdb29-3043-499d-a235-ab5d61191c08",
        "Logged": "23\/4\/19 9:19"
      },
      "timestamp": "2019-04-22T23:19:00.000Z"
    },
    {
      "measurement": "154416",
      "tags": {
        "Company": "Apples USA",
        "Project": "Apple IoT Test",
        "Tag_Data_Hash": "25a74288-f874-4f61-8a78-cba1fc0acf7b",
        "SensorID": "154416"
      },
      "fields": {
        "Status": "End Of Trip",
        "Latitude": 33.7577207,
        "Longitude": -84.3859717,
        "Speed_KmH": 0,
        "Speed_Accuracy_KmH": 3.6,
        "Heading_Degrees": 186,
        "Altitude_m": 344,
        "Position_Accuracy_m": 46,
        "PDOP_Raw": 25,
        "Ignition": "Off",
        "Gps_Status_Fix_OK": true,
        "Gps_Status_Fix_3D": true,
        "Analog_1": 4063,
        "Analog_3": 2588,
        "Analog_4": 13,
        "BigChain_Hash": "50942c01-1699-417a-a767-74a35929d15d",
        "Iota_Hash": "5805fb5b-5e31-420b-b671-1d0c16c95f16",
        "Penta_Hash": "ee6bdb29-3043-499d-a235-ab5d61191c08",
        "Logged": "23\/4\/19 9:21"
      },
      "timestamp": "2019-04-22T23:21:00.000Z"
    },
    {
      "measurement": "154416",
      "tags": {
        "Company": "Apples USA",
        "Project": "Apple IoT Test",
        "Tag_Data_Hash": "25a74288-f874-4f61-8a78-cba1fc0acf7b",
        "SensorID": "154416"
      },
      "fields": {
        "Status": "Start Of Trip",
        "Latitude": 33.7577207,
        "Longitude": -84.3859717,
        "Speed_KmH": 0,
        "Speed_Accuracy_KmH": 3.6,
        "Heading_Degrees": 186,
        "Altitude_m": 344,
        "Position_Accuracy_m": 46,
        "PDOP_Raw": 25,
        "Ignition": "On",
        "Gps_Status_Fix_OK": true,
        "Gps_Status_Fix_3D": true,
        "Analog_1": 4064,
        "Analog_3": 2572,
        "Analog_4": 10,
        "BigChain_Hash": "50942c01-1699-417a-a767-74a35929d15d",
        "Iota_Hash": "5805fb5b-5e31-420b-b671-1d0c16c95f16",
        "Penta_Hash": "ee6bdb29-3043-499d-a235-ab5d61191c08",
        "Logged": "23\/4\/19 10:05"
      },
      "timestamp": "2019-04-23T00:05:00.000Z"
    },
    {
      "measurement": "154416",
      "tags": {
        "Company": "Apples USA",
        "Project": "Apple IoT Test",
        "Tag_Data_Hash": "25a74288-f874-4f61-8a78-cba1fc0acf7b",
        "SensorID": "154416"
      },
      "fields": {
        "Status": "Distance Travelled",
        "Latitude": 33.7641153,
        "Longitude": -84.3866035,
        "Speed_KmH": 0,
        "Speed_Accuracy_KmH": 4.68,
        "Heading_Degrees": 212,
        "Altitude_m": 720,
        "Position_Accuracy_m": 42,
        "PDOP_Raw": 40,
        "Ignition": "On",
        "Gps_Status_Fix_OK": true,
        "Gps_Status_Fix_3D": true,
        "Analog_1": 4064,
        "Analog_3": 2572,
        "Analog_4": 10,
        "BigChain_Hash": "50942c01-1699-417a-a767-74a35929d15d",
        "Iota_Hash": "5805fb5b-5e31-420b-b671-1d0c16c95f16",
        "Penta_Hash": "ee6bdb29-3043-499d-a235-ab5d61191c08",
        "Logged": "23\/4\/19 10:07"
      },
      "timestamp": "2019-04-23T00:07:00.000Z"
    },
    {
      "measurement": "154416",
      "tags": {
        "Company": "Apples USA",
        "Project": "Apple IoT Test",
        "Tag_Data_Hash": "25a74288-f874-4f61-8a78-cba1fc0acf7b",
        "SensorID": "154416"
      },
      "fields": {
        "Status": "Elapsed Time",
        "Latitude": 33.7578843,
        "Longitude": -84.3862104,
        "Speed_KmH": 0,
        "Speed_Accuracy_KmH": 3.24,
        "Heading_Degrees": 22,
        "Altitude_m": 436,
        "Position_Accuracy_m": 38,
        "PDOP_Raw": 36,
        "Ignition": "On",
        "Gps_Status_Fix_OK": true,
        "Gps_Status_Fix_3D": true,
        "Analog_1": 4065,
        "Analog_3": 2587,
        "Analog_4": 12,
        "BigChain_Hash": "50942c01-1699-417a-a767-74a35929d15d",
        "Iota_Hash": "5805fb5b-5e31-420b-b671-1d0c16c95f16",
        "Penta_Hash": "ee6bdb29-3043-499d-a235-ab5d61191c08",
        "Logged": "23\/4\/19 10:09"
      },
      "timestamp": "2019-04-23T00:09:00.000Z"
    },
    {
      "measurement": "154416",
      "tags": {
        "Company": "Apples USA",
        "Project": "Apple IoT Test",
        "Tag_Data_Hash": "25a74288-f874-4f61-8a78-cba1fc0acf7b",
        "SensorID": "154416"
      },
      "fields": {
        "Status": "Elapsed Time",
        "Latitude": 33.7582133,
        "Longitude": -84.3810222,
        "Speed_KmH": 45,
        "Speed_Accuracy_KmH": 1.8,
        "Heading_Degrees": 90,
        "Altitude_m": 311,
        "Position_Accuracy_m": 46,
        "PDOP_Raw": 23,
        "Ignition": "On",
        "Gps_Status_Fix_OK": true,
        "Gps_Status_Fix_3D": true,
        "Analog_1": 4062,
        "Analog_3": 2613,
        "Analog_4": 12,
        "BigChain_Hash": "50942c01-1699-417a-a767-74a35929d15d",
        "Iota_Hash": "5805fb5b-5e31-420b-b671-1d0c16c95f16",
        "Penta_Hash": "ee6bdb29-3043-499d-a235-ab5d61191c08",
        "Logged": "23\/4\/19 10:11"
      },
      "timestamp": "2019-04-23T00:11:00.000Z"
    },
    {
      "measurement": "154416",
      "tags": {
        "Company": "Apples USA",
        "Project": "Apple IoT Test",
        "Tag_Data_Hash": "25a74288-f874-4f61-8a78-cba1fc0acf7b",
        "SensorID": "154416"
      },
      "fields": {
        "Status": "Elapsed Time",
        "Latitude": 33.74266,
        "Longitude": -84.3922066,
        "Speed_KmH": 51,
        "Speed_Accuracy_KmH": 2.16,
        "Heading_Degrees": 186,
        "Altitude_m": 304,
        "Position_Accuracy_m": 38,
        "PDOP_Raw": 17,
        "Ignition": "On",
        "Gps_Status_Fix_OK": true,
        "Gps_Status_Fix_3D": true,
        "Analog_1": 4062,
        "Analog_3": 2619,
        "Analog_4": 12,
        "BigChain_Hash": "50942c01-1699-417a-a767-74a35929d15d",
        "Iota_Hash": "5805fb5b-5e31-420b-b671-1d0c16c95f16",
        "Penta_Hash": "ee6bdb29-3043-499d-a235-ab5d61191c08",
        "Logged": "23\/4\/19 10:14"
      },
      "timestamp": "2019-04-23T00:14:00.000Z"
    },
    {
      "measurement": "154416",
      "tags": {
        "Company": "Apples USA",
        "Project": "Apple IoT Test",
        "Tag_Data_Hash": "25a74288-f874-4f61-8a78-cba1fc0acf7b",
        "SensorID": "154416"
      },
      "fields": {
        "Status": "Elapsed Time",
        "Latitude": 33.7436335,
        "Longitude": -84.3984882,
        "Speed_KmH": 1,
        "Speed_Accuracy_KmH": 2.16,
        "Heading_Degrees": 198,
        "Altitude_m": 318,
        "Position_Accuracy_m": 47,
        "PDOP_Raw": 22,
        "Ignition": "On",
        "Gps_Status_Fix_OK": true,
        "Gps_Status_Fix_3D": true,
        "Analog_1": 4063,
        "Analog_3": 2610,
        "Analog_4": 12,
        "BigChain_Hash": "50942c01-1699-417a-a767-74a35929d15d",
        "Iota_Hash": "5805fb5b-5e31-420b-b671-1d0c16c95f16",
        "Penta_Hash": "ee6bdb29-3043-499d-a235-ab5d61191c08",
        "Logged": "23\/4\/19 10:16"
      },
      "timestamp": "2019-04-23T00:16:00.000Z"
    }
  ]