﻿Date Logged (AET (+10:00)),Date Received (AET (+10:00)),Log Reason,Latitude,Longitude,Speed KmH,Used Speed Limit (KmH),Speed Band,Speed Accuracy (KmH),Heading Degrees,Altitude (m),Position Accuracy (m),PDOP Raw,Ignition,Gps Status Fix OK,Gps Status Fix 3D,Digital Inputs,Digital Outputs,Driver Id Type,Driver Id Data,Trip Type Code,Project Code,Analog 1,Analog 2,Analog 3,Analog 4,Analog 5,Analog 6,Analog 7,Analog 8,Analog 9,Analog 10,Analog 11,Analog 12,Analog 13,Analog 14,Analog 15,Analog 16,Analog 17,Analog 18,Analog 19,Analog 20
23/04/2019 04:08,23/04/2019 04:08,Heartbeat Status,33.7478964,-84.3766483,0,,,2.52,0,318,40,22,Off,True,True,00000010000000000000000000000000,000000000000000000,,,,,4 002,,2 307,4,,,,,,,0,0,0,0,0,,,,,
23/04/2019 06:39,23/04/2019 06:40,Start Of Trip,33.7478964,-84.3766483,0,,,2.52,0,318,40,22,On,True,True,00000011000000000000000000000001,000000000000000000,,,,,4 008,,2 208,5,,,,,,,1,0,22,462,1,,,,,
23/04/2019 06:40,23/04/2019 06:40,Distance Travelled,33.7468472,-84.3791895,28,,,0.36,262,313,11,16,On,True,True,00000011000000000000000000000001,000000000000000000,,,,,4 008,,2 208,5,,,,,,,1,0,22,462,1,,,,,
23/04/2019 06:42,23/04/2019 06:51,Elapsed Time,33.7419461,-84.3907223,0,,,0.72,0,307,13,23,On,True,True,00000011000000000000000000000001,000000000000000000,,,,,4 007,,2 253,13,,,,,,,2,0,23,469,1,,,,,
23/04/2019 06:44,23/04/2019 06:51,Elapsed Time,33.7433726,-84.3980444,0,,,1.80,312,398,48,19,On,True,True,00000011000000000000000000000001,000000000000000000,,,,,4 002,,2 296,13,,,,,,,2,0,24,474,1,,,,,
23/04/2019 06:46,23/04/2019 06:51,Elapsed Time,33.7435022,-84.3985075,0,,,1.80,102,280,23,16,On,True,True,00000011000000000000000000000001,000000000000000000,,,,,4 006,,2 317,13,,,,,,,2,0,25,479,1,,,,,
23/04/2019 06:48,23/04/2019 06:51,Elapsed Time,33.7436346,-84.3987295,1,,,3.60,0,320,49,19,On,True,True,00000011000000000000000000000001,000000000000000000,,,,,4 006,,2 346,13,,,,,,,2,0,26,485,1,,,,,
23/04/2019 06:50,23/04/2019 06:51,End Of Trip,33.7434710,-84.3984306,0,,,3.96,0,314,34,23,Off,True,True,00000010000000000000000000000000,000000000000000000,,,,,4 005,,2 385,13,,,,,,,2,0,27,509,1,,,,,
23/04/2019 08:40,23/04/2019 08:41,Start Of Trip,33.7434710,-84.3984306,0,,,3.96,0,314,34,23,On,True,True,00000011000000000000000000000001,000000000000000000,,,,,4 004,,2 694,29,,,,,,,3,0,50,1 278,2,,,,,
23/04/2019 08:40,23/04/2019 08:41,Distance Travelled,33.7442156,-84.3979836,32,,,1.44,0,299,17,20,On,True,True,00000011000000000000000000000001,000000000000000000,,,,,4 004,,2 694,29,,,,,,,3,0,50,1 278,2,,,,,
23/04/2019 08:43,23/04/2019 08:54,Elapsed Time,33.7509259,-84.3948193,25,,,1.80,30,336,39,23,On,True,True,00000011000000000000000000000001,000000000000000000,,,,,4 006,,2 680,26,,,,,,,4,0,51,1 294,2,,,,,
23/04/2019 08:45,23/04/2019 08:54,Elapsed Time,33.7558374,-84.3912376,0,,,1.80,0,356,29,31,On,True,True,00000011000000000000000000000001,000000000000000000,,,,,4 005,,2 681,26,,,,,,,4,0,52,1 299,2,,,,,
23/04/2019 08:47,23/04/2019 08:54,Elapsed Time,33.7595762,-84.3904865,9,,,3.60,2,324,29,31,On,True,True,00000011000000000000000000000001,000000000000000000,,,,,4 002,,2 719,26,,,,,,,4,0,53,1 320,2,,,,,
23/04/2019 08:53,23/04/2019 08:54,End Of Trip,33.7609183,-84.3903685,20,,,2.16,22,339,21,32,Off,True,True,00000010000000000000000000000000,000000000000000000,,,,,4 004,,2 703,26,,,,,,,4,0,55,1 441,2,,,,,
23/04/2019 09:12,23/04/2019 09:14,Start Of Trip,33.7609183,-84.3903685,20,,,2.16,22,339,21,32,On,True,True,00000011000000000000000000000001,000000000000000000,,,,,4 008,,2 673,10,,,,,,,5,0,59,1 596,3,,,,,
23/04/2019 09:13,23/04/2019 09:14,Distance Travelled,33.7582875,-84.3876733,2,,,4.68,12,426,23,19,On,True,True,00000011000000000000000000000001,000000000000000000,,,,,4 008,,2 673,10,,,,,,,5,0,59,1 596,3,,,,,
23/04/2019 09:15,23/04/2019 09:20,Elapsed Time,33.7578394,-84.3896705,11,,,1.08,80,539,46,22,On,True,True,00000011000000000000000000000001,000000000000000000,,,,,4 002,,2 736,11,,,,,,,6,0,60,1 626,3,,,,,
23/04/2019 09:18,23/04/2019 09:20,Elapsed Time,33.7570095,-84.3867286,0,,,1.80,344,509,49,17,On,True,True,00000011000000000000000000000001,000000000000000000,,,,,4 003,,2 750,11,,,,,,,6,0,61,1 673,3,,,,,
23/04/2019 09:20,23/04/2019 09:20,End Of Trip,33.7570830,-84.3863340,0,,,3.24,140,316,48,23,Off,True,True,00000010000000000000000000000000,000000000000000000,,,,,4 001,,2 750,11,,,,,,,6,0,62,1 704,3,,,,,
23/04/2019 09:45,23/04/2019 09:49,Start Of Trip,33.7570830,-84.3863340,0,,,3.24,140,316,48,23,On,True,True,00000011000000000000000000000001,000000000000000000,,,,,4 003,,2 720,11,,,,,,,7,0,68,1 955,4,,,,,
23/04/2019 09:47,23/04/2019 09:49,Distance Travelled,33.7615582,-84.3855562,0,,,3.24,134,519,35,30,On,True,True,00000011000000000000000000000001,000000000000000000,,,,,4 003,,2 720,11,,,,,,,7,0,68,1 955,4,,,,,
23/04/2019 09:49,23/04/2019 09:55,Elapsed Time,33.7618758,-84.3855881,0,,,4.32,138,461,44,21,On,True,True,00000011000000000000000000000001,000000000000000000,,,,,3 999,,2 810,9,,,,,,,8,0,69,1 972,4,,,,,
23/04/2019 09:52,23/04/2019 09:55,Elapsed Time,33.7623596,-84.3861399,0,,,3.60,144,296,35,34,On,True,True,00000011000000000000000000000001,000000000000000000,,,,,4 003,,2 766,9,,,,,,,8,0,70,1 993,4,,,,,
23/04/2019 09:54,23/04/2019 09:55,End Of Trip,33.7610506,-84.3848952,0,,,4.32,138,367,37,32,Off,True,True,00000010000000000000000000000000,000000000000000000,,,,,4 000,,2 780,9,,,,,,,8,0,71,2 012,4,,,,,
23/04/2019 10:08,23/04/2019 10:10,Start Of Trip,33.7610506,-84.3848952,0,,,4.32,138,367,37,32,On,True,True,00000011000000000000000000000001,000000000000000000,,,,,4 004,,2 746,9,,,,,,,9,0,75,2 074,5,,,,,
23/04/2019 10:10,23/04/2019 10:10,Distance Travelled,33.7575243,-84.3860992,0,,,2.16,0,514,30,18,On,True,True,00000011000000000000000000000001,000000000000000000,,,,,4 004,,2 746,9,,,,,,,9,0,75,2 074,5,,,,,
23/04/2019 10:12,23/04/2019 10:41,Elapsed Time,33.7584284,-84.3798275,35,,,1.44,96,305,21,21,On,True,True,00000011000000000000000000000001,000000000000000000,,,,,4 000,,2 788,16,,,,,,,10,0,76,2 085,5,,,,,
23/04/2019 10:14,23/04/2019 10:41,Elapsed Time,33.7422482,-84.3922701,2,,,1.08,186,281,25,21,On,True,True,00000011000000000000000000000001,000000000000000000,,,,,4 004,,2 751,16,,,,,,,10,0,77,2 091,5,,,,,
23/04/2019 10:16,23/04/2019 10:41,Elapsed Time,33.7436579,-84.3984364,0,,,2.16,0,289,34,23,On,True,True,00000011000000000000000000000001,000000000000000000,,,,,4 004,,2 725,16,,,,,,,10,0,78,2 095,5,,,,,
23/04/2019 10:18,23/04/2019 10:41,Elapsed Time,33.7437813,-84.3987999,0,,,1.80,0,302,35,23,On,True,True,00000011000000000000000000000001,000000000000000000,,,,,4 003,,2 733,16,,,,,,,10,0,79,2 099,5,,,,,
23/04/2019 10:20,23/04/2019 10:41,Elapsed Time,33.7435215,-84.3996114,10,,,1.08,64,300,33,22,On,True,True,00000011000000000000000000000001,000000000000000000,,,,,4 003,,2 730,16,,,,,,,10,0,80,2 104,5,,,,,
23/04/2019 10:22,23/04/2019 10:41,Elapsed Time,33.7447801,-84.3957301,45,,,1.44,94,287,36,23,On,True,True,00000011000000000000000000000001,000000000000000000,,,,,4 002,,2 729,16,,,,,,,10,0,81,2 144,5,,,,,
23/04/2019 10:24,23/04/2019 10:41,Elapsed Time,33.7257488,-84.3940128,95,,,0.72,184,297,24,23,On,True,True,00000011000000000000000000000001,000000000000000000,,,,,4 001,,2 744,16,,,,,,,10,0,82,2 148,5,,,,,
23/04/2019 10:26,23/04/2019 10:41,Elapsed Time,33.6975479,-84.4049699,94,,,1.44,188,294,47,18,On,True,True,00000011000000000000000000000001,000000000000000000,,,,,3 998,,2 762,16,,,,,,,10,0,83,2 154,5,,,,,
23/04/2019 10:28,23/04/2019 10:41,Elapsed Time,33.6669335,-84.3973603,98,,,1.44,160,276,25,27,On,True,True,00000011000000000000000000000001,000000000000000000,,,,,4 003,,2 726,16,,,,,,,10,0,84,2 157,5,,,,,
23/04/2019 10:31,23/04/2019 10:41,Elapsed Time,33.6415366,-84.4016657,19,,,1.08,184,259,18,18,On,True,True,00000011000000000000000000000001,000000000000000000,,,,,4 004,,2 727,16,,,,,,,10,0,85,2 164,5,,,,,
23/04/2019 10:33,23/04/2019 10:41,Elapsed Time,33.6402147,-84.3929391,33,,,0.72,88,302,33,17,On,True,True,00000011000000000000000000000001,000000000000000000,,,,,4 006,,2 710,16,,,,,,,10,0,86,2 169,5,,,,,
23/04/2019 10:35,23/04/2019 10:41,Elapsed Time,33.6329216,-84.3902095,26,,,1.08,276,289,20,18,On,True,True,00000011000000000000000000000001,000000000000000000,,,,,4 000,,2 754,16,,,,,,,10,0,87,2 173,5,,,,,
23/04/2019 10:38,23/04/2019 10:41,Elapsed Time,33.6333377,-84.3916435,0,,,4.68,24,301,32,41,On,True,True,00000011000000000000000000000001,000000000000000000,,,,,3 998,,2 764,16,,,,,,,10,0,88,2 179,5,,,,,
23/04/2019 10:40,23/04/2019 10:41,End Of Trip,33.6329927,-84.3920285,3,,,4.68,248,294,40,28,Off,True,True,00000010000000000000000000000000,000000000000000000,,,,,4 003,,2 710,16,,,,,,,10,0,89,2 233,5,,,,,
23/04/2019 12:06,23/04/2019 15:19,Start Of Trip,33.6329927,-84.3920285,3,,,4.68,248,294,40,28,On,True,True,00000011000000000000000000000001,000000000000000000,,,,,4 001,,2 585,12,,,,,,,11,0,112,2 946,6,,,,,
23/04/2019 12:15,23/04/2019 15:19,Distance Travelled,33.6524839,-84.4089290,19,,,3.60,252,307,28,18,On,True,True,00000011000000000000000000000001,000000000000000000,,,,,4 001,,2 585,12,,,,,,,11,0,112,2 946,6,,,,,
23/04/2019 12:21,23/04/2019 15:19,Elapsed Time,33.6552511,-84.4151945,0,,,3.96,336,274,28,16,On,True,True,00000011000000000000000000000001,000000000000000000,,,,,3 997,,2 658,12,,,,,,,11,1,113,2 974,6,,,,,
23/04/2019 12:23,23/04/2019 15:19,Elapsed Time,33.6549759,-84.4151458,2,,,3.24,0,318,40,18,On,True,True,00000011000000000000000000000001,000000000000000000,,,,,4 000,,2 618,12,,,,,,,11,1,114,2 992,6,,,,,
23/04/2019 12:25,23/04/2019 15:19,Elapsed Time,33.6549458,-84.4158884,0,,,4.68,0,299,34,19,On,True,True,00000011000000000000000000000001,000000000000000000,,,,,3 999,,2 613,12,,,,,,,11,1,115,3 008,6,,,,,
23/04/2019 12:28,23/04/2019 15:19,End Of Trip,33.6549935,-84.4155592,0,,,4.68,354,267,43,31,Off,True,True,00000010000000000000000000000000,000000000000000000,,,,,3 995,,2 655,12,,,,,,,11,1,116,3 029,6,,,,,
23/04/2019 15:18,23/04/2019 15:19,Start Of Trip,39.7111560,-86.2873017,0,,,4.68,0,232,19,17,On,True,True,00000011000000000000000000000001,000000000000000000,,,,,3 998,,2 286,12,,,,,,,11,2,147,4 716,7,,,,,
23/04/2019 15:20,23/04/2019 15:30,Elapsed Time,39.7108942,-86.2849672,21,,,4.32,94,265,33,15,On,True,True,00000011000000000000000000000001,000000000000000000,,,,,3 996,,2 321,9,,,,,,,12,2,148,4 779,7,,,,,
23/04/2019 15:23,23/04/2019 15:30,Elapsed Time,39.7147759,-86.2801810,4,,,3.96,0,301,49,20,On,True,True,00000011000000000000000000000001,000000000000000000,,,,,3 997,,2 316,9,,,,,,,12,2,149,4 825,7,,,,,
23/04/2019 15:25,23/04/2019 15:30,Elapsed Time,39.7149647,-86.2801811,0,,,3.24,0,265,41,19,On,True,True,00000011000000000000000000000001,000000000000000000,,,,,3 996,,2 299,9,,,,,,,12,2,150,4 869,7,,,,,
23/04/2019 15:27,23/04/2019 15:30,Elapsed Time,39.7148268,-86.2798432,2,,,3.96,48,234,43,19,On,True,True,00000011000000000000000000000001,000000000000000000,,,,,3 994,,2 320,9,,,,,,,12,2,151,4 875,7,,,,,
23/04/2019 15:30,23/04/2019 15:30,End Of Trip,39.7148268,-86.2798432,2,,,3.96,48,234,43,19,Off,True,True,00000010000000000000000000000000,000000000000000000,,,,,3 997,,2 284,9,,,,,,,12,2,152,4 880,7,,,,,
23/04/2019 15:55,23/04/2019 15:57,Start Of Trip,39.7148268,-86.2798432,2,,,3.96,48,234,43,19,On,True,True,00000011000000000000000000000001,000000000000000000,,,,,3 993,,2 366,9,,,,,,,13,2,161,5 445,8,,,,,
23/04/2019 15:56,23/04/2019 15:57,Distance Travelled,39.7174420,-86.2752937,0,,,3.24,0,161,29,17,On,True,True,00000011000000000000000000000001,000000000000000000,,,,,3 993,,2 366,9,,,,,,,13,2,161,5 445,8,,,,,
23/04/2019 16:02,23/04/2019 16:03,End Of Trip,39.7174018,-86.2754421,0,,,2.88,0,169,27,17,Off,True,True,00000010000000000000000000000000,000000000000000000,,,,,3 992,,2 383,9,,,,,,,14,2,163,5 566,8,,,,,
23/04/2019 16:52,23/04/2019 16:54,Start Of Trip,39.7174018,-86.2754421,0,,,2.88,0,169,27,17,On,True,True,00000011000000000000000000000001,000000000000000000,,,,,3 997,,2 304,6,,,,,,,15,2,173,5 848,9,,,,,
23/04/2019 16:54,23/04/2019 16:54,Distance Travelled,39.7152630,-86.2798862,16,,,3.24,218,267,30,16,On,True,True,00000011000000000000000000000001,000000000000000000,,,,,3 997,,2 304,6,,,,,,,15,2,173,5 848,9,,,,,
23/04/2019 16:56,23/04/2019 17:03,Elapsed Time,39.7115134,-86.2847135,15,,,3.96,220,247,45,16,On,True,True,00000011000000000000000000000001,000000000000000000,,,,,3 994,,2 316,13,,,,,,,16,2,174,5 881,9,,,,,
23/04/2019 16:58,23/04/2019 17:03,Elapsed Time,39.7090530,-86.2876169,0,,,4.68,2,259,38,24,On,True,True,00000011000000000000000000000001,000000000000000000,,,,,3 992,,2 331,13,,,,,,,16,2,175,5 933,9,,,,,
23/04/2019 17:01,23/04/2019 17:03,Elapsed Time,39.7093656,-86.2874197,0,,,3.96,356,218,36,16,On,True,True,00000011000000000000000000000001,000000000000000000,,,,,3 991,,2 334,13,,,,,,,16,2,176,6 002,9,,,,,
23/04/2019 17:03,23/04/2019 17:03,End Of Trip,39.7092050,-86.2872449,0,,,4.32,0,216,33,16,Off,True,True,00000010000000000000000000000000,000000000000000000,,,,,3 995,,2 277,13,,,,,,,16,2,177,6 018,9,,,,,
23/04/2019 20:25,27/04/2019 01:45,Start Of Trip,42.8844415,-85.5059794,0,,,3.96,280,242,30,18,On,True,True,00000011000000000000000000000001,000000000000000000,,,,,3 991,,2 108,13,,,,,,,17,2,200,7 116,10,,,,,
23/04/2019 20:28,27/04/2019 01:45,Elapsed Time,42.8843429,-85.5058620,0,,,2.52,160,264,45,17,On,True,True,00000011000000000000000000000001,000000000000000000,,,,,3 988,,2 188,13,,,,,,,17,3,201,7 193,10,,,,,
23/04/2019 20:31,27/04/2019 01:45,End Of Trip,42.8843861,-85.5055086,11,,,1.80,4,246,39,16,Off,True,True,00000010000000000000000000000000,000000000000000000,,,,,3 992,,2 147,13,,,,,,,17,3,202,7 229,10,,,,,
23/04/2019 20:51,27/04/2019 01:45,Start Of Trip,42.8843861,-85.5055086,11,,,1.80,4,246,39,16,On,True,True,00000011000000000000000000000001,000000000000000000,,,,,3 991,,2 110,13,,,,,,,17,4,207,7 396,11,,,,,
23/04/2019 20:51,27/04/2019 01:45,Distance Travelled,42.8859358,-85.5079695,27,,,2.16,352,225,30,16,On,True,True,00000011000000000000000000000001,000000000000000000,,,,,3 991,,2 110,13,,,,,,,17,4,207,7 396,11,,,,,
23/04/2019 20:55,27/04/2019 01:45,Elapsed Time,42.8978912,-85.5202236,11,,,1.80,280,251,45,18,On,True,True,00000011000000000000000000000001,000000000000000000,,,,,3 987,,2 197,13,,,,,,,17,5,208,7 411,11,,,,,
23/04/2019 20:57,27/04/2019 01:45,Elapsed Time,42.8983629,-85.5333781,70,,,1.44,268,242,46,20,On,True,True,00000011000000000000000000000001,000000000000000000,,,,,3 992,,2 129,13,,,,,,,17,5,209,7 425,11,,,,,
23/04/2019 20:59,27/04/2019 01:45,Elapsed Time,42.8980532,-85.5475869,0,,,3.96,0,239,48,22,On,True,True,00000011000000000000000000000001,000000000000000000,,,,,3 993,,2 129,13,,,,,,,17,5,210,7 442,11,,,,,
23/04/2019 21:01,27/04/2019 01:45,Elapsed Time,42.8757846,-85.5468328,79,,,4.68,178,225,34,18,On,True,True,00000011000000000000000000000001,000000000000000000,,,,,3 988,,2 148,13,,,,,,,17,5,211,7 451,11,,,,,
23/04/2019 21:04,27/04/2019 01:45,Elapsed Time,42.8712644,-85.5526258,0,,,4.32,326,234,33,14,On,True,True,00000011000000000000000000000001,000000000000000000,,,,,3 992,,2 126,13,,,,,,,17,5,212,7 462,11,,,,,
23/04/2019 21:06,27/04/2019 01:45,Elapsed Time,42.8709712,-85.5525005,2,,,4.68,0,221,47,19,On,True,True,00000011000000000000000000000001,000000000000000000,,,,,3 992,,2 115,13,,,,,,,17,5,213,7 476,11,,,,,
23/04/2019 21:08,27/04/2019 01:45,Elapsed Time,42.8711463,-85.5527111,0,,,4.68,0,210,41,15,On,True,True,00000011000000000000000000000001,000000000000000000,,,,,3 989,,2 160,13,,,,,,,17,5,214,7 495,11,,,,,
23/04/2019 21:10,27/04/2019 01:45,End Of Trip,42.8711164,-85.5525296,10,,,2.16,198,233,45,19,Off,True,True,00000010000000000000000000000000,000000000000000000,,,,,3 991,,2 119,13,,,,,,,17,5,215,7 506,11,,,,,
23/04/2019 22:06,27/04/2019 01:45,Start Of Trip,42.8711164,-85.5525296,10,,,2.16,198,233,45,19,On,True,True,00000011000000000000000000000001,000000000000000000,,,,,3 989,,2 077,13,,,,,,,17,6,228,8 123,12,,,,,
23/04/2019 22:15,27/04/2019 01:45,Distance Travelled,42.8965519,-85.5478777,54,,,3.96,356,254,25,12,On,True,True,00000011000000000000000000000001,000000000000000000,,,,,3 989,,2 077,13,,,,,,,17,6,228,8 123,12,,,,,
23/04/2019 22:19,27/04/2019 01:45,Elapsed Time,42.9043072,-85.5205538,81,,,2.52,302,236,47,20,On,True,True,00000011000000000000000000000001,000000000000000000,,,,,3 985,,2 136,13,,,,,,,17,7,229,8 196,12,,,,,
23/04/2019 22:21,27/04/2019 01:45,Elapsed Time,42.9258399,-85.5550471,105,,,1.80,312,223,44,16,On,True,True,00000011000000000000000000000001,000000000000000000,,,,,3 987,,2 091,13,,,,,,,17,7,230,8 219,12,,,,,
23/04/2019 22:24,27/04/2019 01:45,Elapsed Time,42.9568465,-85.5707807,102,,,3.24,324,234,43,21,On,True,True,00000011000000000000000000000001,000000000000000000,,,,,3 989,,2 095,13,,,,,,,17,7,231,8 253,12,,,,,
23/04/2019 22:26,27/04/2019 01:45,Elapsed Time,42.9748241,-85.5902765,23,,,2.52,268,258,40,15,On,True,True,00000011000000000000000000000001,000000000000000000,,,,,3 986,,2 123,13,,,,,,,17,7,232,8 266,12,,,,,
23/04/2019 22:28,27/04/2019 01:45,Elapsed Time,42.9953898,-85.5901552,83,,,2.16,358,277,40,14,On,True,True,00000011000000000000000000000001,000000000000000000,,,,,3 988,,2 102,13,,,,,,,17,7,233,8 286,12,,,,,
23/04/2019 22:30,27/04/2019 01:45,Elapsed Time,43.0146262,-85.5902204,0,,,2.16,0,241,43,16,On,True,True,00000011000000000000000000000001,000000000000000000,,,,,3 983,,2 126,13,,,,,,,17,7,234,8 293,12,,,,,
23/04/2019 22:32,27/04/2019 01:45,Elapsed Time,43.0141019,-85.5920423,0,,,2.88,0,240,39,18,On,True,True,00000011000000000000000000000001,000000000000000000,,,,,3 991,,2 068,13,,,,,,,17,7,235,8 297,12,,,,,
23/04/2019 22:34,27/04/2019 01:45,Elapsed Time,43.0140293,-85.5919907,0,,,1.80,0,246,30,21,On,True,True,00000011000000000000000000000001,000000000000000000,,,,,3 992,,2 043,13,,,,,,,17,7,236,8 308,12,,,,,
23/04/2019 22:36,27/04/2019 01:45,Elapsed Time,43.0143362,-85.5922315,22,,,2.88,288,254,34,17,On,True,True,00000011000000000000000000000001,000000000000000000,,,,,3 988,,2 069,13,,,,,,,17,7,237,8 312,12,,,,,
23/04/2019 22:39,27/04/2019 01:45,Elapsed Time,43.0069005,-85.6009897,31,,,1.08,262,272,44,18,On,True,True,00000011000000000000000000000001,000000000000000000,,,,,3 988,,2 065,13,,,,,,,17,7,238,8 329,12,,,,,
23/04/2019 22:41,27/04/2019 01:45,Elapsed Time,43.0074648,-85.6033695,0,,,2.88,0,229,48,23,On,True,True,00000011000000000000000000000001,000000000000000000,,,,,3 991,,2 034,13,,,,,,,17,7,239,8 342,12,,,,,
23/04/2019 22:43,27/04/2019 01:45,Elapsed Time,43.0072953,-85.6037407,0,,,2.88,0,256,46,19,On,True,True,00000011000000000000000000000001,000000000000000000,,,,,3 988,,2 054,13,,,,,,,17,7,240,8 347,12,,,,,
23/04/2019 22:45,27/04/2019 01:45,Elapsed Time,43.0111642,-85.6003452,58,,,2.52,0,159,48,22,On,True,True,00000011000000000000000000000001,000000000000000000,,,,,3 991,,2 024,13,,,,,,,17,7,241,8 353,12,,,,,
23/04/2019 22:49,27/04/2019 01:45,Elapsed Time,43.0255032,-85.6097593,76,,,1.44,50,212,43,18,On,True,True,00000011000000000000000000000001,000000000000000000,,,,,3 984,,2 111,13,,,,,,,17,8,242,8 383,12,,,,,
23/04/2019 22:51,27/04/2019 01:45,Elapsed Time,43.0264579,-85.6028812,0,,,1.44,178,262,25,20,On,True,True,00000011000000000000000000000001,000000000000000000,,,,,3 986,,2 066,13,,,,,,,17,8,243,8 395,12,,,,,
23/04/2019 22:53,27/04/2019 01:45,Elapsed Time,43.0281602,-85.5956998,68,,,2.88,88,247,49,22,On,True,True,00000011000000000000000000000001,000000000000000000,,,,,3 987,,2 048,13,,,,,,,17,8,244,8 399,12,,,,,
23/04/2019 22:55,27/04/2019 01:45,Elapsed Time,43.0277050,-85.5922345,0,,,3.96,0,250,44,17,On,True,True,00000011000000000000000000000001,000000000000000000,,,,,3 988,,2 031,13,,,,,,,17,8,245,8 412,12,,,,,
23/04/2019 22:58,27/04/2019 01:45,Elapsed Time,43.0276544,-85.5920972,0,,,4.68,112,244,33,19,On,True,True,00000011000000000000000000000001,000000000000000000,,,,,3 987,,2 023,13,,,,,,,17,8,246,8 416,12,,,,,
23/04/2019 23:00,27/04/2019 01:45,End Of Trip,43.0276087,-85.5923482,0,,,4.68,222,246,34,20,Off,True,True,00000010000000000000000000000000,000000000000000000,,,,,3 986,,2 015,13,,,,,,,17,8,247,8 460,12,,,,,
24/04/2019 07:14,27/04/2019 01:45,Start Of Trip,43.0276087,-85.5923482,0,,,4.68,222,246,34,20,On,True,True,00000011000000000000000000000001,000000000000000000,,,,,3 981,,2 320,13,,,,,,,17,9,271,9 337,13,,,,,
24/04/2019 07:32,27/04/2019 01:45,Distance Travelled,42.9802617,-85.5906889,53,,,0.72,180,244,11,15,On,True,True,00000011000000000000000000000001,000000000000000000,,,,,3 981,,2 320,13,,,,,,,17,9,271,9 337,13,,,,,
24/04/2019 07:35,27/04/2019 01:45,Elapsed Time,42.9725253,-85.5906533,6,,,1.80,214,225,39,15,On,True,True,00000011000000000000000000000001,000000000000000000,,,,,3 980,,2 333,13,,,,,,,17,10,272,9 344,13,,,,,
24/04/2019 07:37,27/04/2019 01:45,Elapsed Time,42.9564696,-85.5708378,113,,,1.08,144,242,21,16,On,True,True,00000011000000000000000000000001,000000000000000000,,,,,3 985,,2 288,13,,,,,,,17,10,273,9 347,13,,,,,
24/04/2019 07:39,27/04/2019 01:45,Elapsed Time,42.9246850,-85.5537586,114,,,1.44,132,207,33,19,On,True,True,00000011000000000000000000000001,000000000000000000,,,,,3 986,,2 276,13,,,,,,,17,10,274,9 351,13,,,,,
24/04/2019 07:41,27/04/2019 01:45,Elapsed Time,42.9011526,-85.5213555,75,,,1.44,132,224,33,18,On,True,True,00000011000000000000000000000001,000000000000000000,,,,,3 985,,2 292,13,,,,,,,17,10,275,9 355,13,,,,,
24/04/2019 07:43,27/04/2019 01:45,Elapsed Time,42.8983079,-85.5358346,79,,,1.08,268,232,27,18,On,True,True,00000011000000000000000000000001,000000000000000000,,,,,3 984,,2 281,13,,,,,,,17,10,276,9 358,13,,,,,
24/04/2019 07:45,27/04/2019 01:45,Elapsed Time,42.8846673,-85.5471232,72,,,2.16,174,253,45,22,On,True,True,00000011000000000000000000000001,000000000000000000,,,,,3 985,,2 268,13,,,,,,,17,10,277,9 362,13,,,,,
24/04/2019 07:47,27/04/2019 01:45,Elapsed Time,42.8839977,-85.5308806,20,,,0.72,36,238,27,22,On,True,True,00000011000000000000000000000001,000000000000000000,,,,,3 983,,2 292,13,,,,,,,17,10,278,9 364,13,,,,,
24/04/2019 07:49,27/04/2019 01:45,Elapsed Time,42.8861570,-85.5288315,38,,,0.72,36,227,37,15,On,True,True,00000011000000000000000000000001,000000000000000000,,,,,3 984,,2 296,13,,,,,,,17,10,279,9 367,13,,,,,
24/04/2019 07:51,27/04/2019 01:45,Elapsed Time,42.8837392,-85.5450065,51,,,3.24,268,232,43,19,On,True,True,00000011000000000000000000000001,000000000000000000,,,,,3 982,,2 295,13,,,,,,,17,10,280,9 372,13,,,,,
24/04/2019 07:53,27/04/2019 01:45,Elapsed Time,42.8986535,-85.5479753,61,,,1.80,356,232,35,16,On,True,True,00000011000000000000000000000001,000000000000000000,,,,,3 985,,2 254,13,,,,,,,17,10,281,9 375,13,,,,,
24/04/2019 07:55,27/04/2019 01:45,Elapsed Time,42.9126086,-85.5535057,71,,,1.44,270,226,23,15,On,True,True,00000011000000000000000000000001,000000000000000000,,,,,3 983,,2 290,13,,,,,,,17,10,282,9 377,13,,,,,
24/04/2019 07:58,27/04/2019 01:45,Elapsed Time,42.9126163,-85.5688033,41,,,1.08,268,224,35,15,On,True,True,00000011000000000000000000000001,000000000000000000,,,,,3 983,,2 276,13,,,,,,,17,10,283,9 418,13,,,,,
24/04/2019 08:00,27/04/2019 01:45,Elapsed Time,42.9137442,-85.5797639,0,,,1.08,0,210,22,16,On,True,True,00000011000000000000000000000001,000000000000000000,,,,,3 983,,2 282,13,,,,,,,17,10,284,9 421,13,,,,,
24/04/2019 08:02,27/04/2019 01:45,Elapsed Time,42.9137955,-85.5794064,0,,,2.52,0,192,45,15,On,True,True,00000011000000000000000000000001,000000000000000000,,,,,3 982,,2 290,13,,,,,,,17,10,285,9 424,13,,,,,
24/04/2019 08:05,27/04/2019 01:45,End Of Trip,42.9137208,-85.5796080,0,,,1.44,254,207,23,15,Off,True,True,00000010000000000000000000000000,000000000000000000,,,,,3 981,,2 326,13,,,,,,,17,11,286,9 426,13,,,,,
24/04/2019 08:11,27/04/2019 01:45,Start Of Trip,42.9137208,-85.5796080,0,,,1.44,254,207,23,15,On,True,True,00000011000000000000000000000001,000000000000000000,,,,,3 981,,2 291,13,,,,,,,17,12,288,9 433,14,,,,,
24/04/2019 08:11,27/04/2019 01:45,Distance Travelled,42.9142853,-85.5816748,30,,,0.72,268,224,11,14,On,True,True,00000011000000000000000000000001,000000000000000000,,,,,3 981,,2 291,13,,,,,,,17,12,288,9 433,14,,,,,
24/04/2019 08:14,27/04/2019 01:45,Elapsed Time,42.9472722,-85.5849736,88,,,1.08,342,221,37,23,On,True,True,00000011000000000000000000000001,000000000000000000,,,,,3 976,,2 377,13,,,,,,,17,13,289,9 440,14,,,,,
24/04/2019 08:16,27/04/2019 01:45,Elapsed Time,42.9689020,-85.5907015,81,,,1.44,352,245,38,18,On,True,True,00000011000000000000000000000001,000000000000000000,,,,,3 979,,2 340,13,,,,,,,17,13,290,9 442,14,,,,,
24/04/2019 08:18,27/04/2019 01:45,Elapsed Time,42.9959947,-85.5902730,88,,,1.44,0,250,32,15,On,True,True,00000011000000000000000000000001,000000000000000000,,,,,3 980,,2 331,13,,,,,,,17,13,291,9 444,14,,,,,
24/04/2019 08:20,27/04/2019 01:45,Elapsed Time,43.0119949,-85.5902209,58,,,2.16,0,227,40,15,On,True,True,00000011000000000000000000000001,000000000000000000,,,,,3 982,,2 313,13,,,,,,,17,13,292,9 446,14,,,,,
24/04/2019 08:22,27/04/2019 01:45,Elapsed Time,43.0132906,-85.6016239,78,,,0.72,270,236,23,14,On,True,True,00000011000000000000000000000001,000000000000000000,,,,,3 981,,2 318,13,,,,,,,17,13,293,9 483,14,,,,,
24/04/2019 08:25,27/04/2019 01:45,Elapsed Time,43.0248691,-85.6147516,70,,,1.80,2,227,44,15,On,True,True,00000011000000000000000000000001,000000000000000000,,,,,3 981,,2 305,13,,,,,,,17,13,294,9 486,14,,,,,
24/04/2019 08:27,27/04/2019 01:45,Elapsed Time,43.0365828,-85.6167746,33,,,1.80,352,211,48,20,On,True,True,00000011000000000000000000000001,000000000000000000,,,,,3 979,,2 316,13,,,,,,,17,13,295,9 490,14,,,,,
24/04/2019 08:29,27/04/2019 01:45,Elapsed Time,43.0402924,-85.6163913,2,,,1.80,124,254,30,14,On,True,True,00000011000000000000000000000001,000000000000000000,,,,,3 982,,2 291,13,,,,,,,17,13,296,9 492,14,,,,,
24/04/2019 08:31,27/04/2019 01:45,Elapsed Time,43.0401582,-85.6162944,0,,,2.52,0,213,30,13,On,True,True,00000011000000000000000000000001,000000000000000000,,,,,3 979,,2 322,13,,,,,,,17,13,297,9 495,14,,,,,
24/04/2019 08:33,27/04/2019 01:45,Elapsed Time,43.0402178,-85.6164192,0,,,1.44,0,220,32,15,On,True,True,00000011000000000000000000000001,000000000000000000,,,,,3 981,,2 299,13,,,,,,,17,13,298,9 498,14,,,,,
24/04/2019 08:35,27/04/2019 01:45,End Of Trip,43.0401216,-85.6164022,0,,,1.08,0,214,25,13,Off,True,True,00000010000000000000000000000000,000000000000000000,,,,,3 984,,2 248,13,,,,,,,17,13,299,9 500,14,,,,,
24/04/2019 08:52,27/04/2019 01:45,Start Of Trip,43.0401216,-85.6164022,0,,,1.08,0,214,25,13,On,True,True,00000011000000000000000000000001,000000000000000000,,,,,3 982,,2 284,13,,,,,,,17,14,301,9 506,15,,,,,
24/04/2019 08:53,27/04/2019 01:45,Distance Travelled,43.0384191,-85.6162099,31,,,1.08,176,219,11,13,On,True,True,00000011000000000000000000000001,000000000000000000,,,,,3 982,,2 284,13,,,,,,,17,14,301,9 506,15,,,,,
24/04/2019 08:56,27/04/2019 01:45,Elapsed Time,43.0356358,-85.6168353,0,,,1.08,0,231,19,20,On,True,True,00000011000000000000000000000001,000000000000000000,,,,,3 978,,2 347,13,,,,,,,17,15,302,9 549,15,,,,,
24/04/2019 08:58,27/04/2019 01:45,Elapsed Time,43.0359775,-85.6170106,0,,,1.80,0,193,42,17,On,True,True,00000011000000000000000000000001,000000000000000000,,,,,3 977,,2 337,13,,,,,,,17,15,303,9 553,15,,,,,
24/04/2019 09:00,27/04/2019 01:45,Elapsed Time,43.0421081,-85.6005893,46,,,0.72,180,235,24,13,On,True,True,00000011000000000000000000000001,000000000000000000,,,,,3 981,,2 311,13,,,,,,,17,15,304,9 555,15,,,,,
24/04/2019 09:02,27/04/2019 01:45,Elapsed Time,43.0320086,-85.5971062,50,,,1.08,182,249,44,15,On,True,True,00000011000000000000000000000001,000000000000000000,,,,,3 982,,2 307,13,,,,,,,17,15,305,9 558,15,,,,,
24/04/2019 09:05,27/04/2019 01:45,Elapsed Time,43.0272185,-85.5947218,0,,,2.52,0,235,44,19,On,True,True,00000011000000000000000000000001,000000000000000000,,,,,3 977,,2 351,13,,,,,,,17,15,306,9 562,15,,,,,
24/04/2019 09:07,27/04/2019 01:45,Elapsed Time,43.0268901,-85.5946042,0,,,1.44,0,281,33,19,On,True,True,00000011000000000000000000000001,000000000000000000,,,,,3 978,,2 333,13,,,,,,,17,15,307,9 566,15,,,,,
24/04/2019 09:09,27/04/2019 01:45,Elapsed Time,43.0270542,-85.5949867,0,,,2.52,0,312,41,15,On,True,True,00000011000000000000000000000001,000000000000000000,,,,,3 980,,2 313,13,,,,,,,17,15,308,9 572,15,,,,,
24/04/2019 09:11,27/04/2019 01:45,End Of Trip,43.0271284,-85.5946259,0,,,3.60,182,242,47,14,Off,True,True,00000010000000000000000000000000,000000000000000000,,,,,3 978,,2 337,13,,,,,,,17,15,309,9 575,15,,,,,
24/04/2019 09:35,27/04/2019 01:45,Start Of Trip,43.0271284,-85.5946259,0,,,3.60,182,242,47,14,On,True,True,00000011000000000000000000000001,000000000000000000,,,,,3 981,,2 294,13,,,,,,,17,16,313,9 626,16,,,,,
24/04/2019 09:36,27/04/2019 01:45,Distance Travelled,43.0281228,-85.5949609,26,,,1.44,244,249,15,15,On,True,True,00000011000000000000000000000001,000000000000000000,,,,,3 981,,2 294,13,,,,,,,17,16,313,9 626,16,,,,,
24/04/2019 09:39,27/04/2019 01:45,Elapsed Time,43.0271598,-85.5946458,1,,,2.88,6,265,49,21,On,True,True,00000011000000000000000000000001,000000000000000000,,,,,3 975,,2 369,13,,,,,,,17,17,314,9 632,16,,,,,
24/04/2019 09:41,27/04/2019 01:45,End Of Trip,43.0271796,-85.5946137,1,,,4.68,0,261,49,21,Off,True,True,00000010000000000000000000000000,000000000000000000,,,,,3 977,,2 349,13,,,,,,,17,17,315,9 635,16,,,,,
24/04/2019 10:28,27/04/2019 01:45,Start Of Trip,43.0271796,-85.5946137,1,,,4.68,0,261,49,21,On,True,True,00000011000000000000000000000001,000000000000000000,,,,,3 975,,2 339,13,,,,,,,17,18,327,9 774,17,,,,,
24/04/2019 10:29,27/04/2019 01:45,Distance Travelled,43.0282413,-85.5974659,54,,,0.72,270,250,19,13,On,True,True,00000011000000000000000000000001,000000000000000000,,,,,3 975,,2 339,13,,,,,,,17,18,327,9 774,17,,,,,
24/04/2019 10:32,27/04/2019 01:45,Elapsed Time,43.0285488,-85.6245630,67,,,1.44,268,202,33,20,On,True,True,00000011000000000000000000000001,000000000000000000,,,,,3 974,,2 386,13,,,,,,,17,19,328,9 783,17,,,,,
24/04/2019 10:34,27/04/2019 01:45,Elapsed Time,43.0207652,-85.6386677,81,,,1.08,276,204,32,15,On,True,True,00000011000000000000000000000001,000000000000000000,,,,,3 977,,2 333,13,,,,,,,17,19,329,9 789,17,,,,,
24/04/2019 10:36,27/04/2019 01:45,Elapsed Time,43.0189549,-85.6702414,102,,,1.44,216,188,23,16,On,True,True,00000011000000000000000000000001,000000000000000000,,,,,3 977,,2 358,13,,,,,,,17,19,330,9 802,17,,,,,
24/04/2019 10:39,27/04/2019 01:45,Elapsed Time,42.9873153,-85.6772948,111,,,1.44,178,176,43,16,On,True,True,00000011000000000000000000000001,000000000000000000,,,,,3 977,,2 328,13,,,,,,,17,19,331,9 805,17,,,,,
24/04/2019 10:41,27/04/2019 01:45,Elapsed Time,42.9667383,-85.6781479,32,,,1.08,18,195,28,18,On,True,True,00000011000000000000000000000001,000000000000000000,,,,,3 974,,2 356,13,,,,,,,17,19,332,9 807,17,,,,,
24/04/2019 10:43,27/04/2019 01:45,Elapsed Time,42.9706015,-85.6788589,18,,,1.80,266,198,47,16,On,True,True,00000011000000000000000000000001,000000000000000000,,,,,3 974,,2 361,13,,,,,,,17,19,333,9 832,17,,,,,
24/04/2019 10:49,27/04/2019 01:45,End Of Trip,42.9706015,-85.6788589,18,,,1.80,266,198,47,16,Off,True,True,00000010000000000000000000000000,000000000000000000,,,,,3 975,,2 369,13,,,,,,,17,19,335,9 897,17,,,,,
24/04/2019 12:43,27/04/2019 01:45,Start Of Trip,42.9706015,-85.6788589,18,,,1.80,266,198,47,16,On,True,True,00000011000000000000000000000001,000000000000000000,,,,,3 971,,2 435,13,,,,,,,17,20,358,11 260,18,,,,,
24/04/2019 12:45,27/04/2019 01:45,Distance Travelled,42.9659683,-85.6777344,0,,,1.44,0,166,26,16,On,True,True,00000011000000000000000000000001,000000000000000000,,,,,3 971,,2 435,13,,,,,,,17,20,358,11 260,18,,,,,
24/04/2019 12:49,27/04/2019 01:45,Elapsed Time,42.9659823,-85.6782298,1,,,3.60,130,210,45,17,On,True,True,00000011000000000000000000000001,000000000000000000,,,,,3 970,,2 443,13,,,,,,,17,21,359,11 306,18,,,,,
24/04/2019 12:51,27/04/2019 01:45,End Of Trip,42.9660781,-85.6780046,0,,,2.88,0,222,45,18,Off,True,True,00000010000000000000000000000000,000000000000000000,,,,,3 972,,2 420,13,,,,,,,17,21,360,11 331,18,,,,,
24/04/2019 23:25,27/04/2019 01:45,Start Of Trip,42.9660781,-85.6780046,0,,,2.88,0,222,45,18,On,True,True,00000011000000000000000000000001,000000000000000000,,,,,3 973,,2 097,13,,,,,,,17,22,368,11 613,19,,,,,
24/04/2019 23:34,27/04/2019 01:45,Distance Travelled,42.9910104,-85.6770997,113,,,1.08,358,191,15,18,On,True,True,00000011000000000000000000000001,000000000000000000,,,,,3 973,,2 097,13,,,,,,,17,22,368,11 613,19,,,,,
24/04/2019 23:38,27/04/2019 01:45,Elapsed Time,43.0197827,-85.6888683,42,,,0.72,358,235,20,19,On,True,True,00000011000000000000000000000001,000000000000000000,,,,,3 968,,2 163,13,,,,,,,17,23,369,11 621,19,,,,,
24/04/2019 23:40,27/04/2019 01:45,Elapsed Time,43.0229426,-85.6893951,0,,,0.72,0,211,36,19,On,True,True,00000011000000000000000000000001,000000000000000000,,,,,3 972,,2 135,13,,,,,,,17,23,370,11 625,19,,,,,
24/04/2019 23:42,27/04/2019 01:45,Elapsed Time,43.0229837,-85.6892076,0,,,2.52,0,252,36,19,On,True,True,00000011000000000000000000000001,000000000000000000,,,,,3 970,,2 132,13,,,,,,,17,23,371,11 630,19,,,,,
24/04/2019 23:44,27/04/2019 01:45,Elapsed Time,43.0225711,-85.6891732,36,,,1.80,178,210,43,19,On,True,True,00000011000000000000000000000001,000000000000000000,,,,,3 974,,2 102,13,,,,,,,17,23,372,11 635,19,,,,,
24/04/2019 23:46,27/04/2019 01:45,Elapsed Time,43.0192854,-85.7014478,111,,,1.80,280,237,35,20,On,True,True,00000011000000000000000000000001,000000000000000000,,,,,3 973,,2 116,13,,,,,,,17,23,373,11 637,19,,,,,
24/04/2019 23:48,27/04/2019 01:45,Elapsed Time,43.0180561,-85.7493988,116,,,0.72,270,244,27,14,On,True,True,00000011000000000000000000000001,000000000000000000,,,,,3 973,,2 093,13,,,,,,,17,23,374,11 642,19,,,,,
24/04/2019 23:51,27/04/2019 01:45,Elapsed Time,43.0364975,-85.7633271,75,,,0.72,0,225,6,13,On,True,True,00000011000000000000000000000001,000000000000000000,,,,,3 976,,2 082,13,,,,,,,17,23,375,11 684,19,,,,,
24/04/2019 23:53,27/04/2019 01:45,Elapsed Time,43.0606283,-85.7680052,80,,,2.16,0,254,46,16,On,True,True,00000011000000000000000000000001,000000000000000000,,,,,3 973,,2 095,13,,,,,,,17,23,376,11 712,19,,,,,
24/04/2019 23:55,27/04/2019 01:45,Elapsed Time,43.0870363,-85.7680956,85,,,1.08,358,247,26,14,On,True,True,00000011000000000000000000000001,000000000000000000,,,,,3 973,,2 086,13,,,,,,,17,23,377,11 714,19,,,,,
24/04/2019 23:57,27/04/2019 01:45,Elapsed Time,43.1103711,-85.7685030,17,,,0.72,50,270,32,13,On,True,True,00000011000000000000000000000001,000000000000000000,,,,,3 971,,2 110,13,,,,,,,17,23,378,11 717,19,,,,,
24/04/2019 23:59,27/04/2019 01:45,Elapsed Time,43.1107499,-85.7686645,11,,,1.08,0,263,25,12,On,True,True,00000011000000000000000000000001,000000000000000000,,,,,3 972,,2 088,13,,,,,,,17,23,379,11 720,19,,,,,
