﻿Date Logged (AET (+10:00)),Date Received (AET (+10:00)),Log Reason,Latitude,Longitude,Speed KmH,Used Speed Limit (KmH),Speed Band,Speed Accuracy (KmH),Heading Degrees,Altitude (m),Position Accuracy (m),PDOP Raw,Ignition,Gps Status Fix OK,Gps Status Fix 3D,Digital Inputs,Digital Outputs,Driver Id Type,Driver Id Data,Trip Type Code,Project Code,Analog 1,Analog 2,Analog 3,Analog 4,Analog 5,Analog 6,Analog 7,Analog 8,Analog 9,Analog 10,Analog 11,Analog 12,Analog 13,Analog 14,Analog 15,Analog 16,Analog 17,Analog 18,Analog 19,Analog 20
16/04/2019 09:40,27/04/2019 00:23,Sensor Value Elapsed Time,40.7453953,-73.9881993,4,,,4.68,344,186,48,16,Normal,True,True,00001000,000000000000000000,,,,,3 668,,,,2 857,1 882,,,,,0,63,2 862,96 554,47,,,,,
16/04/2019 14:10,27/04/2019 00:23,Sensor Value Elapsed Time,40.7453953,-73.9881993,4,,,4.68,344,186,48,16,Normal,True,True,00001000,000000000000000000,,,,,3 672,,,,2 126,3 109,,,,,0,63,2 862,96 554,47,,,,,
18/04/2019 11:10,27/04/2019 00:23,Sensor Value Elapsed Time,40.7453953,-73.9881993,4,,,4.68,344,186,48,16,Normal,True,True,00001000,000000000000000000,,,,,3 669,,,,2 394,3 563,,,,,0,63,2 862,96 554,47,,,,,
19/04/2019 23:10,27/04/2019 00:23,Sensor Value Elapsed Time,40.7453953,-73.9881993,4,,,4.68,344,186,48,16,Normal,True,True,00001000,000000000000000000,,,,,3 675,,,,2 159,5 661,,,,,0,63,2 862,96 554,47,,,,,
20/04/2019 12:40,27/04/2019 00:23,Sensor Value Elapsed Time,40.7453953,-73.9881993,4,,,4.68,344,186,48,16,Normal,True,True,00001000,000000000000000000,,,,,3 671,,,,2 283,5 472,,,,,72 360,63,2 862,96 554,47,,,,,
22/04/2019 05:10,27/04/2019 00:23,Sensor Value Elapsed Time,40.7453953,-73.9881993,4,,,4.68,344,186,48,16,Normal,True,True,00001000,000000000000000000,,,,,3 674,,,,2 138,5 146,,,,,810,63,2 862,96 554,47,,,,,
22/04/2019 18:40,27/04/2019 00:23,Sensor Value Elapsed Time,40.7453953,-73.9881993,4,,,4.68,344,186,48,16,Normal,True,True,00001000,000000000000000000,,,,,3 665,,,,2 254,5 194,,,,,0,63,2 862,96 554,47,,,,,
22/04/2019 23:10,27/04/2019 00:23,Sensor Value Elapsed Time,40.7453953,-73.9881993,4,,,4.68,344,186,48,16,Normal,True,True,00001000,000000000000000000,,,,,3 666,,,,2 741,3 862,,,,,0,63,2 862,96 554,47,,,,,
23/04/2019 03:40,27/04/2019 00:23,Sensor Value Elapsed Time,40.7453953,-73.9881993,4,,,4.68,344,186,48,16,Normal,True,True,00001000,000000000000000000,,,,,3 672,,,,2 424,4 135,,,,,765,63,2 862,96 554,47,,,,,
23/04/2019 08:10,27/04/2019 00:23,Sensor Value Elapsed Time,40.7453953,-73.9881993,4,,,4.68,344,186,48,16,Normal,True,True,00001000,000000000000000000,,,,,3 672,,,,2 250,4 796,,,,,7 110,63,2 862,96 554,47,,,,,
24/04/2019 11:11,27/04/2019 00:23,Sensor Value Elapsed Time,40.7453953,-73.9881993,4,,,4.68,344,186,48,16,Normal,True,True,00001000,000000000000000000,,,,,3 674,,,,2 090,4 007,,,,,0,63,2 862,96 554,47,,,,,
