Date Logged (ET (-05:00)),Date Received (ET (-05:00)),Log Reason,Latitude,Longitude,Speed MPH,Used Speed Limit (MPH),Speed Band,Speed Accuracy (MPH),Heading Degrees,Altitude (ft),Position Accuracy (ft),PDOP Raw,Ignition,Gps Status Fix OK,Gps Status Fix 3D,Digital Inputs,Digital Outputs,Driver Id Type,Driver Id Data,Trip Type Code,Project Code,Analog 1,Analog 2,Analog 3,Analog 4,Analog 5,Analog 6,Analog 7,Analog 8,Analog 9,Analog 10,Analog 11,Analog 12,Analog 13,Analog 14,Analog 15,Analog 16,Analog 17,Analog 18,Analog 19,Analog 20
04/25/2019 00:04,04/26/2019 10:23,Heartbeat Status,42.9661576,-85.6780012,0,,,1.79,0,617,138,23,Normal,TRUE,TRUE,00000110000000000000000000001000,000000000000000000,,,,,"4,137",,"3,350",,"3,311","2,794",,,,,"306,720",0,0,0,0,,,,,
04/25/2019 00:15,04/26/2019 10:23,Heartbeat Status,42.965944,-85.6778343,0,,,1.57,190,486,105,24,Normal,TRUE,TRUE,00000110000000000000000000001000,000000000000000000,,,,,"4,156",,"3,357",,"3,296","2,801",,,,,"305,280",0,0,0,0,,,,,
04/25/2019 00:25,04/26/2019 10:23,Heartbeat Status,42.9660059,-85.6781028,0,,,2.01,108,564,105,38,Normal,TRUE,TRUE,00000110000000000000000000001000,000000000000000000,,,,,"4,155",,"3,329",,"3,196","2,847",,,,,"288,000",0,0,0,0,,,,,
04/25/2019 00:29,04/26/2019 10:23,Sensor Value Elapsed Time,42.9660059,-85.6781028,0,,,2.01,108,564,105,38,Normal,TRUE,TRUE,00000110000000000000000000001000,000000000000000000,,,,,"4,154",,"3,339",,"3,172","2,864",,,,,"289,440",0,0,0,0,,,,,
04/25/2019 00:34,04/26/2019 10:23,Sensor Value Elapsed Time,42.9658815,-85.6778999,0,,,2.91,176,591,118,29,Normal,TRUE,TRUE,00000110000000000000000000001000,000000000000000000,,,,,"4,158",,"3,225",,"3,064","2,949",,,,,"190,080",0,0,0,0,,,,,
04/25/2019 00:35,04/26/2019 10:23,Heartbeat Status,42.9660435,-85.6780722,0,,,1.12,0,614,154,19,Normal,TRUE,TRUE,00000110000000000000000000001000,000000000000000000,,,,,"4,158",,"3,231",,"3,056","2,948",,,,,"190,080",0,0,0,0,,,,,
04/25/2019 00:41,04/26/2019 10:23,Sensor Value Elapsed Time,42.9660435,-85.6780722,0,,,1.12,0,614,154,19,Normal,TRUE,TRUE,00000110000000000000000000001000,000000000000000000,,,,,"4,159",,"3,141",,"2,956","3,030",,,,,"191,520",0,0,0,0,,,,,
04/25/2019 00:46,04/26/2019 10:23,Heartbeat Status,42.966347,-85.6780223,0,,,2.91,350,659,144,22,Normal,TRUE,TRUE,00000110000000000000000000001000,000000000000000000,,,,,"4,160",,"3,057",,"2,880","3,090",,,,,"192,960",0,0,0,0,,,,,
04/25/2019 00:50,04/26/2019 10:23,Sensor Value Elapsed Time,42.966347,-85.6780223,0,,,2.91,350,659,144,22,Normal,TRUE,TRUE,00000110000000000000000000001000,000000000000000000,,,,,"4,158",,"3,065",,"2,837","3,134",,,,,"192,960",0,0,0,0,,,,,
04/25/2019 00:56,04/26/2019 10:23,Heartbeat Status,42.9663287,-85.6779355,0,,,2.24,358,643,128,49,Normal,TRUE,TRUE,00000110000000000000000000001000,000000000000000000,,,,,"4,160",,"2,977",,"2,755","3,201",,,,,"194,400",0,0,0,0,,,,,
04/25/2019 01:00,04/26/2019 10:23,Sensor Value Elapsed Time,42.9663287,-85.6779355,0,,,2.24,358,643,128,49,Normal,TRUE,TRUE,00000110000000000000000000001000,000000000000000000,,,,,"4,163",,"2,936",,"2,729","3,238",,,,,"194,400",0,0,0,0,,,,,
04/25/2019 01:06,04/26/2019 10:23,Heartbeat Status,42.9660547,-85.6780357,0,,,2.91,0,531,151,20,Normal,TRUE,TRUE,00000110000000000000000000001000,000000000000000000,,,,,"4,164",,"2,852",,"2,672","3,311",,,,,"195,840",0,0,0,0,,,,,
04/25/2019 01:13,04/26/2019 10:23,Sensor Value Elapsed Time,42.9660547,-85.6780357,0,,,2.91,0,531,151,20,Normal,TRUE,TRUE,00000110000000000000000000001000,000000000000000000,,,,,"4,161",,"2,853",,"2,620","3,360",,,,,"195,840",0,0,0,0,,,,,
04/25/2019 01:17,04/26/2019 10:23,Heartbeat Status,42.9666235,-85.6783842,0,,,2.91,340,571,128,26,Normal,TRUE,TRUE,00000110000000000000000000001000,000000000000000000,,,,,"4,160",,"2,829",,"2,591","3,389",,,,,"195,840",0,0,0,0,,,,,
04/25/2019 01:28,04/26/2019 10:23,Heartbeat Status,42.966099,-85.6778106,1,,,2.68,302,702,118,19,Normal,TRUE,TRUE,00000110000000000000000000001000,000000000000000000,,,,,"4,166",,"2,751",,"2,570","3,444",,,,,"195,840",0,0,0,0,,,,,
04/25/2019 01:32,04/26/2019 10:23,Sensor Value Elapsed Time,42.966099,-85.6778106,1,,,2.68,302,702,118,19,Normal,TRUE,TRUE,00000110000000000000000000001000,000000000000000000,,,,,"4,159",,"2,746",,"2,510","3,496",,,,,0,0,0,0,0,,,,,
04/25/2019 01:38,04/26/2019 10:23,Heartbeat Status,42.9660718,-85.6780141,0,,,2.01,116,554,154,20,Normal,TRUE,TRUE,00000110000000000000000000001000,000000000000000000,,,,,"4,157",,"2,674",,"2,450","3,561",,,,,0,0,0,0,0,,,,,
04/25/2019 01:45,04/26/2019 10:23,Sensor Value Elapsed Time,42.9660718,-85.6780141,0,,,2.01,116,554,154,20,Normal,TRUE,TRUE,00000110000000000000000000001000,000000000000000000,,,,,"4,155",,"2,656",,"2,410","3,617",,,,,0,0,0,0,0,,,,,
04/25/2019 01:49,04/26/2019 10:23,Heartbeat Status,42.9660718,-85.6780141,0,,,2.01,116,554,154,20,Normal,TRUE,TRUE,00000110000000000000000000001000,000000000000000000,,,,,"4,155",,"2,633",,"2,407","3,636",,,,,0,0,0,0,0,,,,,
04/25/2019 01:59,04/26/2019 10:23,Heartbeat Status,42.9661572,-85.6782379,0,,,2.24,0,696,125,21,Normal,TRUE,TRUE,00000110000000000000000000001000,000000000000000000,,,,,"4,153",,"2,563",,"2,373","3,696",,,,,0,0,0,0,0,,,,,
04/25/2019 02:10,04/26/2019 10:23,Heartbeat Status,42.9660931,-85.6778852,0,,,2.68,0,614,121,21,Normal,TRUE,TRUE,00000110000000000000000000001000,000000000000000000,,,,,"4,150",,"2,573",,"2,330","3,747",,,,,0,0,0,0,0,,,,,
04/25/2019 02:21,04/26/2019 10:23,Heartbeat Status,42.9660931,-85.6778852,0,,,2.68,0,614,121,21,Normal,TRUE,TRUE,00000110000000000000000000001000,000000000000000000,,,,,"4,150",,"2,548",,"2,330","3,782",,,,,0,0,0,0,0,,,,,
04/25/2019 02:29,04/26/2019 10:23,Sensor Value Elapsed Time,42.9660931,-85.6778852,0,,,2.68,0,614,121,21,Normal,TRUE,TRUE,00000110000000000000000000001000,000000000000000000,,,,,"4,146",,"2,555",,"2,308","3,804",,,,,0,0,0,0,0,,,,,
04/25/2019 02:32,04/26/2019 10:23,Heartbeat Status,42.9657601,-85.677955,0,,,2.46,192,453,148,44,Normal,TRUE,TRUE,00000110000000000000000000001000,000000000000000000,,,,,"4,150",,"2,529",,"2,317","3,812",,,,,0,0,0,0,0,,,,,
04/25/2019 02:42,04/26/2019 10:23,Heartbeat Status,42.9657428,-85.6779439,0,,,2.68,0,453,151,48,Normal,TRUE,TRUE,00000110000000000000000000001000,000000000000000000,,,,,"4,146",,"2,533",,"2,292","3,839",,,,,0,0,0,0,0,,,,,
04/25/2019 02:48,04/26/2019 10:23,Heartbeat Status,42.9657428,-85.6779439,0,,,2.68,0,453,151,48,Normal,TRUE,TRUE,00000110000000000000000000001000,000000000000000000,,,,,"4,145",,"2,545",,"2,322","3,835",,,,,0,0,0,0,0,,,,,
04/25/2019 02:58,04/26/2019 10:23,Heartbeat Status,42.9657767,-85.6779623,0,,,2.24,0,571,128,27,Normal,TRUE,TRUE,00000110000000000000000000001000,000000000000000000,,,,,"4,144",,"2,518",,"2,292","3,861",,,,,0,0,0,0,0,,,,,
04/25/2019 03:09,04/26/2019 10:23,Heartbeat Status,42.9657841,-85.6780323,0,,,0.89,0,545,79,15,Normal,TRUE,TRUE,00000110000000000000000000001000,000000000000000000,,,,,"4,140",,"2,536",,"2,285","3,878",,,,,"29,160",0,0,0,0,,,,,
04/25/2019 03:20,04/26/2019 10:23,Heartbeat Status,42.9662882,-85.6780447,0,,,2.91,338,574,138,23,Normal,TRUE,TRUE,00000110000000000000000000001000,000000000000000000,,,,,"4,139",,"2,531",,"2,278","3,890",,,,,0,0,0,0,0,,,,,
04/25/2019 03:30,04/26/2019 10:23,Heartbeat Status,42.9660888,-85.6781031,0,,,2.24,166,705,141,23,Normal,TRUE,TRUE,00000110000000000000000000001000,000000000000000000,,,,,"4,141",,"2,480",,"2,268","3,907",,,,,"29,160",0,0,0,0,,,,,
04/25/2019 03:41,04/26/2019 10:23,Heartbeat Status,42.9660391,-85.6780421,0,,,2.46,0,545,125,30,Normal,TRUE,TRUE,00000110000000000000000000001000,000000000000000000,,,,,"4,139",,"2,473",,"2,261","3,916",,,,,0,0,0,0,0,,,,,
04/25/2019 03:51,04/26/2019 10:23,Heartbeat Status,42.9661066,-85.6782542,0,,,2.68,116,679,125,25,Normal,TRUE,TRUE,00000110000000000000000000001000,000000000000000000,,,,,"4,135",,"2,500",,"2,260","3,925",,,,,0,0,0,0,0,,,,,
04/25/2019 04:02,04/26/2019 10:23,Heartbeat Status,42.9661524,-85.6780412,0,,,2.68,0,692,131,29,Normal,TRUE,TRUE,00000110000000000000000000001000,000000000000000000,,,,,"4,134",,"2,514",,"2,274","3,927",,,,,0,0,0,0,0,,,,,
04/25/2019 04:12,04/26/2019 10:23,Heartbeat Status,42.9660546,-85.6781128,0,,,2.91,0,525,131,23,Normal,TRUE,TRUE,00000110000000000000000000001000,000000000000000000,,,,,"4,134",,"2,505",,"2,254","3,930",,,,,0,0,0,0,0,,,,,
04/25/2019 04:22,04/26/2019 10:23,Heartbeat Status,42.9660125,-85.6780983,0,,,2.01,160,653,141,21,Normal,TRUE,TRUE,00000110000000000000000000001000,000000000000000000,,,,,"4,130",,"2,508",,"2,253","3,938",,,,,0,0,0,0,0,,,,,
04/25/2019 04:33,04/26/2019 10:23,Heartbeat Status,42.9661133,-85.678043,0,,,2.68,114,472,148,18,Normal,TRUE,TRUE,00000110000000000000000000001000,000000000000000000,,,,,"4,127",,"2,525",,"2,265","3,940",,,,,0,0,0,0,0,,,,,
04/25/2019 04:43,04/26/2019 10:23,Heartbeat Status,42.9662351,-85.6788644,0,,,1.79,306,787,128,17,Normal,TRUE,TRUE,00000110000000000000000000001000,000000000000000000,,,,,"4,131",,"2,481",,"2,247","3,945",,,,,0,0,0,0,0,,,,,
04/25/2019 04:54,04/26/2019 10:23,Heartbeat Status,42.9659524,-85.6777615,0,,,2.24,0,538,144,46,Normal,TRUE,TRUE,00000110000000000000000000001000,000000000000000000,,,,,"4,128",,"2,485",,"2,249","3,949",,,,,0,0,0,0,0,,,,,
04/25/2019 05:05,04/26/2019 10:23,Heartbeat Status,42.9659524,-85.6777615,0,,,2.24,0,538,144,46,Normal,TRUE,TRUE,00000110000000000000000000001000,000000000000000000,,,,,"4,126",,"2,503",,"2,251","3,957",,,,,"36,360",0,0,0,0,,,,,
04/25/2019 05:16,04/26/2019 10:23,Heartbeat Status,42.9659524,-85.6777615,0,,,2.24,0,538,144,46,Normal,TRUE,TRUE,00000110000000000000000000001000,000000000000000000,,,,,"4,128",,"2,488",,"2,255","3,979",,,,,"36,360",0,0,0,0,,,,,
04/25/2019 05:27,04/26/2019 10:23,Heartbeat Status,42.9659524,-85.6777615,0,,,2.24,0,538,144,46,Normal,TRUE,TRUE,00000110000000000000000000001000,000000000000000000,,,,,"4,124",,"2,517",,"2,270","3,956",,,,,"36,360",0,0,0,0,,,,,
04/25/2019 05:38,04/26/2019 10:23,Heartbeat Status,42.9659524,-85.6777615,0,,,2.24,0,538,144,46,Normal,TRUE,TRUE,00000110000000000000000000001000,000000000000000000,,,,,"4,121",,"2,533",,"2,269","3,943",,,,,"36,000",0,0,0,0,,,,,
04/25/2019 05:49,04/26/2019 10:23,Heartbeat Status,42.9659524,-85.6777615,0,,,2.24,0,538,144,46,Normal,TRUE,TRUE,00000110000000000000000000001000,000000000000000000,,,,,"4,123",,"2,488",,"2,269","3,939",,,,,"36,000",0,0,0,0,,,,,
04/25/2019 06:00,04/26/2019 10:23,Heartbeat Status,42.9661317,-85.6779614,0,,,2.68,186,696,118,26,Normal,TRUE,TRUE,00000110000000000000000000001000,000000000000000000,,,,,"4,122",,"2,474",,"2,268","3,937",,,,,"28,800",0,0,0,0,,,,,
04/25/2019 06:07,04/26/2019 10:23,Heartbeat Status,42.9660556,-85.6780618,0,,,2.24,250,551,138,37,Normal,TRUE,TRUE,00000110000000000000000000001000,000000000000000000,,,,,"4,117",,"2,514",,"2,262","3,928",,,,,0,0,0,0,0,,,,,
04/25/2019 06:18,04/26/2019 10:23,Heartbeat Status,42.966076,-85.6778887,0,,,2.91,114,538,121,32,Normal,TRUE,TRUE,00000110000000000000000000001000,000000000000000000,,,,,"4,119",,"2,486",,"2,254","3,931",,,,,0,0,0,0,0,,,,,
04/25/2019 06:29,04/26/2019 10:23,Heartbeat Status,42.9658932,-85.6778774,0,,,2.46,100,509,105,28,Normal,TRUE,TRUE,00000110000000000000000000001000,000000000000000000,,,,,"4,117",,"2,513",,"2,254","3,932",,,,,"36,360",0,0,0,0,,,,,
04/25/2019 06:39,04/26/2019 10:23,Heartbeat Status,42.9660703,-85.6778986,0,,,1.79,0,568,108,26,Normal,TRUE,TRUE,00000110000000000000000000001000,000000000000000000,,,,,"4,114",,"2,518",,"2,250","3,928",,,,,0,0,0,0,0,,,,,
04/25/2019 06:49,04/26/2019 10:23,Heartbeat Status,42.9658933,-85.6780017,0,,,1.57,178,600,115,22,Normal,TRUE,TRUE,00000110000000000000000000001000,000000000000000000,,,,,"4,114",,"2,509",,"2,246","3,926",,,,,0,0,0,0,0,,,,,
04/25/2019 06:59,04/26/2019 10:23,Heartbeat Status,42.9660211,-85.677987,0,,,2.24,164,614,148,22,Normal,TRUE,TRUE,00000110000000000000000000001000,000000000000000000,,,,,"4,113",,"2,502",,"2,244","3,927",,,,,0,0,0,0,0,,,,,
04/25/2019 07:10,04/26/2019 10:23,Heartbeat Status,42.9658857,-85.6780927,0,,,2.68,174,531,138,24,Normal,TRUE,TRUE,00000110000000000000000000001000,000000000000000000,,,,,"4,114",,"2,480",,"2,245","3,955",,,,,"29,160",0,0,0,0,,,,,
04/25/2019 07:20,04/26/2019 10:23,Heartbeat Status,42.9661007,-85.6780495,0,,,2.24,340,630,118,21,Normal,TRUE,TRUE,00000110000000000000000000001000,000000000000000000,,,,,"4,111",,"2,500",,"2,254","3,925",,,,,0,0,0,0,0,,,,,
04/25/2019 07:31,04/26/2019 10:23,Heartbeat Status,42.9656923,-85.677943,0,,,3.58,260,499,121,22,Normal,TRUE,TRUE,00000110000000000000000000001000,000000000000000000,,,,,"4,113",,"2,475",,"2,273","3,904",,,,,0,0,0,0,0,,,,,
04/25/2019 07:42,04/26/2019 10:23,Heartbeat Status,42.9662111,-85.6779253,0,,,2.68,166,725,118,19,Normal,TRUE,TRUE,00000110000000000000000000001000,000000000000000000,,,,,"4,112",,"2,477",,"2,274","3,894",,,,,0,0,0,0,0,,,,,
04/25/2019 07:53,04/26/2019 10:23,Heartbeat Status,42.9662111,-85.6779253,0,,,2.68,166,725,118,19,Normal,TRUE,TRUE,00000110000000000000000000001000,000000000000000000,,,,,"4,109",,"2,500",,"2,271","3,887",,,,,0,0,0,0,0,,,,,
04/25/2019 08:04,04/26/2019 10:23,Heartbeat Status,42.9658814,-85.6779464,0,,,2.91,108,604,112,36,Normal,TRUE,TRUE,00000110000000000000000000001000,000000000000000000,,,,,"4,108",,"2,501",,"2,271","3,891",,,,,0,0,0,0,0,,,,,
04/25/2019 08:14,04/26/2019 10:23,Heartbeat Status,42.9655235,-85.6778193,0,,,2.24,350,538,141,38,Normal,TRUE,TRUE,00000110000000000000000000001000,000000000000000000,,,,,"4,105",,"2,524",,"2,244","3,912",,,,,0,0,0,0,0,,,,,
04/25/2019 08:25,04/26/2019 10:23,Heartbeat Status,42.9655235,-85.6778193,0,,,2.24,350,538,141,38,Normal,TRUE,TRUE,00000110000000000000000000001000,000000000000000000,,,,,"4,103",,"2,510",,"2,260","3,909",,,,,0,0,0,0,0,,,,,
04/25/2019 08:36,04/26/2019 10:23,Heartbeat Status,42.9655235,-85.6778193,0,,,2.24,350,538,141,38,Normal,TRUE,TRUE,00000110000000000000000000001000,000000000000000000,,,,,"4,104",,"2,502",,"2,261","3,910",,,,,0,0,0,0,0,,,,,
04/25/2019 08:47,04/26/2019 10:23,Heartbeat Status,42.9662417,-85.6780526,0,,,2.24,0,748,128,32,Normal,TRUE,TRUE,00000110000000000000000000001000,000000000000000000,,,,,"4,100",,"2,518",,"2,262","3,910",,,,,0,0,0,0,0,,,,,
04/25/2019 08:57,04/26/2019 10:23,Heartbeat Status,42.9659082,-85.6779584,0,,,1.57,174,541,102,25,Normal,TRUE,TRUE,00000110000000000000000000001000,000000000000000000,,,,,"4,100",,"2,498",,"2,249","3,907",,,,,0,0,0,0,0,,,,,
04/25/2019 09:08,04/26/2019 10:23,Heartbeat Status,42.9659082,-85.6779584,0,,,1.57,174,541,102,25,Normal,TRUE,TRUE,00000110000000000000000000001000,000000000000000000,,,,,"4,098",,"2,516",,"2,257","3,899",,,,,"14,040",0,0,0,0,,,,,
04/25/2019 09:19,04/26/2019 10:23,Heartbeat Status,42.9659782,-85.6779402,0,,,1.57,2,666,131,32,Normal,TRUE,TRUE,00000110000000000000000000001000,000000000000000000,,,,,"4,098",,"2,520",,"2,257","3,884",,,,,0,0,0,0,0,,,,,
04/25/2019 09:19,04/26/2019 10:23,External Power Change,42.9659782,-85.6779402,0,,,1.57,2,666,131,32,Normal,TRUE,TRUE,00000010000000000000000000001000,000000000000000000,,,,,"4,098",,"2,520",,"2,267","3,887",,,,,"43,200",0,0,0,0,,,,,
04/25/2019 09:22,04/26/2019 10:23,Heartbeat Status,42.9659733,-85.6779716,0,,,2.24,0,558,121,32,Normal,TRUE,TRUE,00000010000000000000000000001000,000000000000000000,,,,,"4,095",,"2,554",,"2,285","3,975",,,,,"22,680",1,0,0,0,,,,,
04/25/2019 09:33,04/26/2019 10:23,Heartbeat Status,42.9659733,-85.6779716,0,,,2.24,0,558,121,32,Normal,TRUE,TRUE,00000010000000000000000000001000,000000000000000000,,,,,"4,094",,"2,586",,"2,345","3,923",,,,,0,2,4,192,0,,,,,
04/25/2019 10:51,04/26/2019 10:23,Heartbeat Status,43.0314351,-85.6888697,0,,,1.57,40,801,89,35,Normal,TRUE,TRUE,00000010000000000000000000001000,000000000000000000,,,,,"4,076",,"2,775",,"2,566","3,681",,,,,"43,200",0,0,0,0,,,,,
04/25/2019 10:55,04/26/2019 10:23,Heartbeat Status,43.0313471,-85.6887891,0,,,1.57,0,748,121,49,Normal,TRUE,TRUE,00000010000000000000000000001000,000000000000000000,,,,,"4,068",,"2,935",,"2,567","3,628",,,,,"51,120",1,0,0,0,,,,,
04/25/2019 10:58,04/26/2019 10:23,Heartbeat Status,43.0312089,-85.6886691,0,,,2.46,340,784,115,33,Normal,TRUE,TRUE,00000010000000000000000000001000,000000000000000000,,,,,"4,067",,"2,956",,"2,575","3,560",,,,,0,2,1,13,0,,,,,
04/25/2019 11:01,04/26/2019 10:23,Heartbeat Status,43.031091,-85.6885777,0,,,2.24,0,938,128,33,Normal,TRUE,TRUE,00000010000000000000000000001000,000000000000000000,,,,,"4,068",,"2,955",,"2,594","3,523",,,,,0,3,2,22,0,,,,,
04/25/2019 11:04,04/26/2019 10:23,Heartbeat Status,43.030514,-85.6897348,16,,,1.57,178,771,92,32,Normal,TRUE,TRUE,00000010000000000000000000001000,000000000000000000,,,,,"4,067",,"2,937",,"2,589","3,505",,,,,0,4,3,38,0,,,,,
04/25/2019 11:08,04/26/2019 10:23,Heartbeat Status,43.0209507,-85.6873258,0,,,1.12,0,768,75,31,Normal,TRUE,TRUE,00000010000000000000000000001000,000000000000000000,,,,,"4,065",,"2,974",,"2,589","3,550",,,,,0,5,4,50,0,,,,,
04/25/2019 11:08,04/26/2019 10:23,Start Of Trip,43.0209507,-85.6873258,0,,,1.12,0,768,75,31,Normal,TRUE,TRUE,00000011000000000000000000001001,000000000000000000,,,,,"4,065",,"2,974",,"2,589","3,550",,,,,0,5,4,50,1,,,,,
04/25/2019 11:08,04/26/2019 10:23,Distance Travelled,43.0209507,-85.6873258,0,,,0.89,0,768,52,31,Normal,TRUE,TRUE,00000011000000000000000000001001,000000000000000000,,,,,"4,065",,"2,974",,"2,589","3,550",,,,,0,5,4,50,1,,,,,
04/25/2019 11:11,04/26/2019 10:23,Elapsed Time,43.0208182,-85.6871489,1,,,1.34,344,833,154,22,Normal,TRUE,TRUE,00000011000000000000000000001001,000000000000000000,,,,,"4,063",,"2,981",,"2,600","3,556",,,,,0,6,5,97,1,,,,,
04/25/2019 11:14,04/26/2019 10:23,End Of Trip,43.0208499,-85.6883615,1,,,0.45,242,781,128,20,Normal,TRUE,TRUE,00000010000000000000000000001000,000000000000000000,,,,,"4,072",,"2,861",,"2,581","3,557",,,,,0,6,6,101,1,,,,,
04/25/2019 11:14,04/26/2019 10:23,Start Of Trip,43.0208499,-85.6883615,1,,,0.45,242,781,128,20,Normal,TRUE,TRUE,00000011000000000000000000001001,000000000000000000,,,,,"4,071",,"2,856",,"2,585","3,560",,,,,0,7,7,107,2,,,,,
04/25/2019 11:17,04/26/2019 10:23,Distance Travelled,43.0288839,-85.6894262,0,,,0.89,0,751,69,21,Normal,TRUE,TRUE,00000011000000000000000000001001,000000000000000000,,,,,"4,071",,"2,856",,"2,585","3,560",,,,,0,7,7,107,2,,,,,
04/25/2019 11:20,04/26/2019 10:23,Elapsed Time,43.0499168,-85.6895381,53,,,0.89,0,755,105,20,Normal,TRUE,TRUE,00000011000000000000000000001001,000000000000000000,,,,,"4,065",,"2,922",,"2,590","3,562",,,,,0,8,8,115,2,,,,,
04/25/2019 11:22,04/26/2019 10:23,Elapsed Time,43.0651694,-85.6897847,65,,,1.34,358,781,151,22,Normal,TRUE,TRUE,00000011000000000000000000001001,000000000000000000,,,,,"4,069",,"2,869",,"2,582","3,559",,,,,0,8,9,119,2,,,,,
04/25/2019 11:25,04/26/2019 10:23,Elapsed Time,43.1157745,-85.7047055,55,,,0.89,338,761,131,20,Normal,TRUE,TRUE,00000011000000000000000000001001,000000000000000000,,,,,"4,068",,"2,900",,"2,587","3,564",,,,,0,9,10,122,2,,,,,
04/25/2019 11:27,04/26/2019 10:23,Elapsed Time,43.1425869,-85.7099253,51,,,0.89,0,827,118,20,Normal,TRUE,TRUE,00000011000000000000000000001001,000000000000000000,,,,,"4,070",,"2,856",,"2,575","3,559",,,,,0,9,11,127,2,,,,,
04/25/2019 11:29,04/26/2019 10:23,Elapsed Time,43.1603331,-85.7099511,21,,,1.12,358,860,105,21,Normal,TRUE,TRUE,00000011000000000000000000001001,000000000000000000,,,,,"4,072",,"2,844",,"2,559","3,564",,,,,0,9,12,132,2,,,,,
04/25/2019 11:31,04/26/2019 10:23,Elapsed Time,43.1606888,-85.7087885,0,,,1.57,0,922,144,23,Normal,TRUE,TRUE,00000011000000000000000000001001,000000000000000000,,,,,"4,072",,"2,820",,"2,541","3,562",,,,,0,9,13,138,2,,,,,
04/25/2019 11:32,04/26/2019 10:23,Elapsed Time,43.1607594,-85.7089745,0,,,1.34,0,709,108,23,Normal,TRUE,TRUE,00000011000000000000000000001001,000000000000000000,,,,,"4,072",,"2,830",,"2,541","3,562",,,,,0,9,14,142,2,,,,,
04/25/2019 11:35,04/26/2019 10:23,End Of Trip,43.1608013,-85.7089682,0,,,1.12,0,755,82,23,Normal,TRUE,TRUE,00000010000000000000000000001000,000000000000000000,,,,,"4,067",,"2,870",,"2,546","3,549",,,,,0,10,15,146,2,,,,,
04/25/2019 11:42,04/26/2019 10:23,Start Of Trip,43.1608013,-85.7089682,0,,,1.12,0,755,82,23,Normal,TRUE,TRUE,00000011000000000000000000001001,000000000000000000,,,,,"4,073",,"2,780",,"2,522","3,542",,,,,0,11,17,157,3,,,,,
04/25/2019 11:44,04/26/2019 10:23,Distance Travelled,43.1609847,-85.7147046,30,,,0.89,270,804,95,22,Normal,TRUE,TRUE,00000011000000000000000000001001,000000000000000000,,,,,"4,073",,"2,780",,"2,522","3,542",,,,,0,11,17,157,3,,,,,
04/25/2019 11:47,04/26/2019 10:23,Elapsed Time,43.1614094,-85.7489252,36,,,0.67,270,843,118,22,Normal,TRUE,TRUE,00000011000000000000000000001001,000000000000000000,,,,,"4,064",,"2,885",,"2,537","3,529",,,,,0,12,18,168,3,,,,,
04/25/2019 11:49,04/26/2019 10:23,Elapsed Time,43.1469067,-85.7537385,45,,,1.12,268,794,125,23,Normal,TRUE,TRUE,00000011000000000000000000001001,000000000000000000,,,,,"4,071",,"2,788",,"2,525","3,512",,,,,0,12,19,173,3,,,,,
04/25/2019 11:51,04/26/2019 10:23,Elapsed Time,43.1414676,-85.7700151,48,,,1.34,178,879,157,21,Normal,TRUE,TRUE,00000011000000000000000000001001,000000000000000000,,,,,"4,070",,"2,792",,"2,520","3,497",,,,,0,12,20,215,3,,,,,
04/25/2019 11:54,04/26/2019 10:23,Elapsed Time,43.1108321,-85.7686605,1,,,2.68,0,955,138,21,Normal,TRUE,TRUE,00000011000000000000000000001001,000000000000000000,,,,,"4,065",,"2,845",,"2,535","3,472",,,,,0,13,21,219,3,,,,,
04/25/2019 11:57,04/26/2019 10:23,Elapsed Time,43.1110209,-85.7689036,0,,,2.91,138,945,118,20,Normal,TRUE,TRUE,00000011000000000000000000001001,000000000000000000,,,,,"4,071",,"2,795",,"2,523","3,418",,,,,0,13,22,228,3,,,,,
04/25/2019 11:59,04/26/2019 10:23,End Of Trip,43.1111159,-85.7690116,1,,,1.79,0,768,141,19,Normal,TRUE,TRUE,00000010000000000000000000001000,000000000000000000,,,,,"4,071",,"2,790",,"2,509","3,418",,,,,0,13,23,267,3,,,,,
04/25/2019 12:09,04/26/2019 10:23,Sensor Value Elapsed Time,43.111002,-85.7690181,0,,,2.01,36,755,161,22,Normal,TRUE,TRUE,00000010000000000000000000001000,000000000000000000,,,,,"4,068",,"2,745",,"2,458","3,410",,,,,"11,520",14,28,339,3,,,,,
04/25/2019 12:09,04/26/2019 10:23,Heartbeat Status,43.1109469,-85.7689161,0,,,2.01,0,784,161,22,Normal,TRUE,TRUE,00000010000000000000000000001000,000000000000000000,,,,,"4,067",,"2,741",,"2,458","3,410",,,,,"11,520",14,29,346,3,,,,,
04/25/2019 12:19,04/26/2019 10:23,Heartbeat Status,43.1110914,-85.7688485,0,,,2.24,188,879,144,21,Normal,TRUE,TRUE,00000010000000000000000000001000,000000000000000000,,,,,"4,070",,"2,660",,"2,392","3,439",,,,,"10,800",15,31,358,3,,,,,
04/25/2019 12:29,04/26/2019 10:23,Heartbeat Status,43.1111798,-85.7690144,0,,,2.46,134,758,125,19,Normal,TRUE,TRUE,00000010000000000000000000001000,000000000000000000,,,,,"4,067",,"2,647",,"2,360","3,459",,,,,"10,440",16,32,366,3,,,,,
04/25/2019 12:33,04/26/2019 10:23,Heartbeat Status,43.1111393,-85.7689097,0,,,2.01,106,909,141,22,Normal,TRUE,TRUE,00000010000000000000000000001000,000000000000000000,,,,,"4,064",,"2,657",,"2,367","3,437",,,,,"10,800",17,33,373,3,,,,,
04/25/2019 12:39,04/26/2019 10:23,Sensor Value Elapsed Time,43.111132,-85.769055,0,,,2.68,12,696,121,25,Normal,TRUE,TRUE,00000010000000000000000000001000,000000000000000000,,,,,"4,067",,"2,626",,"2,357","3,475",,,,,"1,080",18,35,391,3,,,,,
04/25/2019 12:53,04/26/2019 10:23,Heartbeat Status,43.111074,-85.768953,0,,,1.79,0,899,131,32,Normal,TRUE,TRUE,00000010000000000000000000001000,000000000000000000,,,,,"4,066",,"2,608",,"2,335","3,475",,,,,"260,640",19,45,505,3,,,,,
04/25/2019 13:03,04/26/2019 10:23,Heartbeat Status,43.1111554,-85.7689683,0,,,1.57,356,850,141,32,Normal,TRUE,TRUE,00000010000000000000000000001000,000000000000000000,,,,,"4,063",,"2,601",,"2,316","3,475",,,,,"262,080",20,51,596,3,,,,,
04/25/2019 13:13,04/26/2019 10:23,Heartbeat Status,43.111074,-85.7689453,0,,,1.57,0,938,115,27,Normal,TRUE,TRUE,00000010000000000000000000001000,000000000000000000,,,,,"4,064",,"2,586",,"2,312","3,550",,,,,"262,080",21,54,629,3,,,,,
04/25/2019 13:24,04/26/2019 10:23,Heartbeat Status,43.1112014,-85.7690322,0,,,2.68,44,807,115,27,Normal,TRUE,TRUE,00000010000000000000000000001000,000000000000000000,,,,,"4,065",,"2,550",,"2,293","3,439",,,,,"254,880",22,58,689,3,,,,,
04/25/2019 13:27,04/26/2019 10:23,Heartbeat Status,43.1112058,-85.7690934,0,,,1.57,0,807,118,27,Normal,TRUE,TRUE,00000010000000000000000000001000,000000000000000000,,,,,"4,058",,"2,628",,"2,309","3,408",,,,,"254,880",23,59,712,3,,,,,
04/25/2019 13:37,04/26/2019 10:23,Heartbeat Status,43.1111558,-85.7688143,0,,,2.24,0,876,115,25,Normal,TRUE,TRUE,00000010000000000000000000001000,000000000000000000,,,,,"4,062",,"2,577",,"2,299","3,440",,,,,"256,320",24,65,767,3,,,,,
04/25/2019 13:47,04/26/2019 10:23,Heartbeat Status,43.1111447,-85.7690732,0,,,1.79,304,833,118,26,Normal,TRUE,TRUE,00000010000000000000000000001000,000000000000000000,,,,,"4,063",,"2,561",,"2,303","3,468",,,,,"216,000",25,66,776,3,,,,,
04/25/2019 13:58,04/26/2019 10:23,Heartbeat Status,43.111021,-85.7685587,0,,,4.7,98,755,161,26,Normal,TRUE,TRUE,00000010000000000000000000001000,000000000000000000,,,,,"4,062",,"2,559",,"2,303","3,474",,,,,"270,720",26,67,787,3,,,,,
04/25/2019 14:09,04/26/2019 10:23,Heartbeat Status,43.1111395,-85.7688949,0,,,2.24,122,833,125,26,Normal,TRUE,TRUE,00000010000000000000000000001000,000000000000000000,,,,,"4,058",,"2,591",,"2,325","3,496",,,,,"249,120",27,73,991,3,,,,,
04/25/2019 14:29,04/26/2019 10:23,Heartbeat Status,43.1111271,-85.7690111,0,,,2.91,94,801,115,25,Normal,TRUE,TRUE,00000010000000000000000000001000,000000000000000000,,,,,"4,061",,"2,557",,"2,316","3,582",,,,,"244,800",29,83,"1,158",3,,,,,
04/25/2019 14:34,04/26/2019 10:23,Heartbeat Status,43.1111788,-85.7689968,0,,,2.46,54,797,115,26,Normal,TRUE,TRUE,00000010000000000000000000001000,000000000000000000,,,,,"4,059",,"2,575",,"2,338","3,552",,,,,"9,360",30,85,"1,199",3,,,,,
04/25/2019 14:44,04/26/2019 10:23,Heartbeat Status,43.1173658,-85.7220918,61,,,1.57,90,968,85,29,Normal,TRUE,TRUE,00000010000000000000000000001000,000000000000000000,,,,,"4,057",,"2,659",,"2,390","3,723",,,,,0,31,89,"1,311",3,,,,,
04/25/2019 14:44,04/26/2019 10:23,Start Of Trip,43.1173658,-85.7220918,61,,,1.57,90,968,85,29,Normal,TRUE,TRUE,00000011000000000000000000001001,000000000000000000,,,,,"4,057",,"2,659",,"2,404","3,755",,,,,0,31,89,"1,311",4,,,,,
04/25/2019 14:44,04/26/2019 10:23,Distance Travelled,43.117334,-85.7207232,62,,,1.79,90,961,72,29,Normal,TRUE,TRUE,00000011000000000000000000001001,000000000000000000,,,,,"4,057",,"2,659",,"2,404","3,755",,,,,0,31,89,"1,311",4,,,,,
04/25/2019 14:47,04/26/2019 10:23,Elapsed Time,43.1168624,-85.6888974,32,,,1.57,90,758,89,30,Normal,TRUE,TRUE,00000011000000000000000000001001,000000000000000000,,,,,"4,053",,"2,765",,"2,454","3,804",,,,,0,32,90,"1,324",4,,,,,
04/25/2019 14:48,04/26/2019 10:23,Sensor Value Elapsed Time,43.1168624,-85.6888974,32,,,1.57,90,758,89,30,Normal,TRUE,TRUE,00000011000000000000000000001001,000000000000000000,,,,,"4,054",,"2,731",,"2,465","3,803",,,,,0,32,91,"1,332",4,,,,,
04/25/2019 14:50,04/26/2019 10:23,Elapsed Time,43.1166908,-85.6522,9,,,1.57,90,715,92,31,Normal,TRUE,TRUE,00000011000000000000000000001001,000000000000000000,,,,,"4,054",,"2,756",,"2,474","3,814",,,,,0,32,91,"1,332",4,,,,,
04/25/2019 14:52,04/26/2019 10:23,Elapsed Time,43.1168352,-85.6258357,59,,,0.67,88,774,92,30,Normal,TRUE,TRUE,00000011000000000000000000001001,000000000000000000,,,,,"4,055",,"2,781",,"2,502","3,811",,,,,0,32,92,"1,393",4,,,,,
04/25/2019 14:54,04/26/2019 10:23,Elapsed Time,43.1169916,-85.5939364,58,,,0.67,88,850,102,30,Normal,TRUE,TRUE,00000011000000000000000000001001,000000000000000000,,,,,"4,053",,"2,797",,"2,520","3,818",,,,,0,32,93,"1,401",4,,,,,
04/25/2019 14:54,04/26/2019 10:23,Elapsed Time,43.1170208,-85.5888178,57,,,0.67,88,856,92,30,Normal,TRUE,TRUE,00000011000000000000000000001001,000000000000000000,,,,,"4,053",,"2,821",,"2,532","3,814",,,,,0,32,94,"1,408",4,,,,,
04/25/2019 14:56,04/26/2019 10:23,Sensor Value Elapsed Time,43.1170208,-85.5888178,57,,,0.67,88,856,92,30,Normal,TRUE,TRUE,00000011000000000000000000001001,000000000000000000,,,,,"4,053",,"2,821",,"2,567","3,807",,,,,0,32,95,"1,416",4,,,,,
04/25/2019 14:57,04/26/2019 10:23,Elapsed Time,43.1173381,-85.5526098,30,,,0.67,88,728,105,42,Normal,TRUE,TRUE,00000011000000000000000000001001,000000000000000000,,,,,"4,048",,"2,907",,"2,581","3,797",,,,,0,33,95,"1,416",4,,,,,
04/25/2019 15:00,04/26/2019 10:23,Elapsed Time,43.097046,-85.5504634,60,,,0.67,180,748,69,42,Normal,TRUE,TRUE,00000011000000000000000000001001,000000000000000000,,,,,"4,054",,"2,886",,"2,597","3,778",,,,,0,33,96,"1,424",4,,,,,
04/25/2019 15:02,04/26/2019 10:23,Elapsed Time,43.0744425,-85.5750532,62,,,0.67,242,653,108,28,Normal,TRUE,TRUE,00000011000000000000000000001001,000000000000000000,,,,,"4,053",,"2,897",,"2,608","3,771",,,,,0,33,97,"1,432",4,,,,,
04/25/2019 15:04,04/26/2019 10:23,Elapsed Time,43.0602323,-85.579981,1,,,0.67,178,597,72,27,Normal,TRUE,TRUE,00000011000000000000000000001001,000000000000000000,,,,,"4,052",,"2,894",,"2,616","3,756",,,,,0,33,98,"1,441",4,,,,,
04/25/2019 15:04,04/26/2019 10:23,Elapsed Time,43.0575796,-85.5799373,45,,,0.89,178,561,85,27,Normal,TRUE,TRUE,00000011000000000000000000001001,000000000000000000,,,,,"4,052",,"2,925",,"2,625","3,744",,,,,0,33,99,"1,448",4,,,,,
04/25/2019 15:07,04/26/2019 10:23,Sensor Value Elapsed Time,43.0575796,-85.5799373,45,,,0.89,178,561,85,27,Normal,TRUE,TRUE,00000011000000000000000000001001,000000000000000000,,,,,"4,052",,"2,925",,"2,668","3,705",,,,,0,33,100,"1,454",4,,,,,
04/25/2019 15:08,04/26/2019 10:23,Elapsed Time,43.0279577,-85.5924836,0,,,1.57,0,843,118,40,Normal,TRUE,TRUE,00000011000000000000000000001001,000000000000000000,,,,,"4,048",,"2,992",,"2,668","3,705",,,,,0,34,100,"1,454",4,,,,,
04/25/2019 15:10,04/26/2019 10:23,Elapsed Time,43.0281188,-85.5926371,0,,,0.89,134,869,89,23,Normal,TRUE,TRUE,00000011000000000000000000001001,000000000000000000,,,,,"4,052",,"2,956",,"2,677","3,668",,,,,0,34,101,"1,501",4,,,,,
04/25/2019 15:12,04/26/2019 10:23,Elapsed Time,43.0279895,-85.5925589,0,,,1.34,0,846,138,17,Normal,TRUE,TRUE,00000011000000000000000000001001,000000000000000000,,,,,"4,047",,"2,986",,"2,678","3,665",,,,,0,34,102,"1,504",4,,,,,
04/25/2019 15:14,04/26/2019 10:23,End Of Trip,43.0280053,-85.5925377,0,,,0.89,122,801,112,17,Normal,TRUE,TRUE,00000010000000000000000000001000,000000000000000000,,,,,"4,050",,"2,972",,"2,676","3,664",,,,,0,34,103,"1,506",4,,,,,
04/25/2019 15:20,04/26/2019 10:23,Start Of Trip,43.0280053,-85.5925377,0,,,0.89,122,801,112,17,Normal,TRUE,TRUE,00000011000000000000000000001001,000000000000000000,,,,,"4,050",,"2,976",,"2,714","3,648",,,,,0,35,105,"1,513",5,,,,,
04/25/2019 15:21,04/26/2019 10:23,Distance Travelled,43.0276673,-85.5902815,31,,,0.67,180,797,52,16,Normal,TRUE,TRUE,00000011000000000000000000001001,000000000000000000,,,,,"4,050",,"2,976",,"2,714","3,648",,,,,0,35,105,"1,513",5,,,,,
04/25/2019 15:24,04/26/2019 10:23,Elapsed Time,42.9839875,-85.590792,48,,,0.67,178,794,125,20,Normal,TRUE,TRUE,00000011000000000000000000001001,000000000000000000,,,,,"4,044",,"3,063",,"2,751","3,641",,,,,0,36,106,"1,521",5,,,,,
04/25/2019 15:26,04/26/2019 10:23,Elapsed Time,42.9639807,-85.5902998,14,,,0.45,182,787,95,18,Normal,TRUE,TRUE,00000011000000000000000000001001,000000000000000000,,,,,"4,049",,"3,034",,"2,755","3,622",,,,,0,36,107,"1,527",5,,,,,
04/25/2019 15:28,04/26/2019 10:23,Elapsed Time,42.9592652,-85.6145451,37,,,2.01,252,771,148,22,Normal,TRUE,TRUE,00000011000000000000000000001001,000000000000000000,,,,,"4,047",,"3,031",,"2,750","3,615",,,,,0,36,108,"1,531",5,,,,,
04/25/2019 15:30,04/26/2019 10:23,Elapsed Time,42.9557637,-85.6271305,0,,,1.79,0,751,128,23,Normal,TRUE,TRUE,00000011000000000000000000001001,000000000000000000,,,,,"4,051",,"3,013",,"2,749","3,604",,,,,0,36,109,"1,536",5,,,,,
04/25/2019 15:31,04/26/2019 10:23,Elapsed Time,42.9555106,-85.6312484,6,,,0.67,268,692,108,21,Normal,TRUE,TRUE,00000011000000000000000000001001,000000000000000000,,,,,"4,051",,"2,987",,"2,749","3,596",,,,,0,36,110,"1,539",5,,,,,
04/25/2019 15:34,04/26/2019 10:23,Sensor Value Elapsed Time,42.9555106,-85.6312484,6,,,0.67,268,692,108,21,Normal,TRUE,TRUE,00000011000000000000000000001001,000000000000000000,,,,,"4,051",,"2,987",,"2,775","3,574",,,,,0,36,111,"1,541",5,,,,,
04/25/2019 15:34,04/26/2019 10:23,Elapsed Time,42.9554937,-85.6320111,0,,,1.34,138,728,118,23,Normal,TRUE,TRUE,00000011000000000000000000001001,000000000000000000,,,,,"4,043",,"3,110",,"2,775","3,574",,,,,0,37,111,"1,541",5,,,,,
04/25/2019 15:36,04/26/2019 10:23,Elapsed Time,42.9555235,-85.6321401,0,,,0.67,0,702,72,22,Normal,TRUE,TRUE,00000011000000000000000000001001,000000000000000000,,,,,"4,048",,"3,035",,"2,765","3,562",,,,,0,37,112,"1,544",5,,,,,
04/25/2019 15:38,04/26/2019 10:23,Elapsed Time,42.9555531,-85.6321823,0,,,1.34,330,778,95,22,Normal,TRUE,TRUE,00000011000000000000000000001001,000000000000000000,,,,,"4,048",,"3,044",,"2,762","3,563",,,,,0,37,113,"1,546",5,,,,,
04/25/2019 15:40,04/26/2019 10:23,Elapsed Time,42.9555454,-85.6321556,0,,,0.89,0,712,92,23,Normal,TRUE,TRUE,00000011000000000000000000001001,000000000000000000,,,,,"4,047",,"3,036",,"2,757","3,569",,,,,0,37,114,"1,549",5,,,,,
04/25/2019 15:41,04/26/2019 10:23,Elapsed Time,42.9555505,-85.6321238,0,,,1.34,0,725,102,23,Normal,TRUE,TRUE,00000011000000000000000000001001,000000000000000000,,,,,"4,049",,"3,041",,"2,755","3,571",,,,,0,37,115,"1,552",5,,,,,
04/25/2019 15:44,04/26/2019 10:23,End Of Trip,42.955558,-85.6320105,0,,,0.67,0,702,79,21,Normal,TRUE,TRUE,00000010000000000000000000001000,000000000000000000,,,,,"4,044",,"3,097",,"2,782","3,567",,,,,0,38,116,"1,555",5,,,,,
04/25/2019 15:53,04/26/2019 10:23,Start Of Trip,42.955558,-85.6320105,0,,,0.67,0,702,79,21,Normal,TRUE,TRUE,00000011000000000000000000001001,000000000000000000,,,,,"4,047",,"3,076",,"2,800","3,564",,,,,0,39,117,"1,558",6,,,,,
04/25/2019 15:53,04/26/2019 10:23,Distance Travelled,42.9555355,-85.6328942,21,,,0.67,270,719,69,21,Normal,TRUE,TRUE,00000011000000000000000000001001,000000000000000000,,,,,"4,047",,"3,076",,"2,800","3,564",,,,,0,39,117,"1,558",6,,,,,
04/25/2019 15:57,04/26/2019 10:23,Elapsed Time,42.9555613,-85.649087,0,,,1.57,304,774,141,21,Normal,TRUE,TRUE,00000011000000000000000000001001,000000000000000000,,,,,"4,041",,"3,165",,"2,826","3,560",,,,,0,40,118,"1,567",6,,,,,
04/25/2019 15:59,04/26/2019 10:23,Elapsed Time,42.9557917,-85.6590853,29,,,0.67,272,705,128,20,Normal,TRUE,TRUE,00000011000000000000000000001001,000000000000000000,,,,,"4,045",,"3,109",,"2,831","3,543",,,,,0,40,119,"1,570",6,,,,,
04/25/2019 16:00,04/26/2019 10:23,Elapsed Time,42.9559694,-85.6642384,6,,,1.12,216,633,79,20,Normal,TRUE,TRUE,00000011000000000000000000001001,000000000000000000,,,,,"4,047",,"3,104",,"2,833","3,540",,,,,0,40,120,"1,575",6,,,,,
04/25/2019 16:03,04/26/2019 10:23,Elapsed Time,42.9486973,-85.6667097,0,,,1.57,44,725,128,20,Normal,TRUE,TRUE,00000011000000000000000000001001,000000000000000000,,,,,"4,041",,"3,175",,"2,854","3,533",,,,,0,41,121,"1,582",6,,,,,
04/25/2019 16:05,04/26/2019 10:23,Elapsed Time,42.9577454,-85.6710479,56,,,0.67,352,676,125,21,Normal,TRUE,TRUE,00000011000000000000000000001001,000000000000000000,,,,,"4,045",,"3,139",,"2,849","3,512",,,,,0,41,122,"1,587",6,,,,,
04/25/2019 16:07,04/26/2019 10:23,Elapsed Time,42.9665371,-85.677493,0,,,0.89,0,597,79,21,Normal,TRUE,TRUE,00000011000000000000000000001001,000000000000000000,,,,,"4,045",,"3,122",,"2,841","3,508",,,,,0,41,123,"1,590",6,,,,,
04/25/2019 16:10,04/26/2019 10:23,Elapsed Time,42.9657795,-85.6778132,0,,,2.46,0,653,131,23,Normal,TRUE,TRUE,00000011000000000000000000001001,000000000000000000,,,,,"4,044",,"3,118",,"2,834","3,495",,,,,0,41,124,"1,594",6,,,,,
04/25/2019 16:13,04/26/2019 10:23,End Of Trip,42.9658104,-85.6777033,0,,,2.24,0,545,138,30,Normal,TRUE,TRUE,00000010000000000000000000001000,000000000000000000,,,,,"4,038",,"3,167",,"2,845","3,257",,,,,0,42,125,"1,637",6,,,,,
04/25/2019 16:23,04/26/2019 10:23,Heartbeat Status,42.9660664,-85.6778769,0,,,2.68,0,531,128,24,Normal,TRUE,TRUE,00000010000000000000000000001000,000000000000000000,,,,,"4,042",,"3,044",,"2,755","3,165",,,,,0,43,126,"1,660",6,,,,,
04/25/2019 16:34,04/26/2019 10:23,Heartbeat Status,42.9660664,-85.6778769,0,,,2.68,0,531,128,24,Normal,TRUE,TRUE,00000010000000000000000000001000,000000000000000000,,,,,"4,046",,"2,937",,"2,699","3,161",,,,,0,44,127,"1,685",6,,,,,
04/25/2019 16:40,04/26/2019 10:23,Sensor Value Elapsed Time,42.9660664,-85.6778769,0,,,2.68,0,531,128,24,Normal,TRUE,TRUE,00000010000000000000000000001000,000000000000000000,,,,,"4,045",,"2,938",,"2,665","3,167",,,,,0,45,128,"1,745",6,,,,,
04/25/2019 16:45,04/26/2019 10:23,Heartbeat Status,42.9660517,-85.6771065,0,,,2.91,0,190,121,21,Normal,TRUE,TRUE,00000010000000000000000000001000,000000000000000000,,,,,"4,044",,"2,911",,"2,644","3,181",,,,,0,45,128,"1,745",6,,,,,
04/25/2019 16:56,04/26/2019 10:23,Heartbeat Status,42.9661095,-85.6780105,0,,,2.46,354,548,98,20,Normal,TRUE,TRUE,00000010000000000000000000001000,000000000000000000,,,,,"4,043",,"2,877",,"2,590","3,204",,,,,0,46,129,"1,775",6,,,,,
04/25/2019 17:05,04/26/2019 10:23,Sensor Value Elapsed Time,42.9661095,-85.6780105,0,,,2.46,354,548,98,20,Normal,TRUE,TRUE,00000010000000000000000000001000,000000000000000000,,,,,"4,042",,"2,842",,"2,564","3,226",,,,,0,47,130,"1,808",6,,,,,
04/25/2019 17:06,04/26/2019 10:23,Heartbeat Status,42.9660672,-85.6780469,0,,,2.91,182,591,125,19,Normal,TRUE,TRUE,00000010000000000000000000001000,000000000000000000,,,,,"4,044",,"2,845",,"2,574","3,224",,,,,0,47,130,"1,808",6,,,,,
04/25/2019 17:16,04/26/2019 10:23,Heartbeat Status,42.9662443,-85.6778229,0,,,2.24,0,719,154,19,Normal,TRUE,TRUE,00000010000000000000000000001000,000000000000000000,,,,,"4,046",,"2,777",,"2,532","3,247",,,,,0,48,131,"1,837",6,,,,,
04/25/2019 17:26,04/26/2019 10:23,Heartbeat Status,42.96628,-85.6779779,0,,,2.68,184,640,131,18,Normal,TRUE,TRUE,00000010000000000000000000001000,000000000000000000,,,,,"4,043",,"2,780",,"2,510","3,265",,,,,0,49,132,"1,847",6,,,,,
04/25/2019 17:37,04/26/2019 10:23,Heartbeat Status,42.9658776,-85.6780418,0,,,2.68,0,577,112,16,Normal,TRUE,TRUE,00000010000000000000000000001000,000000000000000000,,,,,"4,042",,"2,771",,"2,494","3,287",,,,,0,50,133,"1,859",6,,,,,
04/25/2019 17:45,04/26/2019 10:23,Heartbeat Status,42.9659003,-85.6778416,0,,,2.01,0,646,148,19,Normal,TRUE,TRUE,00000010000000000000000000001000,000000000000000000,,,,,"4,040",,"2,777",,"2,497","3,292",,,,,0,51,134,"1,890",6,,,,,
04/25/2019 17:55,04/26/2019 10:23,Heartbeat Status,42.9660234,-85.6779961,0,,,2.01,130,512,89,49,Normal,TRUE,TRUE,00000010000000000000000000001000,000000000000000000,,,,,"4,039",,"2,782",,"2,494","3,305",,,,,0,52,135,"1,900",6,,,,,
04/25/2019 18:05,04/26/2019 10:23,Sensor Value Elapsed Time,42.9660234,-85.6779961,0,,,2.01,130,512,89,49,Normal,TRUE,TRUE,00000010000000000000000000001000,000000000000000000,,,,,"4,042",,"2,728",,"2,462","3,333",,,,,0,53,136,"1,940",6,,,,,
04/25/2019 18:06,04/26/2019 10:23,Heartbeat Status,42.9660234,-85.6779961,0,,,2.01,130,512,89,49,Normal,TRUE,TRUE,00000010000000000000000000001000,000000000000000000,,,,,"4,044",,"2,704",,"2,482","3,316",,,,,0,53,136,"1,940",6,,,,,
04/25/2019 18:17,04/26/2019 10:23,Heartbeat Status,42.9660234,-85.6779961,0,,,2.01,130,512,89,49,Normal,TRUE,TRUE,00000010000000000000000000001000,000000000000000000,,,,,"4,039",,"2,741",,"2,474","3,336",,,,,0,54,137,"2,000",6,,,,,
04/25/2019 18:28,04/26/2019 10:23,Heartbeat Status,42.966125,-85.6780879,0,,,2.91,214,558,144,41,Normal,TRUE,TRUE,00000010000000000000000000001000,000000000000000000,,,,,"4,039",,"2,708",,"2,442","3,369",,,,,0,55,138,"2,060",6,,,,,
04/25/2019 18:39,04/26/2019 10:23,Heartbeat Status,42.966125,-85.6780879,0,,,2.91,214,558,144,41,Normal,TRUE,TRUE,00000010000000000000000000001000,000000000000000000,,,,,"4,039",,"2,716",,"2,452","3,382",,,,,0,56,139,"2,100",6,,,,,
04/25/2019 18:49,04/26/2019 10:23,Heartbeat Status,42.9661625,-85.6780234,0,,,1.34,0,784,141,43,Normal,TRUE,TRUE,00000010000000000000000000001000,000000000000000000,,,,,"4,040",,"2,666",,"2,434","3,395",,,,,0,57,140,"2,160",6,,,,,
04/25/2019 19:00,04/26/2019 10:23,Heartbeat Status,42.9658405,-85.6779972,0,,,2.01,182,604,108,18,Normal,TRUE,TRUE,00000010000000000000000000001000,000000000000000000,,,,,"4,041",,"2,652",,"2,423","3,413",,,,,0,58,141,"2,180",6,,,,,
04/25/2019 19:11,04/26/2019 10:23,Heartbeat Status,42.9658438,-85.677983,0,,,2.46,6,653,118,28,Normal,TRUE,TRUE,00000010000000000000000000001000,000000000000000000,,,,,"4,038",,"2,690",,"2,426","3,428",,,,,0,59,142,"2,225",6,,,,,
04/25/2019 19:21,04/26/2019 10:23,Heartbeat Status,42.9654669,-85.6780857,0,,,2.46,176,453,131,36,Normal,TRUE,TRUE,00000010000000000000000000001000,000000000000000000,,,,,"4,038",,"2,675",,"2,410","3,440",,,,,0,60,143,"2,255",6,,,,,
04/25/2019 19:32,04/26/2019 10:23,Heartbeat Status,42.9660207,-85.6780908,0,,,1.12,344,591,108,26,Normal,TRUE,TRUE,00000010000000000000000000001000,000000000000000000,,,,,"4,038",,"2,650",,"2,408","3,446",,,,,0,61,144,"2,296",6,,,,,
04/25/2019 19:42,04/26/2019 10:23,Heartbeat Status,42.9659537,-85.6779828,0,,,2.68,8,584,118,24,Normal,TRUE,TRUE,00000010000000000000000000001000,000000000000000000,,,,,"4,036",,"2,666",,"2,403","3,450",,,,,0,62,145,"2,308",6,,,,,
04/25/2019 19:50,04/26/2019 10:23,Heartbeat Status,42.9662188,-85.6781596,0,,,2.46,0,600,118,23,Normal,TRUE,TRUE,00000010000000000000000000001000,000000000000000000,,,,,"4,036",,"2,666",,"2,416","3,453",,,,,0,63,146,"2,334",6,,,,,
04/25/2019 20:01,04/26/2019 10:23,Heartbeat Status,42.9661254,-85.6782894,0,,,2.01,328,522,135,20,Normal,TRUE,TRUE,00000010000000000000000000001000,000000000000000000,,,,,"4,034",,"2,660",,"2,394","3,457",,,,,0,64,147,"2,351",6,,,,,
04/25/2019 20:12,04/26/2019 10:23,Heartbeat Status,42.9658116,-85.6779883,0,,,1.34,0,581,151,17,Normal,TRUE,TRUE,00000010000000000000000000001000,000000000000000000,,,,,"4,030",,"2,689",,"2,413","3,436",,,,,0,65,151,"2,466",6,,,,,
04/25/2019 20:22,04/26/2019 10:23,Heartbeat Status,42.9658551,-85.6779776,0,,,2.91,356,443,141,31,Normal,TRUE,TRUE,00000010000000000000000000001000,000000000000000000,,,,,"4,034",,"2,627",,"2,383","3,432",,,,,0,66,152,"2,471",6,,,,,
04/25/2019 20:33,04/26/2019 10:23,Heartbeat Status,42.9661818,-85.6781223,0,,,1.79,0,581,138,24,Normal,TRUE,TRUE,00000010000000000000000000001000,000000000000000000,,,,,"4,031",,"2,628",,"2,386","3,429",,,,,0,67,153,"2,510",6,,,,,
04/25/2019 20:44,04/26/2019 10:23,Heartbeat Status,42.9659085,-85.6780623,0,,,2.68,358,502,131,23,Normal,TRUE,TRUE,00000010000000000000000000001000,000000000000000000,,,,,"4,031",,"2,621",,"2,377","3,424",,,,,0,68,154,"2,567",6,,,,,
04/25/2019 20:53,04/26/2019 10:23,Sensor Value Elapsed Time,42.9659085,-85.6780623,0,,,2.68,358,502,131,23,Normal,TRUE,TRUE,00000010000000000000000000001000,000000000000000000,,,,,"4,029",,"2,618",,"2,356","3,420",,,,,0,69,155,"2,600",6,,,,,
04/25/2019 20:54,04/26/2019 10:23,Heartbeat Status,42.9663762,-85.6780229,0,,,2.68,10,617,161,22,Normal,TRUE,TRUE,00000010000000000000000000001000,000000000000000000,,,,,"4,028",,"2,628",,"2,353","3,421",,,,,0,69,155,"2,600",6,,,,,
04/25/2019 21:05,04/26/2019 10:23,Heartbeat Status,42.9663457,-85.6781776,0,,,2.68,174,735,141,42,Normal,TRUE,TRUE,00000010000000000000000000001000,000000000000000000,,,,,"4,027",,"2,626",,"2,347","3,419",,,,,0,70,156,"2,621",6,,,,,
04/25/2019 21:15,04/26/2019 10:23,Heartbeat Status,42.9663659,-85.6780807,1,,,2.91,346,653,148,48,Normal,TRUE,TRUE,00000010000000000000000000001000,000000000000000000,,,,,"4,026",,"2,602",,"2,349","3,412",,,,,0,71,157,"2,640",6,,,,,
04/25/2019 21:25,04/26/2019 10:23,Heartbeat Status,42.9661002,-85.6780693,0,,,1.57,176,692,121,32,Normal,TRUE,TRUE,00000010000000000000000000001000,000000000000000000,,,,,"4,026",,"2,596",,"2,333","3,404",,,,,0,72,158,"2,666",6,,,,,
04/25/2019 21:36,04/26/2019 10:23,Heartbeat Status,42.9661002,-85.6780693,0,,,1.57,176,692,121,32,Normal,TRUE,TRUE,00000010000000000000000000001000,000000000000000000,,,,,"4,025",,"2,609",,"2,345","3,392",,,,,0,73,159,"2,677",6,,,,,
04/25/2019 21:47,04/26/2019 10:23,Heartbeat Status,42.9661002,-85.6780693,0,,,1.57,176,692,121,32,Normal,TRUE,TRUE,00000010000000000000000000001000,000000000000000000,,,,,"4,025",,"2,586",,"2,335","3,382",,,,,0,74,160,"2,737",6,,,,,
04/25/2019 21:58,04/26/2019 10:23,Heartbeat Status,42.9658806,-85.67791,0,,,2.46,344,561,128,28,Normal,TRUE,TRUE,00000010000000000000000000001000,000000000000000000,,,,,"4,024",,"2,579",,"2,314","3,383",,,,,0,75,161,"2,797",6,,,,,
04/25/2019 22:08,04/26/2019 10:23,Heartbeat Status,42.965926,-85.6778336,0,,,2.46,358,400,112,26,Normal,TRUE,TRUE,00000010000000000000000000001000,000000000000000000,,,,,"4,025",,"2,548",,"2,310","3,376",,,,,0,76,162,"2,828",6,,,,,
04/25/2019 22:19,04/26/2019 10:23,Heartbeat Status,42.9660119,-85.6780162,0,,,2.91,0,574,128,31,Normal,TRUE,TRUE,00000010000000000000000000001000,000000000000000000,,,,,"4,023",,"2,553",,"2,305","3,375",,,,,0,77,163,"2,850",6,,,,,
04/25/2019 22:22,04/26/2019 10:23,Heartbeat Status,42.9661735,-85.6781596,0,,,2.46,146,482,151,22,Normal,TRUE,TRUE,00000010000000000000000000001000,000000000000000000,,,,,"4,018",,"2,596",,"2,328","3,369",,,,,0,78,164,"2,885",6,,,,,
04/25/2019 22:32,04/26/2019 10:23,Heartbeat Status,42.9660704,-85.6780304,0,,,2.46,172,607,121,26,Normal,TRUE,TRUE,00000010000000000000000000001000,000000000000000000,,,,,"4,022",,"2,537",,"2,313","3,360",,,,,0,79,165,"2,894",6,,,,,
04/25/2019 22:43,04/26/2019 10:23,Heartbeat Status,42.9659964,-85.6779703,0,,,2.01,0,554,135,22,Normal,TRUE,TRUE,00000010000000000000000000001000,000000000000000000,,,,,"4,019",,"2,530",,"2,298","3,359",,,,,0,80,166,"2,907",6,,,,,
04/25/2019 22:53,04/26/2019 10:23,Heartbeat Status,42.966224,-85.6780685,1,,,2.46,0,558,138,19,Normal,TRUE,TRUE,00000010000000000000000000001000,000000000000000000,,,,,"4,021",,"2,520",,"2,293","3,358",,,,,0,81,167,"2,919",6,,,,,
04/25/2019 23:04,04/26/2019 10:23,Heartbeat Status,42.9661031,-85.6777479,0,,,2.68,252,535,141,41,Normal,TRUE,TRUE,00000010000000000000000000001000,000000000000000000,,,,,"4,017",,"2,536",,"2,297","3,360",,,,,0,82,168,"2,930",6,,,,,
04/25/2019 23:14,04/26/2019 10:23,Heartbeat Status,42.9661462,-85.6770275,0,,,2.91,266,594,118,24,Normal,TRUE,TRUE,00000010000000000000000000001000,000000000000000000,,,,,"4,015",,"2,529",,"2,293","3,357",,,,,0,83,169,"2,985",6,,,,,
