[
    {
      "measurement": "154416",
      "tags": {
        "Company": "Apples USA",
        "Project": "Apple IoT Test",
        "Tag_Data_Hash": "7bac8fd2-92b9-4c83-8ae2-260470edeaaf",
        "SensorID": "154416"
      },
      "fields": {
        "Status": "Heartbeat Status",
        "Latitude": 33.7478964,
        "Longitude": -84.3766483,
        "Speed_KmH": 0,
        "Speed_Accuracy_KmH": 2.52,
        "Heading_Degrees": 0,
        "Altitude_m": 318,
        "Position_Accuracy_m": 40,
        "PDOP_Raw": 22,
        "Ignition": "Off",
        "Gps_Status_Fix_OK": true,
        "Gps_Status_Fix_3D": true,
        "Analog_1": 4002,
        "Analog_3": 2307,
        "Analog_4": 4,
        "BigChain_Hash": "5c33703c-cc27-4c37-8015-1b02d797f9a1",
        "Iota_Hash": "ae51fdc5-390e-43a0-a747-c96c3a5f10b2",
        "Penta_Hash": "0477ae72-cf3e-4300-a2d1-a3ed947c36c8",
        "Logged": "23\/04\/2019 04:08"
      },
      "timestamp": "2019-04-22T18:08:00.000Z"
    },
    {
      "measurement": "154416",
      "tags": {
        "Company": "Apples USA",
        "Project": "Apple IoT Test",
        "Tag_Data_Hash": "7bac8fd2-92b9-4c83-8ae2-260470edeaaf",
        "SensorID": "154416"
      },
      "fields": {
        "Status": "Start Of Trip",
        "Latitude": 33.7478964,
        "Longitude": -84.3766483,
        "Speed_KmH": 0,
        "Speed_Accuracy_KmH": 2.52,
        "Heading_Degrees": 0,
        "Altitude_m": 318,
        "Position_Accuracy_m": 40,
        "PDOP_Raw": 22,
        "Ignition": "On",
        "Gps_Status_Fix_OK": true,
        "Gps_Status_Fix_3D": true,
        "Analog_1": 4008,
        "Analog_3": 2208,
        "Analog_4": 5,
        "BigChain_Hash": "5c33703c-cc27-4c37-8015-1b02d797f9a1",
        "Iota_Hash": "ae51fdc5-390e-43a0-a747-c96c3a5f10b2",
        "Penta_Hash": "0477ae72-cf3e-4300-a2d1-a3ed947c36c8",
        "Logged": "23\/04\/2019 06:39"
      },
      "timestamp": "2019-04-22T20:39:00.000Z"
    },
    {
      "measurement": "154416",
      "tags": {
        "Company": "Apples USA",
        "Project": "Apple IoT Test",
        "Tag_Data_Hash": "7bac8fd2-92b9-4c83-8ae2-260470edeaaf",
        "SensorID": "154416"
      },
      "fields": {
        "Status": "Distance Travelled",
        "Latitude": 33.7468472,
        "Longitude": -84.3791895,
        "Speed_KmH": 28,
        "Speed_Accuracy_KmH": 0.36,
        "Heading_Degrees": 262,
        "Altitude_m": 313,
        "Position_Accuracy_m": 11,
        "PDOP_Raw": 16,
        "Ignition": "On",
        "Gps_Status_Fix_OK": true,
        "Gps_Status_Fix_3D": true,
        "Analog_1": 4008,
        "Analog_3": 2208,
        "Analog_4": 5,
        "BigChain_Hash": "5c33703c-cc27-4c37-8015-1b02d797f9a1",
        "Iota_Hash": "ae51fdc5-390e-43a0-a747-c96c3a5f10b2",
        "Penta_Hash": "0477ae72-cf3e-4300-a2d1-a3ed947c36c8",
        "Logged": "23\/04\/2019 06:40"
      },
      "timestamp": "2019-04-22T20:40:00.000Z"
    },
    {
      "measurement": "154416",
      "tags": {
        "Company": "Apples USA",
        "Project": "Apple IoT Test",
        "Tag_Data_Hash": "7bac8fd2-92b9-4c83-8ae2-260470edeaaf",
        "SensorID": "154416"
      },
      "fields": {
        "Status": "Elapsed Time",
        "Latitude": 33.7419461,
        "Longitude": -84.3907223,
        "Speed_KmH": 0,
        "Speed_Accuracy_KmH": 0.72,
        "Heading_Degrees": 0,
        "Altitude_m": 307,
        "Position_Accuracy_m": 13,
        "PDOP_Raw": 23,
        "Ignition": "On",
        "Gps_Status_Fix_OK": true,
        "Gps_Status_Fix_3D": true,
        "Analog_1": 4007,
        "Analog_3": 2253,
        "Analog_4": 13,
        "BigChain_Hash": "5c33703c-cc27-4c37-8015-1b02d797f9a1",
        "Iota_Hash": "ae51fdc5-390e-43a0-a747-c96c3a5f10b2",
        "Penta_Hash": "0477ae72-cf3e-4300-a2d1-a3ed947c36c8",
        "Logged": "23\/04\/2019 06:42"
      },
      "timestamp": "2019-04-22T20:42:00.000Z"
    },
    {
      "measurement": "154416",
      "tags": {
        "Company": "Apples USA",
        "Project": "Apple IoT Test",
        "Tag_Data_Hash": "7bac8fd2-92b9-4c83-8ae2-260470edeaaf",
        "SensorID": "154416"
      },
      "fields": {
        "Status": "Elapsed Time",
        "Latitude": 33.7433726,
        "Longitude": -84.3980444,
        "Speed_KmH": 0,
        "Speed_Accuracy_KmH": 1.8,
        "Heading_Degrees": 312,
        "Altitude_m": 398,
        "Position_Accuracy_m": 48,
        "PDOP_Raw": 19,
        "Ignition": "On",
        "Gps_Status_Fix_OK": true,
        "Gps_Status_Fix_3D": true,
        "Analog_1": 4002,
        "Analog_3": 2296,
        "Analog_4": 13,
        "BigChain_Hash": "5c33703c-cc27-4c37-8015-1b02d797f9a1",
        "Iota_Hash": "ae51fdc5-390e-43a0-a747-c96c3a5f10b2",
        "Penta_Hash": "0477ae72-cf3e-4300-a2d1-a3ed947c36c8",
        "Logged": "23\/04\/2019 06:44"
      },
      "timestamp": "2019-04-22T20:44:00.000Z"
    },
    {
      "measurement": "154416",
      "tags": {
        "Company": "Apples USA",
        "Project": "Apple IoT Test",
        "Tag_Data_Hash": "7bac8fd2-92b9-4c83-8ae2-260470edeaaf",
        "SensorID": "154416"
      },
      "fields": {
        "Status": "Elapsed Time",
        "Latitude": 33.7435022,
        "Longitude": -84.3985075,
        "Speed_KmH": 0,
        "Speed_Accuracy_KmH": 1.8,
        "Heading_Degrees": 102,
        "Altitude_m": 280,
        "Position_Accuracy_m": 23,
        "PDOP_Raw": 16,
        "Ignition": "On",
        "Gps_Status_Fix_OK": true,
        "Gps_Status_Fix_3D": true,
        "Analog_1": 4006,
        "Analog_3": 2317,
        "Analog_4": 13,
        "BigChain_Hash": "5c33703c-cc27-4c37-8015-1b02d797f9a1",
        "Iota_Hash": "ae51fdc5-390e-43a0-a747-c96c3a5f10b2",
        "Penta_Hash": "0477ae72-cf3e-4300-a2d1-a3ed947c36c8",
        "Logged": "23\/04\/2019 06:46"
      },
      "timestamp": "2019-04-22T20:46:00.000Z"
    },
    {
      "measurement": "154416",
      "tags": {
        "Company": "Apples USA",
        "Project": "Apple IoT Test",
        "Tag_Data_Hash": "7bac8fd2-92b9-4c83-8ae2-260470edeaaf",
        "SensorID": "154416"
      },
      "fields": {
        "Status": "Elapsed Time",
        "Latitude": 33.7436346,
        "Longitude": -84.3987295,
        "Speed_KmH": 1,
        "Speed_Accuracy_KmH": 3.6,
        "Heading_Degrees": 0,
        "Altitude_m": 320,
        "Position_Accuracy_m": 49,
        "PDOP_Raw": 19,
        "Ignition": "On",
        "Gps_Status_Fix_OK": true,
        "Gps_Status_Fix_3D": true,
        "Analog_1": 4006,
        "Analog_3": 2346,
        "Analog_4": 13,
        "BigChain_Hash": "5c33703c-cc27-4c37-8015-1b02d797f9a1",
        "Iota_Hash": "ae51fdc5-390e-43a0-a747-c96c3a5f10b2",
        "Penta_Hash": "0477ae72-cf3e-4300-a2d1-a3ed947c36c8",
        "Logged": "23\/04\/2019 06:48"
      },
      "timestamp": "2019-04-22T20:48:00.000Z"
    },
    {
      "measurement": "154416",
      "tags": {
        "Company": "Apples USA",
        "Project": "Apple IoT Test",
        "Tag_Data_Hash": "7bac8fd2-92b9-4c83-8ae2-260470edeaaf",
        "SensorID": "154416"
      },
      "fields": {
        "Status": "End Of Trip",
        "Latitude": 33.743471,
        "Longitude": -84.3984306,
        "Speed_KmH": 0,
        "Speed_Accuracy_KmH": 3.96,
        "Heading_Degrees": 0,
        "Altitude_m": 314,
        "Position_Accuracy_m": 34,
        "PDOP_Raw": 23,
        "Ignition": "Off",
        "Gps_Status_Fix_OK": true,
        "Gps_Status_Fix_3D": true,
        "Analog_1": 4005,
        "Analog_3": 2385,
        "Analog_4": 13,
        "BigChain_Hash": "5c33703c-cc27-4c37-8015-1b02d797f9a1",
        "Iota_Hash": "ae51fdc5-390e-43a0-a747-c96c3a5f10b2",
        "Penta_Hash": "0477ae72-cf3e-4300-a2d1-a3ed947c36c8",
        "Logged": "23\/04\/2019 06:50"
      },
      "timestamp": "2019-04-22T20:50:00.000Z"
    },
    {
      "measurement": "154416",
      "tags": {
        "Company": "Apples USA",
        "Project": "Apple IoT Test",
        "Tag_Data_Hash": "7bac8fd2-92b9-4c83-8ae2-260470edeaaf",
        "SensorID": "154416"
      },
      "fields": {
        "Status": "Start Of Trip",
        "Latitude": 33.743471,
        "Longitude": -84.3984306,
        "Speed_KmH": 0,
        "Speed_Accuracy_KmH": 3.96,
        "Heading_Degrees": 0,
        "Altitude_m": 314,
        "Position_Accuracy_m": 34,
        "PDOP_Raw": 23,
        "Ignition": "On",
        "Gps_Status_Fix_OK": true,
        "Gps_Status_Fix_3D": true,
        "Analog_1": 4004,
        "Analog_3": 2694,
        "Analog_4": 29,
        "BigChain_Hash": "5c33703c-cc27-4c37-8015-1b02d797f9a1",
        "Iota_Hash": "ae51fdc5-390e-43a0-a747-c96c3a5f10b2",
        "Penta_Hash": "0477ae72-cf3e-4300-a2d1-a3ed947c36c8",
        "Logged": "23\/04\/2019 08:40"
      },
      "timestamp": "2019-04-22T22:40:00.000Z"
    },
    {
      "measurement": "154416",
      "tags": {
        "Company": "Apples USA",
        "Project": "Apple IoT Test",
        "Tag_Data_Hash": "7bac8fd2-92b9-4c83-8ae2-260470edeaaf",
        "SensorID": "154416"
      },
      "fields": {
        "Status": "Distance Travelled",
        "Latitude": 33.7442156,
        "Longitude": -84.3979836,
        "Speed_KmH": 32,
        "Speed_Accuracy_KmH": 1.44,
        "Heading_Degrees": 0,
        "Altitude_m": 299,
        "Position_Accuracy_m": 17,
        "PDOP_Raw": 20,
        "Ignition": "On",
        "Gps_Status_Fix_OK": true,
        "Gps_Status_Fix_3D": true,
        "Analog_1": 4004,
        "Analog_3": 2694,
        "Analog_4": 29,
        "BigChain_Hash": "5c33703c-cc27-4c37-8015-1b02d797f9a1",
        "Iota_Hash": "ae51fdc5-390e-43a0-a747-c96c3a5f10b2",
        "Penta_Hash": "0477ae72-cf3e-4300-a2d1-a3ed947c36c8",
        "Logged": "23\/04\/2019 08:40"
      },
      "timestamp": "2019-04-22T22:40:00.000Z"
    },
    {
      "measurement": "154416",
      "tags": {
        "Company": "Apples USA",
        "Project": "Apple IoT Test",
        "Tag_Data_Hash": "7bac8fd2-92b9-4c83-8ae2-260470edeaaf",
        "SensorID": "154416"
      },
      "fields": {
        "Status": "Elapsed Time",
        "Latitude": 33.7509259,
        "Longitude": -84.3948193,
        "Speed_KmH": 25,
        "Speed_Accuracy_KmH": 1.8,
        "Heading_Degrees": 30,
        "Altitude_m": 336,
        "Position_Accuracy_m": 39,
        "PDOP_Raw": 23,
        "Ignition": "On",
        "Gps_Status_Fix_OK": true,
        "Gps_Status_Fix_3D": true,
        "Analog_1": 4006,
        "Analog_3": 2680,
        "Analog_4": 26,
        "BigChain_Hash": "5c33703c-cc27-4c37-8015-1b02d797f9a1",
        "Iota_Hash": "ae51fdc5-390e-43a0-a747-c96c3a5f10b2",
        "Penta_Hash": "0477ae72-cf3e-4300-a2d1-a3ed947c36c8",
        "Logged": "23\/04\/2019 08:43"
      },
      "timestamp": "2019-04-22T22:43:00.000Z"
    },
    {
      "measurement": "154416",
      "tags": {
        "Company": "Apples USA",
        "Project": "Apple IoT Test",
        "Tag_Data_Hash": "7bac8fd2-92b9-4c83-8ae2-260470edeaaf",
        "SensorID": "154416"
      },
      "fields": {
        "Status": "Elapsed Time",
        "Latitude": 33.7558374,
        "Longitude": -84.3912376,
        "Speed_KmH": 0,
        "Speed_Accuracy_KmH": 1.8,
        "Heading_Degrees": 0,
        "Altitude_m": 356,
        "Position_Accuracy_m": 29,
        "PDOP_Raw": 31,
        "Ignition": "On",
        "Gps_Status_Fix_OK": true,
        "Gps_Status_Fix_3D": true,
        "Analog_1": 4005,
        "Analog_3": 2681,
        "Analog_4": 26,
        "BigChain_Hash": "5c33703c-cc27-4c37-8015-1b02d797f9a1",
        "Iota_Hash": "ae51fdc5-390e-43a0-a747-c96c3a5f10b2",
        "Penta_Hash": "0477ae72-cf3e-4300-a2d1-a3ed947c36c8",
        "Logged": "23\/04\/2019 08:45"
      },
      "timestamp": "2019-04-22T22:45:00.000Z"
    },
    {
      "measurement": "154416",
      "tags": {
        "Company": "Apples USA",
        "Project": "Apple IoT Test",
        "Tag_Data_Hash": "7bac8fd2-92b9-4c83-8ae2-260470edeaaf",
        "SensorID": "154416"
      },
      "fields": {
        "Status": "Elapsed Time",
        "Latitude": 33.7595762,
        "Longitude": -84.3904865,
        "Speed_KmH": 9,
        "Speed_Accuracy_KmH": 3.6,
        "Heading_Degrees": 2,
        "Altitude_m": 324,
        "Position_Accuracy_m": 29,
        "PDOP_Raw": 31,
        "Ignition": "On",
        "Gps_Status_Fix_OK": true,
        "Gps_Status_Fix_3D": true,
        "Analog_1": 4002,
        "Analog_3": 2719,
        "Analog_4": 26,
        "BigChain_Hash": "5c33703c-cc27-4c37-8015-1b02d797f9a1",
        "Iota_Hash": "ae51fdc5-390e-43a0-a747-c96c3a5f10b2",
        "Penta_Hash": "0477ae72-cf3e-4300-a2d1-a3ed947c36c8",
        "Logged": "23\/04\/2019 08:47"
      },
      "timestamp": "2019-04-22T22:47:00.000Z"
    },
    {
      "measurement": "154416",
      "tags": {
        "Company": "Apples USA",
        "Project": "Apple IoT Test",
        "Tag_Data_Hash": "7bac8fd2-92b9-4c83-8ae2-260470edeaaf",
        "SensorID": "154416"
      },
      "fields": {
        "Status": "End Of Trip",
        "Latitude": 33.7609183,
        "Longitude": -84.3903685,
        "Speed_KmH": 20,
        "Speed_Accuracy_KmH": 2.16,
        "Heading_Degrees": 22,
        "Altitude_m": 339,
        "Position_Accuracy_m": 21,
        "PDOP_Raw": 32,
        "Ignition": "Off",
        "Gps_Status_Fix_OK": true,
        "Gps_Status_Fix_3D": true,
        "Analog_1": 4004,
        "Analog_3": 2703,
        "Analog_4": 26,
        "BigChain_Hash": "5c33703c-cc27-4c37-8015-1b02d797f9a1",
        "Iota_Hash": "ae51fdc5-390e-43a0-a747-c96c3a5f10b2",
        "Penta_Hash": "0477ae72-cf3e-4300-a2d1-a3ed947c36c8",
        "Logged": "23\/04\/2019 08:53"
      },
      "timestamp": "2019-04-22T22:53:00.000Z"
    },
    {
      "measurement": "154416",
      "tags": {
        "Company": "Apples USA",
        "Project": "Apple IoT Test",
        "Tag_Data_Hash": "7bac8fd2-92b9-4c83-8ae2-260470edeaaf",
        "SensorID": "154416"
      },
      "fields": {
        "Status": "Start Of Trip",
        "Latitude": 33.7609183,
        "Longitude": -84.3903685,
        "Speed_KmH": 20,
        "Speed_Accuracy_KmH": 2.16,
        "Heading_Degrees": 22,
        "Altitude_m": 339,
        "Position_Accuracy_m": 21,
        "PDOP_Raw": 32,
        "Ignition": "On",
        "Gps_Status_Fix_OK": true,
        "Gps_Status_Fix_3D": true,
        "Analog_1": 4008,
        "Analog_3": 2673,
        "Analog_4": 10,
        "BigChain_Hash": "5c33703c-cc27-4c37-8015-1b02d797f9a1",
        "Iota_Hash": "ae51fdc5-390e-43a0-a747-c96c3a5f10b2",
        "Penta_Hash": "0477ae72-cf3e-4300-a2d1-a3ed947c36c8",
        "Logged": "23\/04\/2019 09:12"
      },
      "timestamp": "2019-04-22T23:12:00.000Z"
    },
    {
      "measurement": "154416",
      "tags": {
        "Company": "Apples USA",
        "Project": "Apple IoT Test",
        "Tag_Data_Hash": "7bac8fd2-92b9-4c83-8ae2-260470edeaaf",
        "SensorID": "154416"
      },
      "fields": {
        "Status": "Distance Travelled",
        "Latitude": 33.7582875,
        "Longitude": -84.3876733,
        "Speed_KmH": 2,
        "Speed_Accuracy_KmH": 4.68,
        "Heading_Degrees": 12,
        "Altitude_m": 426,
        "Position_Accuracy_m": 23,
        "PDOP_Raw": 19,
        "Ignition": "On",
        "Gps_Status_Fix_OK": true,
        "Gps_Status_Fix_3D": true,
        "Analog_1": 4008,
        "Analog_3": 2673,
        "Analog_4": 10,
        "BigChain_Hash": "5c33703c-cc27-4c37-8015-1b02d797f9a1",
        "Iota_Hash": "ae51fdc5-390e-43a0-a747-c96c3a5f10b2",
        "Penta_Hash": "0477ae72-cf3e-4300-a2d1-a3ed947c36c8",
        "Logged": "23\/04\/2019 09:13"
      },
      "timestamp": "2019-04-22T23:13:00.000Z"
    },
    {
      "measurement": "154416",
      "tags": {
        "Company": "Apples USA",
        "Project": "Apple IoT Test",
        "Tag_Data_Hash": "7bac8fd2-92b9-4c83-8ae2-260470edeaaf",
        "SensorID": "154416"
      },
      "fields": {
        "Status": "Elapsed Time",
        "Latitude": 33.7578394,
        "Longitude": -84.3896705,
        "Speed_KmH": 11,
        "Speed_Accuracy_KmH": 1.08,
        "Heading_Degrees": 80,
        "Altitude_m": 539,
        "Position_Accuracy_m": 46,
        "PDOP_Raw": 22,
        "Ignition": "On",
        "Gps_Status_Fix_OK": true,
        "Gps_Status_Fix_3D": true,
        "Analog_1": 4002,
        "Analog_3": 2736,
        "Analog_4": 11,
        "BigChain_Hash": "5c33703c-cc27-4c37-8015-1b02d797f9a1",
        "Iota_Hash": "ae51fdc5-390e-43a0-a747-c96c3a5f10b2",
        "Penta_Hash": "0477ae72-cf3e-4300-a2d1-a3ed947c36c8",
        "Logged": "23\/04\/2019 09:15"
      },
      "timestamp": "2019-04-22T23:15:00.000Z"
    },
    {
      "measurement": "154416",
      "tags": {
        "Company": "Apples USA",
        "Project": "Apple IoT Test",
        "Tag_Data_Hash": "7bac8fd2-92b9-4c83-8ae2-260470edeaaf",
        "SensorID": "154416"
      },
      "fields": {
        "Status": "Elapsed Time",
        "Latitude": 33.7570095,
        "Longitude": -84.3867286,
        "Speed_KmH": 0,
        "Speed_Accuracy_KmH": 1.8,
        "Heading_Degrees": 344,
        "Altitude_m": 509,
        "Position_Accuracy_m": 49,
        "PDOP_Raw": 17,
        "Ignition": "On",
        "Gps_Status_Fix_OK": true,
        "Gps_Status_Fix_3D": true,
        "Analog_1": 4003,
        "Analog_3": 2750,
        "Analog_4": 11,
        "BigChain_Hash": "5c33703c-cc27-4c37-8015-1b02d797f9a1",
        "Iota_Hash": "ae51fdc5-390e-43a0-a747-c96c3a5f10b2",
        "Penta_Hash": "0477ae72-cf3e-4300-a2d1-a3ed947c36c8",
        "Logged": "23\/04\/2019 09:18"
      },
      "timestamp": "2019-04-22T23:18:00.000Z"
    },
    {
      "measurement": "154416",
      "tags": {
        "Company": "Apples USA",
        "Project": "Apple IoT Test",
        "Tag_Data_Hash": "7bac8fd2-92b9-4c83-8ae2-260470edeaaf",
        "SensorID": "154416"
      },
      "fields": {
        "Status": "End Of Trip",
        "Latitude": 33.757083,
        "Longitude": -84.386334,
        "Speed_KmH": 0,
        "Speed_Accuracy_KmH": 3.24,
        "Heading_Degrees": 140,
        "Altitude_m": 316,
        "Position_Accuracy_m": 48,
        "PDOP_Raw": 23,
        "Ignition": "Off",
        "Gps_Status_Fix_OK": true,
        "Gps_Status_Fix_3D": true,
        "Analog_1": 4001,
        "Analog_3": 2750,
        "Analog_4": 11,
        "BigChain_Hash": "5c33703c-cc27-4c37-8015-1b02d797f9a1",
        "Iota_Hash": "ae51fdc5-390e-43a0-a747-c96c3a5f10b2",
        "Penta_Hash": "0477ae72-cf3e-4300-a2d1-a3ed947c36c8",
        "Logged": "23\/04\/2019 09:20"
      },
      "timestamp": "2019-04-22T23:20:00.000Z"
    },
    {
      "measurement": "154416",
      "tags": {
        "Company": "Apples USA",
        "Project": "Apple IoT Test",
        "Tag_Data_Hash": "7bac8fd2-92b9-4c83-8ae2-260470edeaaf",
        "SensorID": "154416"
      },
      "fields": {
        "Status": "Start Of Trip",
        "Latitude": 33.757083,
        "Longitude": -84.386334,
        "Speed_KmH": 0,
        "Speed_Accuracy_KmH": 3.24,
        "Heading_Degrees": 140,
        "Altitude_m": 316,
        "Position_Accuracy_m": 48,
        "PDOP_Raw": 23,
        "Ignition": "On",
        "Gps_Status_Fix_OK": true,
        "Gps_Status_Fix_3D": true,
        "Analog_1": 4003,
        "Analog_3": 2720,
        "Analog_4": 11,
        "BigChain_Hash": "5c33703c-cc27-4c37-8015-1b02d797f9a1",
        "Iota_Hash": "ae51fdc5-390e-43a0-a747-c96c3a5f10b2",
        "Penta_Hash": "0477ae72-cf3e-4300-a2d1-a3ed947c36c8",
        "Logged": "23\/04\/2019 09:45"
      },
      "timestamp": "2019-04-22T23:45:00.000Z"
    },
    {
      "measurement": "154416",
      "tags": {
        "Company": "Apples USA",
        "Project": "Apple IoT Test",
        "Tag_Data_Hash": "7bac8fd2-92b9-4c83-8ae2-260470edeaaf",
        "SensorID": "154416"
      },
      "fields": {
        "Status": "Distance Travelled",
        "Latitude": 33.7615582,
        "Longitude": -84.3855562,
        "Speed_KmH": 0,
        "Speed_Accuracy_KmH": 3.24,
        "Heading_Degrees": 134,
        "Altitude_m": 519,
        "Position_Accuracy_m": 35,
        "PDOP_Raw": 30,
        "Ignition": "On",
        "Gps_Status_Fix_OK": true,
        "Gps_Status_Fix_3D": true,
        "Analog_1": 4003,
        "Analog_3": 2720,
        "Analog_4": 11,
        "BigChain_Hash": "5c33703c-cc27-4c37-8015-1b02d797f9a1",
        "Iota_Hash": "ae51fdc5-390e-43a0-a747-c96c3a5f10b2",
        "Penta_Hash": "0477ae72-cf3e-4300-a2d1-a3ed947c36c8",
        "Logged": "23\/04\/2019 09:47"
      },
      "timestamp": "2019-04-22T23:47:00.000Z"
    },
    {
      "measurement": "154416",
      "tags": {
        "Company": "Apples USA",
        "Project": "Apple IoT Test",
        "Tag_Data_Hash": "7bac8fd2-92b9-4c83-8ae2-260470edeaaf",
        "SensorID": "154416"
      },
      "fields": {
        "Status": "Elapsed Time",
        "Latitude": 33.7618758,
        "Longitude": -84.3855881,
        "Speed_KmH": 0,
        "Speed_Accuracy_KmH": 4.32,
        "Heading_Degrees": 138,
        "Altitude_m": 461,
        "Position_Accuracy_m": 44,
        "PDOP_Raw": 21,
        "Ignition": "On",
        "Gps_Status_Fix_OK": true,
        "Gps_Status_Fix_3D": true,
        "Analog_1": 3999,
        "Analog_3": 2810,
        "Analog_4": 9,
        "BigChain_Hash": "5c33703c-cc27-4c37-8015-1b02d797f9a1",
        "Iota_Hash": "ae51fdc5-390e-43a0-a747-c96c3a5f10b2",
        "Penta_Hash": "0477ae72-cf3e-4300-a2d1-a3ed947c36c8",
        "Logged": "23\/04\/2019 09:49"
      },
      "timestamp": "2019-04-22T23:49:00.000Z"
    },
    {
      "measurement": "154416",
      "tags": {
        "Company": "Apples USA",
        "Project": "Apple IoT Test",
        "Tag_Data_Hash": "7bac8fd2-92b9-4c83-8ae2-260470edeaaf",
        "SensorID": "154416"
      },
      "fields": {
        "Status": "Elapsed Time",
        "Latitude": 33.7623596,
        "Longitude": -84.3861399,
        "Speed_KmH": 0,
        "Speed_Accuracy_KmH": 3.6,
        "Heading_Degrees": 144,
        "Altitude_m": 296,
        "Position_Accuracy_m": 35,
        "PDOP_Raw": 34,
        "Ignition": "On",
        "Gps_Status_Fix_OK": true,
        "Gps_Status_Fix_3D": true,
        "Analog_1": 4003,
        "Analog_3": 2766,
        "Analog_4": 9,
        "BigChain_Hash": "5c33703c-cc27-4c37-8015-1b02d797f9a1",
        "Iota_Hash": "ae51fdc5-390e-43a0-a747-c96c3a5f10b2",
        "Penta_Hash": "0477ae72-cf3e-4300-a2d1-a3ed947c36c8",
        "Logged": "23\/04\/2019 09:52"
      },
      "timestamp": "2019-04-22T23:52:00.000Z"
    },
    {
      "measurement": "154416",
      "tags": {
        "Company": "Apples USA",
        "Project": "Apple IoT Test",
        "Tag_Data_Hash": "7bac8fd2-92b9-4c83-8ae2-260470edeaaf",
        "SensorID": "154416"
      },
      "fields": {
        "Status": "End Of Trip",
        "Latitude": 33.7610506,
        "Longitude": -84.3848952,
        "Speed_KmH": 0,
        "Speed_Accuracy_KmH": 4.32,
        "Heading_Degrees": 138,
        "Altitude_m": 367,
        "Position_Accuracy_m": 37,
        "PDOP_Raw": 32,
        "Ignition": "Off",
        "Gps_Status_Fix_OK": true,
        "Gps_Status_Fix_3D": true,
        "Analog_1": 4000,
        "Analog_3": 2780,
        "Analog_4": 9,
        "BigChain_Hash": "5c33703c-cc27-4c37-8015-1b02d797f9a1",
        "Iota_Hash": "ae51fdc5-390e-43a0-a747-c96c3a5f10b2",
        "Penta_Hash": "0477ae72-cf3e-4300-a2d1-a3ed947c36c8",
        "Logged": "23\/04\/2019 09:54"
      },
      "timestamp": "2019-04-22T23:54:00.000Z"
    },
    {
      "measurement": "154416",
      "tags": {
        "Company": "Apples USA",
        "Project": "Apple IoT Test",
        "Tag_Data_Hash": "7bac8fd2-92b9-4c83-8ae2-260470edeaaf",
        "SensorID": "154416"
      },
      "fields": {
        "Status": "Start Of Trip",
        "Latitude": 33.7610506,
        "Longitude": -84.3848952,
        "Speed_KmH": 0,
        "Speed_Accuracy_KmH": 4.32,
        "Heading_Degrees": 138,
        "Altitude_m": 367,
        "Position_Accuracy_m": 37,
        "PDOP_Raw": 32,
        "Ignition": "On",
        "Gps_Status_Fix_OK": true,
        "Gps_Status_Fix_3D": true,
        "Analog_1": 4004,
        "Analog_3": 2746,
        "Analog_4": 9,
        "BigChain_Hash": "5c33703c-cc27-4c37-8015-1b02d797f9a1",
        "Iota_Hash": "ae51fdc5-390e-43a0-a747-c96c3a5f10b2",
        "Penta_Hash": "0477ae72-cf3e-4300-a2d1-a3ed947c36c8",
        "Logged": "23\/04\/2019 10:08"
      },
      "timestamp": "2019-04-23T00:08:00.000Z"
    }
  ]