﻿,,,,,,,,,,,,,,,,,,,,,,,,,,,,,,,,,,,,,,,,,
Telemetry Data Report,,,,,,,,,,,,,,,,,,,,,,,,,,,,,,,,,,,,,,,,,
Telemetry Data for 154441 - 154441 - 04/26/2019 ,,,,,,,,,,,,,,,,,,,,,,,,,,,,,,,,,,,,,,,,,
Date Logged (ET (-05:00)),Date Received (ET (-05:00)),Log Reason,Latitude,Longitude,Speed MPH,Used Speed Limit (MPH),Speed Band,Speed Accuracy (MPH),Heading Degrees,Altitude (ft),Position Accuracy (ft),PDOP Raw,Ignition,Gps Status Fix OK,Gps Status Fix 3D,Digital Inputs,Digital Outputs,Driver Id Type,Driver Id Data,Trip Type Code,Project Code,Analog 1,Analog 2,Analog 3,Analog 4,Analog 5,Analog 6,Analog 7,Analog 8,Analog 9,Analog 10,Analog 11,Analog 12,Analog 13,Analog 14,Analog 15,Analog 16,Analog 17,Analog 18,Analog 19,Analog 20
04/26/2019 02:41,04/26/2019 10:30,Heartbeat Status,43.3387673,-85.7537943,0,,,2.68,0,801,118,17,Off,True,True,00000010000000000000000000000000,000000000000000000,,,,,"3,963",,701,7,612,"7,122",,,,,0,0,62,"3,818",0,,,,,
04/26/2019 10:18,04/26/2019 10:30,Sensor Value Elapsed Time,43.3387673,-85.7537943,0,,,2.68,0,801,118,17,Off,True,True,00000010000000000000000000000000,000000000000000000,,,,,"3,952",,783,7,715,"7,299",,,,,0,1,129,"7,838",0,,,,,
04/26/2019 10:28,04/26/2019 10:30,Sensor Value Elapsed Time,43.3387673,-85.7537943,0,,,2.68,0,801,118,17,Off,True,True,00000010000000000000000000000000,000000000000000000,,,,,"3,948",,979,7,879,"8,047",,,,,"3,240",1,131,"7,958",0,,,,,
04/26/2019 10:29,04/26/2019 10:30,Start Of Trip,42.3023416,-83.1136345,0,,,0.89,0,640,102,16,On,True,True,00000011000000000000000000000001,000000000000000000,,,,,"3,950",,"1,060",7,947,"8,026",,,,,0,1,131,"7,958",1,,,,,
04/26/2019 10:30,04/26/2019 10:30,Sensor Value Elapsed Time,42.3023416,-83.1136345,0,,,0.67,0,640,69,15,On,True,True,00000011000000000000000000001001,000000000000000000,,,,,"3,950",,"1,060",7,"1,036","8,145",,,,,0,1,132,"7,974",1,,,,,
04/26/2019 10:32,04/26/2019 10:36,Elapsed Time,42.3020976,-83.1138285,0,,,0.45,0,633,82,12,On,True,True,00000011000000000000000000001001,000000000000000000,,,,,"3,948",,"1,210",29,"1,091","8,061",,,,,0,1,132,"8,010",1,,,,,
04/26/2019 10:33,04/26/2019 10:36,Sensor Value Elapsed Time,42.3020976,-83.1138285,0,,,0.45,0,633,82,12,On,True,True,00000011000000000000000000001001,000000000000000000,,,,,"3,948",,"1,238",29,"1,162","7,827",,,,,0,1,133,"8,012",1,,,,,
04/26/2019 10:34,04/26/2019 10:36,Elapsed Time,42.3021537,-83.1138324,0,,,0.67,0,627,131,16,On,True,True,00000011000000000000000000001001,000000000000000000,,,,,"3,949",,"1,260",29,"1,162","7,827",,,,,0,1,133,"8,012",1,,,,,
04/26/2019 10:36,04/26/2019 10:36,End Of Trip,42.3021309,-83.1138815,0,,,0.67,18,568,82,13,Off,True,True,00000010000000000000000000001000,000000000000000000,,,,,"3,949",,"1,298",29,"1,215","7,697",,,,,0,1,134,"8,014",1,,,,,
04/26/2019 10:37,04/26/2019 12:29,Sensor Value Elapsed Time,42.3021309,-83.1138815,0,,,0.67,18,568,82,13,Off,True,True,00000010000000000000000000001000,000000000000000000,,,,,"3,947",,"1,363",22,"1,283","7,614",,,,,0,1,135,"8,016",1,,,,,
04/26/2019 10:42,04/26/2019 12:29,Sensor Value Elapsed Time,42.3020066,-83.1156728,0,,,0.45,0,600,75,10,Off,True,True,00000010000000000000000000001000,000000000000000000,,,,,"3,954",,"1,377",22,"1,387","7,452",,,,,0,1,142,"8,029",1,,,,,
04/26/2019 10:48,04/26/2019 12:29,Sensor Value Elapsed Time,42.3021853,-83.1157193,0,,,0.67,112,515,72,10,Off,True,True,00000010000000000000000000001000,000000000000000000,,,,,"3,952",,"1,559",22,"1,487","7,192",,,,,0,1,144,"8,036",1,,,,,
04/26/2019 10:59,04/26/2019 12:29,Sensor Value Elapsed Time,42.2999893,-83.1152810,4,,,2.24,126,518,144,13,Off,True,True,00000010000000000000000000001000,000000000000000000,,,,,"3,951",,"1,625",22,"1,589","6,906",,,,,0,1,146,"8,042",1,,,,,
04/26/2019 11:19,04/26/2019 12:29,Sensor Value Elapsed Time,42.2999893,-83.1152810,4,,,2.24,126,518,144,13,Off,True,True,00000010000000000000000000001000,000000000000000000,,,,,"3,954",,"1,727",22,"1,691","6,564",,,,,0,1,146,"8,042",1,,,,,
04/26/2019 12:22,04/26/2019 12:29,Start Of Trip,42.2999893,-83.1152810,4,,,2.24,126,518,144,13,On,True,True,00000011000000000000000000001001,000000000000000000,,,,,"3,956",,"1,720",22,"1,717","5,954",,,,,0,1,159,"8,106",2,,,,,
04/26/2019 12:28,04/26/2019 12:29,Distance Travelled,42.3105813,-83.0987033,58,,,0.45,58,571,20,12,On,True,True,00000011000000000000000000001001,000000000000000000,,,,,"3,956",,"1,720",22,"1,717","5,954",,,,,0,1,159,"8,106",2,,,,,
04/26/2019 12:30,04/26/2019 12:59,Elapsed Time,42.3324350,-83.0871646,55,,,0.22,348,653,69,17,On,True,True,00000011000000000000000000001001,000000000000000000,,,,,"3,951",,"1,791",27,"1,739","5,943",,,,,0,1,160,"8,112",2,,,,,
04/26/2019 12:32,04/26/2019 12:59,Elapsed Time,42.3567029,-83.1121270,61,,,1.79,302,574,112,14,On,True,True,00000011000000000000000000001001,000000000000000000,,,,,"3,950",,"1,828",27,"1,747","5,921",,,,,0,1,161,"8,115",2,,,,,
04/26/2019 12:35,04/26/2019 12:59,Elapsed Time,42.3750549,-83.1462248,63,,,0.67,358,610,131,19,On,True,True,00000011000000000000000000001001,000000000000000000,,,,,"3,950",,"1,798",27,"1,755","5,905",,,,,0,1,162,"8,120",2,,,,,
04/26/2019 12:37,04/26/2019 12:59,Elapsed Time,42.3832163,-83.1790247,65,,,0.22,252,610,79,16,On,True,True,00000011000000000000000000001001,000000000000000000,,,,,"3,953",,"1,786",27,"1,760","5,889",,,,,0,1,163,"8,122",2,,,,,
04/26/2019 12:39,04/26/2019 12:59,Elapsed Time,42.3786131,-83.2209619,61,,,0.45,260,617,95,14,On,True,True,00000011000000000000000000001001,000000000000000000,,,,,"3,955",,"1,767",27,"1,767","5,877",,,,,0,1,164,"8,124",2,,,,,
04/26/2019 12:41,04/26/2019 12:59,Elapsed Time,42.3857473,-83.2599837,65,,,0.45,272,617,89,13,On,True,True,00000011000000000000000000001001,000000000000000000,,,,,"3,949",,"1,815",27,"1,773","5,862",,,,,0,1,165,"8,126",2,,,,,
04/26/2019 12:43,04/26/2019 12:59,Elapsed Time,42.3850849,-83.3040412,67,,,0.89,264,627,154,17,On,True,True,00000011000000000000000000001001,000000000000000000,,,,,"3,950",,"1,823",27,"1,780","5,847",,,,,0,1,166,"8,128",2,,,,,
04/26/2019 12:45,04/26/2019 12:59,Elapsed Time,42.3831725,-83.3478876,67,,,0.45,266,630,72,16,On,True,True,00000011000000000000000000001001,000000000000000000,,,,,"3,952",,"1,819",27,"1,789","5,823",,,,,0,1,167,"8,129",2,,,,,
04/26/2019 12:46,04/26/2019 12:59,Sensor Value Elapsed Time,42.3831725,-83.3478876,67,,,0.45,266,630,72,16,On,True,True,00000011000000000000000000001001,000000000000000000,,,,,"3,953",,"1,818",27,"1,791","5,814",,,,,0,1,168,"8,132",2,,,,,
04/26/2019 12:47,04/26/2019 12:59,Elapsed Time,42.3823091,-83.3911344,64,,,0.45,266,646,135,21,On,True,True,00000011000000000000000000001001,000000000000000000,,,,,"3,951",,"1,820",27,"1,796","5,806",,,,,0,1,168,"8,132",2,,,,,
04/26/2019 12:49,04/26/2019 12:59,Elapsed Time,42.3870915,-83.4319106,65,,,1.12,326,669,141,17,On,True,True,00000011000000000000000000001001,000000000000000000,,,,,"3,955",,"1,801",27,"1,801","5,793",,,,,0,1,169,"8,134",2,,,,,
04/26/2019 12:51,04/26/2019 12:59,Elapsed Time,42.4179689,-83.4238323,58,,,0.22,358,705,59,16,On,True,True,00000011000000000000000000001001,000000000000000000,,,,,"3,953",,"1,814",27,"1,806","5,776",,,,,0,1,170,"8,136",2,,,,,
04/26/2019 12:53,04/26/2019 12:59,Elapsed Time,42.4481465,-83.4310101,64,,,0.22,0,840,92,13,On,True,True,00000011000000000000000000001001,000000000000000000,,,,,"3,953",,"1,832",27,"1,813","5,762",,,,,0,1,171,"8,139",2,,,,,
04/26/2019 12:55,04/26/2019 12:59,Elapsed Time,42.4806989,-83.4280073,71,,,0.67,352,863,118,11,On,True,True,00000011000000000000000000001001,000000000000000000,,,,,"3,957",,"1,806",27,"1,819","5,744",,,,,0,1,172,"8,141",2,,,,,
04/26/2019 12:57,04/26/2019 12:59,Elapsed Time,42.4866004,-83.4697399,68,,,0.22,276,928,92,16,On,True,True,00000011000000000000000000001001,000000000000000000,,,,,"3,953",,"1,838",27,"1,824","5,724",,,,,0,1,173,"8,143",2,,,,,
04/26/2019 12:59,04/26/2019 13:28,Elapsed Time,42.4949406,-83.5212663,68,,,0.22,284,968,85,12,On,True,True,00000011000000000000000000001001,000000000000000000,,,,,"3,948",,"1,915",30,"1,830","5,708",,,,,5,1,174,"8,144",2,,,,,
04/26/2019 13:01,04/26/2019 13:28,Elapsed Time,42.5048774,-83.5652695,68,,,0.45,290,948,157,19,On,True,True,00000011000000000000000000001001,000000000000000000,,,,,"3,951",,"1,882",30,"1,845","5,689",,,,,0,1,175,"8,146",2,,,,,
04/26/2019 13:04,04/26/2019 13:28,Elapsed Time,42.5159320,-83.6049134,63,,,0.22,290,"1,017",85,14,On,True,True,00000011000000000000000000001001,000000000000000000,,,,,"3,952",,"1,889",30,"1,847","5,670",,,,,0,1,176,"8,148",2,,,,,
04/26/2019 13:06,04/26/2019 13:28,Elapsed Time,42.5182698,-83.6464936,68,,,0.45,254,951,98,12,On,True,True,00000011000000000000000000001001,000000000000000000,,,,,"3,952",,"1,882",30,"1,850","5,657",,,,,0,1,177,"8,149",2,,,,,
04/26/2019 13:08,04/26/2019 13:28,Elapsed Time,42.5213084,-83.6888542,67,,,1.12,296,938,151,11,On,True,True,00000011000000000000000000001001,000000000000000000,,,,,"3,948",,"1,916",30,"1,855","5,643",,,,,0,1,178,"8,151",2,,,,,
04/26/2019 13:10,04/26/2019 13:28,Elapsed Time,42.5221220,-83.7333182,66,,,0.22,268,902,69,15,On,True,True,00000011000000000000000000001001,000000000000000000,,,,,"3,947",,"1,909",30,"1,856","5,634",,,,,0,1,179,"8,153",2,,,,,
04/26/2019 13:12,04/26/2019 13:28,Elapsed Time,42.5353917,-83.7686534,68,,,0.22,328,932,141,14,On,True,True,00000011000000000000000000001001,000000000000000000,,,,,"3,951",,"1,906",30,"1,861","5,615",,,,,0,1,180,"8,156",2,,,,,
04/26/2019 13:14,04/26/2019 13:28,Elapsed Time,42.5513908,-83.8062078,66,,,0.22,274,981,95,14,On,True,True,00000011000000000000000000001001,000000000000000000,,,,,"3,949",,"1,923",30,"1,862","5,600",,,,,0,1,181,"8,158",2,,,,,
04/26/2019 13:16,04/26/2019 13:28,Elapsed Time,42.5700170,-83.8434876,68,,,0.45,316,971,95,16,On,True,True,00000011000000000000000000001001,000000000000000000,,,,,"3,951",,"1,917",30,"1,866","5,587",,,,,0,1,182,"8,160",2,,,,,
04/26/2019 13:18,04/26/2019 13:28,Elapsed Time,42.5784598,-83.8820792,65,,,0.45,266,"1,007",105,13,On,True,True,00000011000000000000000000001001,000000000000000000,,,,,"3,953",,"1,878",30,"1,869","5,568",,,,,0,1,183,"8,162",2,,,,,
04/26/2019 13:20,04/26/2019 13:28,Elapsed Time,42.5854948,-83.9255492,66,,,0.45,286,"1,007",108,13,On,True,True,00000011000000000000000000001001,000000000000000000,,,,,"3,951",,"1,909",30,"1,875","5,556",,,,,0,1,184,"8,164",2,,,,,
04/26/2019 13:22,04/26/2019 13:28,Elapsed Time,42.6060530,-83.9598871,66,,,0.45,284,896,95,13,On,True,True,00000011000000000000000000001001,000000000000000000,,,,,"3,949",,"1,932",30,"1,877","5,544",,,,,0,1,185,"8,165",2,,,,,
04/26/2019 13:24,04/26/2019 13:28,Elapsed Time,42.6212199,-83.9981897,68,,,0.45,320,873,89,12,On,True,True,00000011000000000000000000001001,000000000000000000,,,,,"3,948",,"1,976",30,"1,880","5,529",,,,,0,1,186,"8,166",2,,,,,
04/26/2019 13:26,04/26/2019 13:28,Elapsed Time,42.6401013,-84.0340475,66,,,0.22,296,879,82,15,On,True,True,00000011000000000000000000001001,000000000000000000,,,,,"3,947",,"1,959",30,"1,881","5,513",,,,,0,1,187,"8,168",2,,,,,
04/26/2019 13:29,04/28/2019 11:16,Elapsed Time,42.6464834,-84.0875439,65,,,0.45,270,"1,027",82,14,On,True,True,00000011000000000000000000001001,000000000000000000,,,,,"3,948",,"1,957",24,"1,890","5,497",,,,,6,1,188,"8,170",2,,,,,
04/26/2019 13:29,04/28/2019 11:16,Sensor Value Elapsed Time,42.6464834,-84.0875439,65,,,0.45,270,"1,027",82,14,On,True,True,00000011000000000000000000001001,000000000000000000,,,,,"3,949",,"1,955",24,"1,909","5,489",,,,,0,1,189,"8,173",2,,,,,
04/26/2019 13:31,04/28/2019 11:16,Elapsed Time,42.6511694,-84.1296714,65,,,0.45,270,942,92,17,On,True,True,00000011000000000000000000001001,000000000000000000,,,,,"3,950",,"1,936",24,"1,906","5,478",,,,,0,1,189,"8,173",2,,,,,
04/26/2019 13:33,04/28/2019 11:16,Elapsed Time,42.6520118,-84.1756981,68,,,0.45,272,922,125,16,On,True,True,00000011000000000000000000001001,000000000000000000,,,,,"3,954",,"1,922",24,"1,908","5,462",,,,,0,1,190,"8,175",2,,,,,
04/26/2019 13:35,04/28/2019 11:16,Elapsed Time,42.6659546,-84.2147088,63,,,0.45,278,899,161,21,On,True,True,00000011000000000000000000001001,000000000000000000,,,,,"3,953",,"1,928",24,"1,912","5,452",,,,,0,1,191,"8,176",2,,,,,
04/26/2019 13:37,04/28/2019 11:16,Elapsed Time,42.6660789,-84.2595990,70,,,0.45,266,948,138,17,On,True,True,00000011000000000000000000001001,000000000000000000,,,,,"3,950",,"1,958",24,"1,925","5,415",,,,,0,1,192,"8,213",2,,,,,
04/26/2019 13:39,04/28/2019 11:16,Elapsed Time,42.6661991,-84.3058349,68,,,0.22,270,860,69,19,On,True,True,00000011000000000000000000001001,000000000000000000,,,,,"3,949",,"1,991",24,"1,927","5,417",,,,,0,1,193,"8,215",2,,,,,
04/26/2019 13:41,04/28/2019 11:16,Elapsed Time,42.6683031,-84.3510471,67,,,0.22,280,912,108,12,On,True,True,00000011000000000000000000001001,000000000000000000,,,,,"3,955",,"1,925",24,"1,930","5,397",,,,,0,1,194,"8,217",2,,,,,
04/26/2019 13:43,04/28/2019 11:16,Elapsed Time,42.6760992,-84.3955074,68,,,0.67,274,860,131,19,On,True,True,00000011000000000000000000001001,000000000000000000,,,,,"3,953",,"1,952",24,"1,933","5,387",,,,,0,1,195,"8,219",2,,,,,
04/26/2019 13:45,04/28/2019 11:16,Elapsed Time,42.6785000,-84.4405826,66,,,0.67,268,889,131,22,On,True,True,00000011000000000000000000001001,000000000000000000,,,,,"3,951",,"1,971",24,"1,939","5,378",,,,,0,1,196,"8,221",2,,,,,
04/26/2019 13:47,04/28/2019 11:16,Elapsed Time,42.6777849,-84.4851331,67,,,0.45,268,869,98,15,On,True,True,00000011000000000000000000001001,000000000000000000,,,,,"3,953",,"1,934",24,"1,944","5,363",,,,,0,1,197,"8,222",2,,,,,
04/26/2019 13:49,04/28/2019 11:16,Elapsed Time,42.6640777,-84.5250860,68,,,0.45,248,902,148,22,On,True,True,00000011000000000000000000001001,000000000000000000,,,,,"3,952",,"1,970",24,"1,948","5,342",,,,,0,1,198,"8,224",2,,,,,
04/26/2019 13:52,04/28/2019 11:16,Elapsed Time,42.6646894,-84.5871919,66,,,0.22,280,889,33,10,On,True,True,00000011000000000000000000001001,000000000000000000,,,,,"3,956",,"1,954",24,"1,960","5,318",,,,,0,1,199,"8,226",2,,,,,
04/26/2019 13:54,04/28/2019 11:16,Elapsed Time,42.6658671,-84.6327824,68,,,0.22,270,860,69,13,On,True,True,00000011000000000000000000001001,000000000000000000,,,,,"3,951",,"1,999",24,"1,967","5,285",,,,,0,1,200,"8,279",2,,,,,
04/26/2019 13:56,04/28/2019 11:16,Elapsed Time,42.6872317,-84.6653994,67,,,0.45,320,879,92,12,On,True,True,00000011000000000000000000001001,000000000000000000,,,,,"3,950",,"1,999",24,"1,967","5,277",,,,,0,1,201,"8,282",2,,,,,
04/26/2019 13:59,04/28/2019 11:16,Elapsed Time,42.7373593,-84.6680883,68,,,0.89,0,863,105,13,On,True,True,00000011000000000000000000001001,000000000000000000,,,,,"3,945",,"2,054",24,"2,002","5,258",,,,,0,2,202,"8,284",2,,,,,
04/26/2019 13:59,04/28/2019 11:16,Sensor Value Elapsed Time,42.7373593,-84.6680883,68,,,0.89,0,863,105,13,On,True,True,00000011000000000000000000001001,000000000000000000,,,,,"3,946",,"2,048",24,"2,013","5,242",,,,,0,2,203,"8,286",2,,,,,
04/26/2019 14:01,04/28/2019 11:16,Elapsed Time,42.7707582,-84.6688366,66,,,0.89,352,833,141,17,On,True,True,00000011000000000000000000001001,000000000000000000,,,,,"3,950",,"2,047",24,"2,010","5,225",,,,,0,2,203,"8,286",2,,,,,
04/26/2019 14:03,04/28/2019 11:16,Elapsed Time,42.7975463,-84.6908243,68,,,0.22,288,886,102,11,On,True,True,00000011000000000000000000001001,000000000000000000,,,,,"3,949",,"2,040",24,"2,011","5,205",,,,,0,2,204,"8,288",2,,,,,
04/26/2019 14:05,04/28/2019 11:16,Elapsed Time,42.7996271,-84.7362176,66,,,0.22,286,807,95,12,On,True,True,00000011000000000000000000001001,000000000000000000,,,,,"3,953",,"1,999",24,"2,014","5,180",,,,,0,2,205,"8,290",2,,,,,
04/26/2019 14:07,04/28/2019 11:16,Elapsed Time,42.8104314,-84.7783196,66,,,0.22,290,814,75,15,On,True,True,00000011000000000000000000001001,000000000000000000,,,,,"3,951",,"2,041",24,"2,013","5,158",,,,,0,2,206,"8,292",2,,,,,
04/26/2019 14:09,04/28/2019 11:16,Elapsed Time,42.8221538,-84.8195336,63,,,0.22,290,827,72,14,On,True,True,00000011000000000000000000001001,000000000000000000,,,,,"3,950",,"2,044",24,"2,018","5,143",,,,,0,2,207,"8,294",2,,,,,
04/26/2019 14:12,04/28/2019 11:16,Elapsed Time,42.8421479,-84.8479026,61,,,0.45,330,758,102,14,On,True,True,00000011000000000000000000001001,000000000000000000,,,,,"3,953",,"2,024",24,"2,016","5,134",,,,,0,2,208,"8,296",2,,,,,
04/26/2019 14:14,04/28/2019 11:16,Elapsed Time,42.8483920,-84.8540740,0,,,1.34,0,807,118,14,On,True,True,00000011000000000000000000001001,000000000000000000,,,,,"3,952",,"2,044",24,"2,017","5,117",,,,,0,2,209,"8,298",2,,,,,
04/26/2019 14:16,04/28/2019 11:16,Elapsed Time,42.8562554,-84.8690106,63,,,0.45,310,745,121,13,On,True,True,00000011000000000000000000001001,000000000000000000,,,,,"3,955",,"1,997",24,"2,020","5,116",,,,,0,2,210,"8,300",2,,,,,
04/26/2019 14:18,04/28/2019 11:16,Elapsed Time,42.8602735,-84.9121714,64,,,0.22,264,761,72,13,On,True,True,00000011000000000000000000001001,000000000000000000,,,,,"3,951",,"2,043",24,"2,021","5,098",,,,,0,2,211,"8,302",2,,,,,
04/26/2019 14:20,04/28/2019 11:16,Elapsed Time,42.8662831,-84.9543810,64,,,0.22,294,791,82,15,On,True,True,00000011000000000000000000001001,000000000000000000,,,,,"3,952",,"2,016",24,"2,025","5,075",,,,,0,2,212,"8,304",2,,,,,
04/26/2019 14:22,04/28/2019 11:16,Elapsed Time,42.8791638,-84.9896457,62,,,0.45,268,823,85,12,On,True,True,00000011000000000000000000001001,000000000000000000,,,,,"3,953",,"2,025",24,"2,024","5,069",,,,,0,2,213,"8,306",2,,,,,
04/26/2019 14:24,04/28/2019 11:16,Elapsed Time,42.8792926,-85.0309964,60,,,0.22,268,827,75,11,On,True,True,00000011000000000000000000001001,000000000000000000,,,,,"3,951",,"2,058",24,"2,026","5,057",,,,,0,2,214,"8,308",2,,,,,
04/26/2019 14:26,04/28/2019 11:16,Elapsed Time,42.8793595,-85.0725613,60,,,0.45,270,856,82,13,On,True,True,00000011000000000000000000001001,000000000000000000,,,,,"3,953",,"2,035",24,"2,028","5,049",,,,,0,2,215,"8,311",2,,,,,
04/26/2019 14:30,04/28/2019 11:16,Elapsed Time,42.8791093,-85.1487828,72,,,0.89,264,846,154,12,On,True,True,00000011000000000000000000001001,000000000000000000,,,,,"3,946",,"2,099",24,"2,066","5,019",,,,,0,3,216,"8,313",2,,,,,
04/26/2019 14:32,04/28/2019 11:16,Elapsed Time,42.8795053,-85.1950924,66,,,0.67,270,784,144,15,On,True,True,00000011000000000000000000001001,000000000000000000,,,,,"3,951",,"2,072",24,"2,064","4,991",,,,,0,3,217,"8,315",2,,,,,
04/26/2019 14:34,04/28/2019 11:16,Elapsed Time,42.8795252,-85.2394204,65,,,0.22,268,827,85,11,On,True,True,00000011000000000000000000001001,000000000000000000,,,,,"3,952",,"2,090",24,"2,063","4,985",,,,,0,3,218,"8,317",2,,,,,
04/26/2019 14:36,04/28/2019 11:16,Elapsed Time,42.8802044,-85.2827867,63,,,0.45,260,837,131,12,On,True,True,00000011000000000000000000001001,000000000000000000,,,,,"3,954",,"2,050",24,"2,063","4,972",,,,,0,3,219,"8,319",2,,,,,
04/26/2019 14:38,04/28/2019 11:16,Elapsed Time,42.8746757,-85.3241868,66,,,0.45,276,801,98,15,On,True,True,00000011000000000000000000001001,000000000000000000,,,,,"3,949",,"2,080",24,"2,062","4,966",,,,,0,3,220,"8,321",2,,,,,
04/26/2019 14:40,04/28/2019 11:16,Elapsed Time,42.8788611,-85.3688507,66,,,0.22,268,810,82,14,On,True,True,00000011000000000000000000001001,000000000000000000,,,,,"3,951",,"2,077",24,"2,062","4,953",,,,,0,3,221,"8,323",2,,,,,
04/26/2019 14:42,04/28/2019 11:16,Elapsed Time,42.8785889,-85.4119793,63,,,0.45,268,879,115,11,On,True,True,00000011000000000000000000001001,000000000000000000,,,,,"3,953",,"2,068",24,"2,062","4,936",,,,,0,3,222,"8,325",2,,,,,
04/26/2019 14:44,04/28/2019 11:16,Elapsed Time,42.8783220,-85.4529867,61,,,0.22,268,768,89,14,On,True,True,00000011000000000000000000001001,000000000000000000,,,,,"3,949",,"2,087",24,"2,058","4,921",,,,,0,3,223,"8,327",2,,,,,
04/26/2019 14:46,04/28/2019 11:16,Elapsed Time,42.8884997,-85.4889491,64,,,0.22,246,712,89,13,On,True,True,00000011000000000000000000001001,000000000000000000,,,,,"3,953",,"2,048",24,"2,060","4,911",,,,,0,3,224,"8,329",2,,,,,
04/26/2019 14:48,04/28/2019 11:16,Elapsed Time,42.8596920,-85.5048840,67,,,0.89,222,696,118,13,On,True,True,00000011000000000000000000001001,000000000000000000,,,,,"3,951",,"2,068",24,"2,057","4,890",,,,,0,3,225,"8,332",2,,,,,
04/26/2019 14:50,04/28/2019 11:16,Elapsed Time,42.8510936,-85.5401133,63,,,0.45,254,853,121,18,On,True,True,00000011000000000000000000001001,000000000000000000,,,,,"3,952",,"2,047",24,"2,058","4,875",,,,,0,3,226,"8,334",2,,,,,
04/26/2019 14:52,04/28/2019 11:16,Elapsed Time,42.8504919,-85.5802702,60,,,0.45,278,745,121,12,On,True,True,00000011000000000000000000001001,000000000000000000,,,,,"3,949",,"2,083",24,"2,057","4,856",,,,,0,3,227,"8,336",2,,,,,
04/26/2019 14:54,04/28/2019 11:16,Elapsed Time,42.8472748,-85.6236511,66,,,0.22,266,755,85,17,On,True,True,00000011000000000000000000001001,000000000000000000,,,,,"3,951",,"2,069",24,"2,056","4,846",,,,,0,3,228,"8,338",2,,,,,
04/26/2019 14:56,04/28/2019 11:16,Elapsed Time,42.8489185,-85.6675109,61,,,0.22,268,679,102,13,On,True,True,00000011000000000000000000001001,000000000000000000,,,,,"3,949",,"2,097",24,"2,054","4,828",,,,,0,3,229,"8,339",2,,,,,
04/26/2019 14:59,04/28/2019 11:16,Elapsed Time,42.8528630,-85.7298148,60,,,0.22,268,676,108,12,On,True,True,00000011000000000000000000001001,000000000000000000,,,,,"3,942",,"2,148",24,"2,083","4,795",,,,,0,4,230,"8,341",2,,,,,
04/26/2019 15:01,04/28/2019 11:16,Elapsed Time,42.8484160,-85.7630835,19,,,0.45,246,610,138,20,On,True,True,00000011000000000000000000001001,000000000000000000,,,,,"3,948",,"2,119",24,"2,081","4,766",,,,,0,4,231,"8,343",2,,,,,
04/26/2019 15:03,04/28/2019 11:16,Elapsed Time,42.8473450,-85.7667698,6,,,0.22,246,669,89,18,On,True,True,00000011000000000000000000001001,000000000000000000,,,,,"3,950",,"2,085",24,"2,076","4,750",,,,,0,4,232,"8,345",2,,,,,
04/26/2019 15:06,04/28/2019 11:16,Elapsed Time,42.8462463,-85.7730590,25,,,0.22,268,725,115,17,On,True,True,00000011000000000000000000001001,000000000000000000,,,,,"3,948",,"2,097",24,"2,080","4,697",,,,,0,4,233,"8,383",2,,,,,
04/26/2019 15:08,04/28/2019 11:16,Elapsed Time,42.8460788,-85.7881118,29,,,0.22,268,705,102,23,On,True,True,00000011000000000000000000001001,000000000000000000,,,,,"3,948",,"2,076",24,"2,063","4,647",,,,,0,4,234,"8,384",2,,,,,
04/26/2019 15:10,04/28/2019 11:16,Elapsed Time,42.8563782,-85.8134858,41,,,0.45,330,758,108,19,On,True,True,00000011000000000000000000001001,000000000000000000,,,,,"3,947",,"2,077",24,"2,049","4,617",,,,,0,4,235,"8,386",2,,,,,
04/26/2019 15:12,04/28/2019 11:16,Elapsed Time,42.8566303,-85.8400259,40,,,0.45,236,725,154,20,On,True,True,00000011000000000000000000001001,000000000000000000,,,,,"3,950",,"2,047",24,"2,039","4,606",,,,,0,4,236,"8,388",2,,,,,
04/26/2019 15:14,04/28/2019 11:16,Elapsed Time,42.8507673,-85.8611590,9,,,0.45,294,735,92,17,On,True,True,00000011000000000000000000001001,000000000000000000,,,,,"3,951",,"2,032",24,"2,032","4,597",,,,,0,4,237,"8,390",2,,,,,
04/26/2019 15:16,04/28/2019 11:16,Elapsed Time,42.8578513,-85.8610175,35,,,0.45,358,692,66,19,On,True,True,00000011000000000000000000001001,000000000000000000,,,,,"3,951",,"2,015",24,"2,027","4,589",,,,,0,4,238,"8,393",2,,,,,
04/26/2019 15:18,04/28/2019 11:16,Elapsed Time,42.8697627,-85.8611882,7,,,0.45,358,633,89,20,On,True,True,00000011000000000000000000001001,000000000000000000,,,,,"3,951",,"2,025",24,"2,024","4,581",,,,,0,4,239,"8,396",2,,,,,
04/26/2019 15:20,04/28/2019 11:16,Elapsed Time,42.8728203,-85.8575231,27,,,0.45,232,571,89,14,On,True,True,00000011000000000000000000001001,000000000000000000,,,,,"3,953",,"2,025",24,"2,021","4,567",,,,,0,4,240,"8,399",2,,,,,
04/26/2019 15:22,04/28/2019 11:16,Elapsed Time,42.8638402,-85.8735997,58,,,0.45,232,597,128,17,On,True,True,00000011000000000000000000001001,000000000000000000,,,,,"3,949",,"2,030",24,"2,018","4,552",,,,,0,4,241,"8,401",2,,,,,
04/26/2019 15:24,04/28/2019 11:16,Elapsed Time,42.8607075,-85.8779840,0,,,0.45,0,607,72,14,On,True,True,00000011000000000000000000001001,000000000000000000,,,,,"3,950",,"2,022",24,"2,014","4,538",,,,,0,4,242,"8,403",2,,,,,
04/26/2019 15:26,04/28/2019 11:16,Elapsed Time,42.8608918,-85.8779941,2,,,0.45,132,643,128,18,On,True,True,00000011000000000000000000001001,000000000000000000,,,,,"3,951",,"2,043",24,"2,013","4,516",,,,,0,4,243,"8,405",2,,,,,
04/26/2019 15:30,04/28/2019 11:16,End Of Trip,42.8608051,-85.8779772,0,,,1.12,132,676,82,14,Off,True,True,00000010000000000000000000001000,000000000000000000,,,,,"3,942",,"2,119",24,"2,044","4,496",,,,,0,5,244,"8,407",2,,,,,
04/26/2019 15:56,04/28/2019 11:16,Start Of Trip,42.8608051,-85.8779772,0,,,1.12,132,676,82,14,On,True,True,00000011000000000000000000001001,000000000000000000,,,,,"3,949",,"2,043",24,"2,041","4,376",,,,,0,6,254,"8,429",3,,,,,
04/26/2019 15:57,04/28/2019 11:16,Distance Travelled,42.8602105,-85.8834213,17,,,0.22,176,643,23,14,On,True,True,00000011000000000000000000001001,000000000000000000,,,,,"3,949",,"2,043",24,"2,041","4,376",,,,,0,6,254,"8,429",3,,,,,
04/26/2019 16:00,04/28/2019 11:16,Elapsed Time,42.8589677,-85.8846583,0,,,0.45,0,663,95,16,On,True,True,00000011000000000000000000001001,000000000000000000,,,,,"3,940",,"2,139",24,"2,077","4,360",,,,,0,7,255,"8,435",3,,,,,
04/26/2019 16:02,04/28/2019 11:16,End Of Trip,42.8588945,-85.8847402,0,,,1.34,0,676,121,15,Off,True,True,00000010000000000000000000001000,000000000000000000,,,,,"3,943",,"2,113",24,"2,081","4,341",,,,,0,7,256,"8,437",3,,,,,
04/26/2019 16:06,04/28/2019 11:16,Sensor Value Elapsed Time,42.8589047,-85.8847044,0,,,0.89,0,650,135,14,Off,True,True,00000010000000000000000000001000,000000000000000000,,,,,"3,945",,"2,108",24,"2,115","4,299",,,,,0,8,258,"8,440",3,,,,,
04/26/2019 16:47,04/28/2019 11:16,Sensor Value Elapsed Time,42.8589093,-85.8840322,0,,,0.67,76,663,13,14,Off,True,True,00000010000000000000000000001000,000000000000000000,,,,,"3,947",,"2,210",24,"2,215","4,142",,,,,0,8,273,"8,506",3,,,,,
04/26/2019 17:12,04/28/2019 11:16,Sensor Value Elapsed Time,42.8591969,-85.8843945,0,,,0.89,0,640,92,13,Off,True,True,00000010000000000000000000001000,000000000000000000,,,,,"3,947",,"2,296",24,"2,316","4,146",,,,,0,8,286,"8,536",3,,,,,
04/26/2019 17:32,04/28/2019 11:16,Sensor Value Elapsed Time,42.8606567,-85.8835017,12,,,0.45,2,620,33,12,Off,True,True,00000010000000000000000000001000,000000000000000000,,,,,"3,944",,"2,428",24,"2,418","4,067",,,,,0,8,298,"8,560",3,,,,,
04/26/2019 17:32,04/28/2019 11:16,Start Of Trip,42.8606567,-85.8835017,12,,,0.45,2,620,33,12,On,True,True,00000011000000000000000000001001,000000000000000000,,,,,"3,948",,"2,410",24,"2,415","3,949",,,,,0,8,299,"8,562",4,,,,,
04/26/2019 17:38,04/28/2019 11:16,Distance Travelled,42.8688751,-85.8643344,0,,,0.22,0,610,20,12,On,True,True,00000011000000000000000000001001,000000000000000000,,,,,"3,948",,"2,410",24,"2,415","3,949",,,,,0,8,299,"8,562",4,,,,,
04/26/2019 17:41,04/28/2019 11:16,Elapsed Time,42.8821151,-85.8405134,49,,,0.22,52,531,128,15,On,True,True,00000011000000000000000000001001,000000000000000000,,,,,"3,941",,"2,480",24,"2,442","3,910",,,,,0,9,300,"8,568",4,,,,,
04/26/2019 17:43,04/28/2019 11:16,Elapsed Time,42.8902468,-85.8257350,46,,,0.22,54,614,115,13,On,True,True,00000011000000000000000000001001,000000000000000000,,,,,"3,946",,"2,428",24,"2,436","3,879",,,,,0,9,301,"8,570",4,,,,,
04/26/2019 17:45,04/28/2019 11:16,Elapsed Time,42.8966274,-85.8090924,41,,,0.45,62,591,131,19,On,True,True,00000011000000000000000000001001,000000000000000000,,,,,"3,948",,"2,398",24,"2,428","3,842",,,,,0,9,302,"8,572",4,,,,,
04/26/2019 17:47,04/28/2019 11:16,Elapsed Time,42.9020637,-85.7941829,0,,,0.89,142,617,66,13,On,True,True,00000011000000000000000000001001,000000000000000000,,,,,"3,944",,"2,417",24,"2,421","3,817",,,,,0,9,303,"8,574",4,,,,,
04/26/2019 17:49,04/28/2019 11:16,Elapsed Time,42.9055348,-85.7770051,23,,,0.89,74,551,144,14,On,True,True,00000011000000000000000000001001,000000000000000000,,,,,"3,947",,"2,414",24,"2,415","3,793",,,,,0,9,304,"8,577",4,,,,,
04/26/2019 17:51,04/28/2019 11:16,Elapsed Time,42.9086755,-85.7658866,15,,,0.45,66,610,59,13,On,True,True,00000011000000000000000000001001,000000000000000000,,,,,"3,944",,"2,426",24,"2,410","3,757",,,,,0,9,305,"8,615",4,,,,,
04/26/2019 17:53,04/28/2019 11:16,Elapsed Time,42.9159323,-85.7478157,43,,,0.67,42,525,102,14,On,True,True,00000011000000000000000000001001,000000000000000000,,,,,"3,943",,"2,410",24,"2,401","3,733",,,,,0,9,306,"8,618",4,,,,,
04/26/2019 17:55,04/28/2019 11:16,Elapsed Time,42.9221026,-85.7463402,25,,,0.22,268,587,72,12,On,True,True,00000011000000000000000000001001,000000000000000000,,,,,"3,945",,"2,370",24,"2,390","3,721",,,,,0,9,307,"8,620",4,,,,,
04/26/2019 17:57,04/28/2019 11:16,Elapsed Time,42.9207425,-85.7532935,0,,,0.67,0,600,135,13,On,True,True,00000011000000000000000000001001,000000000000000000,,,,,"3,945",,"2,388",24,"2,378","3,707",,,,,0,9,308,"8,623",4,,,,,
04/26/2019 17:59,04/28/2019 11:16,Elapsed Time,42.9206035,-85.7526456,6,,,2.68,60,607,144,15,On,True,True,00000011000000000000000000001001,000000000000000000,,,,,"3,943",,"2,387",24,"2,368","3,688",,,,,0,9,309,"8,625",4,,,,,
04/26/2019 18:01,04/28/2019 11:16,Elapsed Time,42.9206413,-85.7527523,0,,,0.45,0,574,85,14,On,True,True,00000011000000000000000000001001,000000000000000000,,,,,"3,946",,"2,354",24,"2,360","3,683",,,,,0,9,310,"8,627",4,,,,,
04/26/2019 18:03,04/28/2019 11:16,End Of Trip,42.9206224,-85.7527520,0,,,0.89,0,587,102,15,Off,True,True,00000010000000000000000000001000,000000000000000000,,,,,"3,947",,"2,343",24,"2,351","3,675",,,,,0,9,311,"8,629",4,,,,,
04/26/2019 18:16,04/28/2019 11:16,Sensor Value Elapsed Time,42.9206085,-85.7526828,0,,,0.22,0,551,62,12,Off,True,True,00000010000000000000000000001000,000000000000000000,,,,,"3,946",,"2,283",24,"2,316","3,567",,,,,0,10,314,"8,636",4,,,,,
04/26/2019 18:27,04/28/2019 11:16,Start Of Trip,42.9206085,-85.7526828,0,,,0.22,0,551,62,12,On,True,True,00000011000000000000000000001001,000000000000000000,,,,,"3,946",,"2,267",24,"2,265","3,527",,,,,0,10,325,"8,658",5,,,,,
04/26/2019 18:29,04/28/2019 11:16,Distance Travelled,42.9162336,-85.7550910,49,,,0.22,176,617,23,11,On,True,True,00000011000000000000000000001001,000000000000000000,,,,,"3,946",,"2,267",24,"2,265","3,527",,,,,0,10,325,"8,658",5,,,,,
04/26/2019 18:32,04/28/2019 11:16,Elapsed Time,42.9152060,-85.7672294,48,,,0.22,298,571,62,11,On,True,True,00000011000000000000000000001001,000000000000000000,,,,,"3,937",,"2,378",24,"2,285","3,497",,,,,0,11,326,"8,665",5,,,,,
04/26/2019 18:34,04/28/2019 11:16,Elapsed Time,42.9413677,-85.7748465,55,,,0.67,356,702,95,13,On,True,True,00000011000000000000000000001001,000000000000000000,,,,,"3,941",,"2,309",24,"2,284","3,476",,,,,0,11,327,"8,668",5,,,,,
04/26/2019 18:36,04/28/2019 11:16,Elapsed Time,42.9637610,-85.7761477,53,,,0.45,358,745,144,14,On,True,True,00000011000000000000000000001001,000000000000000000,,,,,"3,941",,"2,316",24,"2,272","3,468",,,,,0,11,328,"8,671",5,,,,,
04/26/2019 18:38,04/28/2019 11:16,Elapsed Time,42.9862845,-85.7768746,19,,,0.45,358,751,121,13,On,True,True,00000011000000000000000000001001,000000000000000000,,,,,"3,939",,"2,317",24,"2,265","3,456",,,,,0,11,329,"8,672",5,,,,,
04/26/2019 18:40,04/28/2019 11:16,Elapsed Time,43.0067129,-85.7777135,53,,,0.45,356,705,85,13,On,True,True,00000011000000000000000000001001,000000000000000000,,,,,"3,940",,"2,275",24,"2,253","3,440",,,,,0,11,330,"8,673",5,,,,,
04/26/2019 18:42,04/28/2019 11:16,Elapsed Time,43.0160700,-85.7667780,45,,,0.45,90,751,144,12,On,True,True,00000011000000000000000000001001,000000000000000000,,,,,"3,938",,"2,298",24,"2,242","3,427",,,,,0,11,331,"8,675",5,,,,,
04/26/2019 18:44,04/28/2019 11:16,Elapsed Time,43.0304472,-85.7635146,25,,,0.67,0,771,89,12,On,True,True,00000011000000000000000000001001,000000000000000000,,,,,"3,942",,"2,242",24,"2,229","3,398",,,,,0,11,332,"8,677",5,,,,,
04/26/2019 18:46,04/28/2019 11:16,Sensor Value Elapsed Time,43.0304472,-85.7635146,25,,,0.67,0,771,89,12,On,True,True,00000011000000000000000000001001,000000000000000000,,,,,"3,940",,"2,252",24,"2,209","3,384",,,,,0,11,333,"8,679",5,,,,,
04/26/2019 18:47,04/28/2019 11:16,Elapsed Time,43.0589469,-85.7681887,58,,,0.45,358,781,95,13,On,True,True,00000011000000000000000000001001,000000000000000000,,,,,"3,940",,"2,252",24,"2,209","3,384",,,,,0,11,333,"8,679",5,,,,,
04/26/2019 18:49,04/28/2019 11:16,Elapsed Time,43.0739269,-85.7558743,37,,,0.45,90,764,108,15,On,True,True,00000011000000000000000000001001,000000000000000000,,,,,"3,942",,"2,248",24,"2,195","3,349",,,,,0,11,334,"8,681",5,,,,,
04/26/2019 18:51,04/28/2019 11:16,Elapsed Time,43.0742024,-85.7527776,0,,,0.45,0,722,112,13,On,True,True,00000011000000000000000000001001,000000000000000000,,,,,"3,942",,"2,228",24,"2,183","3,373",,,,,0,11,335,"8,683",5,,,,,
04/26/2019 18:53,04/28/2019 11:16,Elapsed Time,43.0740905,-85.7527891,0,,,0.45,0,801,85,12,On,True,True,00000011000000000000000000001001,000000000000000000,,,,,"3,941",,"2,217",24,"2,171","3,377",,,,,0,11,336,"8,684",5,,,,,
04/26/2019 18:55,04/28/2019 11:16,End Of Trip,43.0740676,-85.7528770,0,,,0.45,0,787,89,12,Off,True,True,00000010000000000000000000001000,000000000000000000,,,,,"3,940",,"2,216",24,"2,164","3,381",,,,,0,11,337,"8,686",5,,,,,
04/26/2019 19:19,04/28/2019 11:16,Sensor Value Elapsed Time,43.0740676,-85.7528770,0,,,0.45,0,787,89,12,Off,True,True,00000010000000000000000000001000,000000000000000000,,,,,"3,940",,"2,149",24,"2,109","3,392",,,,,0,12,338,"8,688",5,,,,,
04/26/2019 20:38,04/28/2019 11:16,Sensor Value Elapsed Time,43.0740676,-85.7528770,0,,,0.45,0,787,89,12,Off,True,True,00000010000000000000000000001000,000000000000000000,,,,,"3,946",,"2,053",24,"2,007","3,437",,,,,0,12,338,"8,688",5,,,,,
04/26/2019 21:01,04/28/2019 11:16,Sensor Value Elapsed Time,43.0740676,-85.7528770,0,,,0.45,0,787,89,12,Off,True,True,00000010000000000000000000001000,000000000000000000,,,,,"3,945",,"1,959",24,"1,906","3,396",,,,,0,12,338,"8,688",5,,,,,
04/26/2019 21:21,04/28/2019 11:16,Sensor Value Elapsed Time,43.0740676,-85.7528770,0,,,0.45,0,787,89,12,Off,True,True,00000010000000000000000000001000,000000000000000000,,,,,"3,943",,"1,855",24,"1,801","3,370",,,,,0,12,338,"8,688",5,,,,,
04/26/2019 21:41,04/28/2019 11:16,Sensor Value Elapsed Time,43.0740676,-85.7528770,0,,,0.45,0,787,89,12,Off,True,True,00000010000000000000000000001000,000000000000000000,,,,,"3,944",,"1,745",24,"1,698","3,363",,,,,0,12,338,"8,688",5,,,,,
04/26/2019 22:00,04/28/2019 11:16,Sensor Value Elapsed Time,43.0740676,-85.7528770,0,,,0.45,0,787,89,12,Off,True,True,00000010000000000000000000001000,000000000000000000,,,,,"3,945",,"1,658",24,"1,598","3,361",,,,,0,12,338,"8,688",5,,,,,
04/26/2019 22:21,04/28/2019 11:16,Sensor Value Elapsed Time,43.0740676,-85.7528770,0,,,0.45,0,787,89,12,Off,True,True,00000010000000000000000000001000,000000000000000000,,,,,"3,943",,"1,580",24,"1,492","3,366",,,,,0,12,338,"8,688",5,,,,,
04/26/2019 22:44,04/28/2019 11:16,Sensor Value Elapsed Time,43.0740676,-85.7528770,0,,,0.45,0,787,89,12,Off,True,True,00000010000000000000000000001000,000000000000000000,,,,,"3,945",,"1,480",24,"1,392","3,380",,,,,0,12,338,"8,688",5,,,,,
04/26/2019 23:11,04/28/2019 11:16,Sensor Value Elapsed Time,43.0740676,-85.7528770,0,,,0.45,0,787,89,12,Off,True,True,00000010000000000000000000001000,000000000000000000,,,,,"3,949",,"1,366",24,"1,289","3,393",,,,,0,12,338,"8,688",5,,,,,
04/26/2019 23:40,04/28/2019 11:16,Sensor Value Elapsed Time,43.0740676,-85.7528770,0,,,0.45,0,787,89,12,Off,True,True,00000010000000000000000000001000,000000000000000000,,,,,"3,946",,"1,272",24,"1,186","3,413",,,,,0,12,338,"8,688",5,,,,,
,,,,,,,,,,,,,,,,,,,,,,,,,,,,,,,,,,,,,,,,,