﻿,,,,,,,,,,,,,,,,,,,,,,,,,,,,,,,,,,,,,,,,,
Telemetry Data Report,,,,,,,,,,,,,,,,,,,,,,,,,,,,,,,,,,,,,,,,,
Telemetry Data for 154547 - 154547 - 04/27/2019 ,,,,,,,,,,,,,,,,,,,,,,,,,,,,,,,,,,,,,,,,,
Date Logged (ET (-05:00)),Date Received (ET (-05:00)),Log Reason,Latitude,Longitude,Speed MPH,Used Speed Limit (MPH),Speed Band,Speed Accuracy (MPH),Heading Degrees,Altitude (ft),Position Accuracy (ft),PDOP Raw,Ignition,Gps Status Fix OK,Gps Status Fix 3D,Digital Inputs,Digital Outputs,Driver Id Type,Driver Id Data,Trip Type Code,Project Code,Analog 1,Analog 2,Analog 3,Analog 4,Analog 5,Analog 6,Analog 7,Analog 8,Analog 9,Analog 10,Analog 11,Analog 12,Analog 13,Analog 14,Analog 15,Analog 16,Analog 17,Analog 18,Analog 19,Analog 20
04/27/2019 00:01,04/27/2019 18:28,Sensor Value Elapsed Time,39.4466548,-92.4185164,0,,,2.46,260,856,135,28,Off,True,True,00000010000000000000000000000100,000000000000000000,,,,,"4,152",,-36,4,200,"7,040",,,,,0,18,464,"7,532",8,,,,,
04/27/2019 00:02,04/27/2019 18:28,Heartbeat Status,39.4466475,-92.4184276,1,,,2.91,258,866,157,21,Off,True,True,00000010000000000000000000000100,000000000000000000,,,,,"4,153",,-55,4,200,"7,040",,,,,0,18,464,"7,532",8,,,,,
04/27/2019 00:05,04/27/2019 18:28,Heartbeat Status,39.4467112,-92.4183061,0,,,2.24,256,810,141,46,Off,True,True,00000010000000000000000000000100,000000000000000000,,,,,"4,141",,27,4,233,"7,025",,,,,0,19,465,"7,561",8,,,,,
04/27/2019 00:09,04/27/2019 18:28,Heartbeat Status,39.4467925,-92.4181386,0,,,2.24,248,873,128,25,Off,True,True,00000010000000000000000000000100,000000000000000000,,,,,"4,140",,43,4,264,"7,006",,,,,0,20,466,"7,578",8,,,,,
04/27/2019 00:12,04/27/2019 18:28,Heartbeat Status,39.4466167,-92.4183620,0,,,2.24,0,738,105,16,Off,True,True,00000010000000000000000000000100,000000000000000000,,,,,"4,140",,57,4,283,"6,959",,,,,0,21,467,"7,601",8,,,,,
04/27/2019 00:24,04/27/2019 18:28,Heartbeat Status,39.4466548,-92.4183153,4,,,2.91,262,866,128,22,Off,True,True,00000010000000000000000000000100,000000000000000000,,,,,"4,147",,-4,4,256,"6,953",,,,,0,22,470,"7,637",8,,,,,
04/27/2019 00:43,04/27/2019 18:28,Heartbeat Status,39.4467165,-92.4184264,0,,,1.57,0,869,125,30,Off,True,True,00000010000000000000000000000100,000000000000000000,,,,,"4,144",,6,4,220,"6,996",,,,,0,23,474,"7,685",8,,,,,
04/27/2019 01:12,04/27/2019 18:28,Heartbeat Status,39.4465281,-92.4183778,0,,,2.91,300,781,112,14,Off,True,True,00000010000000000000000000000100,000000000000000000,,,,,"4,146",,-60,4,198,"7,037",,,,,0,24,480,"7,794",8,,,,,
04/27/2019 01:53,04/27/2019 18:28,Heartbeat Status,39.4464905,-92.4180361,2,,,1.79,278,840,118,16,Off,True,True,00000010000000000000000000000100,000000000000000000,,,,,"4,142",,-20,4,191,"7,060",,,,,0,25,488,"7,984",8,,,,,
04/27/2019 02:46,04/27/2019 18:28,Heartbeat Status,39.4465844,-92.4181583,2,,,1.57,270,968,151,19,Off,True,True,00000010000000000000000000000100,000000000000000000,,,,,"4,141",,-31,4,186,"7,102",,,,,0,26,499,"8,156",8,,,,,
04/27/2019 03:55,04/27/2019 18:28,Heartbeat Status,39.4466520,-92.4181930,0,,,2.24,236,889,128,42,Off,True,True,00000010000000000000000000000100,000000000000000000,,,,,"4,141",,3,4,215,"7,237",,,,,0,27,513,"8,367",8,,,,,
04/27/2019 05:21,04/27/2019 18:28,Heartbeat Status,39.4465740,-92.4183773,1,,,2.68,290,860,128,13,Off,True,True,00000010000000000000000000000100,000000000000000000,,,,,"4,137",,-5,4,190,"7,277",,,,,0,28,530,"8,649",8,,,,,
04/27/2019 07:06,04/27/2019 18:28,Heartbeat Status,39.4466468,-92.4183173,3,,,2.24,246,856,154,18,Off,True,True,00000010000000000000000000000100,000000000000000000,,,,,"4,142",,-53,4,202,"7,251",,,,,0,29,551,"8,948",8,,,,,
04/27/2019 07:54,04/27/2019 18:28,Sensor Value Elapsed Time,39.4511250,-92.4174366,0,,,0.89,210,971,66,15,Off,True,True,00000010000000000000000000000000,000000000000000000,,,,,"4,138",,45,4,316,"7,888",,,,,"5,400",30,560,"9,140",8,,,,,
04/27/2019 07:54,04/27/2019 18:28,Start Of Trip,39.4511250,-92.4174366,0,,,0.89,210,971,66,15,On,True,True,00000011000000000000000000000001,000000000000000000,,,,,"4,138",,45,4,316,"7,888",,,,,"5,400",30,560,"9,140",9,,,,,
04/27/2019 07:54,04/27/2019 18:28,Distance Travelled,39.4511250,-92.4174366,0,,,0.67,210,971,62,19,On,True,True,00000011000000000000000000000001,000000000000000000,,,,,"4,138",,45,4,316,"7,888",,,,,"5,400",30,560,"9,140",9,,,,,
04/27/2019 07:56,04/27/2019 18:28,Sensor Value Elapsed Time,39.4511250,-92.4174366,0,,,0.67,210,971,62,19,On,True,True,00000011000000000000000000000001,000000000000000000,,,,,"4,138",,45,4,421,"8,133",,,,,"4,320",30,561,"9,150",9,,,,,
04/27/2019 07:57,04/27/2019 18:28,Elapsed Time,39.4508695,-92.4173951,1,,,1.34,70,"1,175",154,19,On,True,True,00000011000000000000000000000001,000000000000000000,,,,,"4,124",,281,4,476,"8,210",,,,,"7,920",31,561,"9,150",9,,,,,
04/27/2019 07:58,04/27/2019 18:28,Sensor Value Elapsed Time,39.4508974,-92.4173730,0,,,0.45,68,"1,178",26,13,On,True,True,00000011000000000000000000000001,000000000000000000,,,,,"4,124",,281,4,525,"8,224",,,,,"7,560",31,562,"9,183",9,,,,,
04/27/2019 08:00,04/27/2019 18:28,End Of Trip,39.4513186,-92.4173166,1,,,1.79,108,899,154,20,Off,True,True,00000010000000000000000000000000,000000000000000000,,,,,"4,119",,472,4,614,"8,298",,,,,"1,440",32,562,"9,183",9,,,,,
04/27/2019 08:01,04/27/2019 18:28,Sensor Value Elapsed Time,39.4513186,-92.4173166,1,,,1.79,108,899,154,20,Off,True,True,00000010000000000000000000000000,000000000000000000,,,,,"4,119",,472,4,664,"8,319",,,,,"1,440",32,563,"9,187",9,,,,,
04/27/2019 08:03,04/27/2019 18:28,Sensor Value Elapsed Time,39.4513186,-92.4173166,1,,,1.79,108,899,154,20,Off,True,True,00000010000000000000000000000000,000000000000000000,,,,,"4,119",,472,4,827,"8,561",,,,,0,32,563,"9,187",9,,,,,
04/27/2019 08:04,04/27/2019 18:28,Heartbeat Status,39.4513653,-92.4173430,0,,,0.89,0,794,108,16,Off,True,True,00000010000000000000000000000000,000000000000000000,,,,,"4,117",,708,4,827,"8,561",,,,,0,33,563,"9,187",9,,,,,
04/27/2019 08:05,04/27/2019 18:28,Sensor Value Elapsed Time,39.4513653,-92.4173430,0,,,0.89,0,794,108,16,Off,True,True,00000010000000000000000000000000,000000000000000000,,,,,"4,117",,708,4,929,"8,084",,,,,0,33,564,"9,190",9,,,,,
04/27/2019 08:07,04/27/2019 18:28,Sensor Value Elapsed Time,39.4513653,-92.4173430,0,,,0.89,0,794,108,16,Off,True,True,00000010000000000000000000001000,000000000000000000,,,,,"4,116",,842,4,"1,015","7,727",,,,,0,34,564,"9,190",9,,,,,
04/27/2019 08:07,04/27/2019 18:28,Heartbeat Status,39.4512989,-92.4173722,0,,,1.12,332,876,79,15,Off,True,True,00000010000000000000000000001000,000000000000000000,,,,,"4,116",,842,4,"1,015","7,727",,,,,0,34,564,"9,190",9,,,,,
04/27/2019 08:10,04/27/2019 18:28,Sensor Value Elapsed Time,39.4512989,-92.4173722,0,,,1.12,332,876,79,15,Off,True,True,00000010000000000000000000001000,000000000000000000,,,,,"4,116",,842,4,"1,128","7,454",,,,,0,34,565,"9,194",9,,,,,
04/27/2019 08:10,04/27/2019 18:28,Heartbeat Status,39.4512942,-92.4173219,0,,,1.12,0,814,135,18,Off,True,True,00000010000000000000000000001000,000000000000000000,,,,,"4,112",,950,4,"1,128","7,454",,,,,0,35,565,"9,194",9,,,,,
04/27/2019 08:13,04/27/2019 18:28,Heartbeat Status,39.4512630,-92.4171274,0,,,0.89,0,961,108,14,Off,True,True,00000010000000000000000000001000,000000000000000000,,,,,"4,111",,"1,063",4,"1,225","7,298",,,,,0,36,566,"9,197",9,,,,,
04/27/2019 08:14,04/27/2019 18:28,Sensor Value Elapsed Time,39.4512630,-92.4171274,0,,,0.89,0,961,108,14,Off,True,True,00000010000000000000000000001000,000000000000000000,,,,,"4,111",,"1,063",4,"1,259","7,251",,,,,0,36,567,"9,200",9,,,,,
04/27/2019 08:16,04/27/2019 18:28,Heartbeat Status,39.4513232,-92.4172150,0,,,0.67,0,810,82,13,Off,True,True,00000010000000000000000000001000,000000000000000000,,,,,"4,107",,"1,187",4,"1,315","7,178",,,,,0,37,567,"9,200",9,,,,,
04/27/2019 08:18,04/27/2019 18:28,Sensor Value Elapsed Time,39.4513232,-92.4172150,0,,,0.67,0,810,82,13,Off,True,True,00000010000000000000000000001000,000000000000000000,,,,,"4,107",,"1,187",4,"1,371","7,115",,,,,0,37,568,"9,203",9,,,,,
04/27/2019 08:19,04/27/2019 18:28,Heartbeat Status,39.4512974,-92.4173094,0,,,0.45,0,889,89,16,Off,True,True,00000010000000000000000000001000,000000000000000000,,,,,"4,105",,"1,274",4,"1,398","7,088",,,,,0,38,568,"9,203",9,,,,,
04/27/2019 08:22,04/27/2019 18:28,Sensor Value Elapsed Time,39.4512974,-92.4173094,0,,,0.45,0,889,89,16,Off,True,True,00000010000000000000000000001000,000000000000000000,,,,,"4,105",,"1,274",4,"1,476","7,016",,,,,0,38,569,"9,206",9,,,,,
04/27/2019 08:29,04/27/2019 18:28,Heartbeat Status,39.4513018,-92.4173177,0,,,0.67,0,883,95,13,Off,True,True,00000010000000000000000000001000,000000000000000000,,,,,"4,109",,"1,402",4,"1,562","6,937",,,,,0,39,569,"9,206",9,,,,,
04/27/2019 08:30,04/27/2019 18:28,Sensor Value Elapsed Time,39.4513018,-92.4173177,0,,,0.67,0,883,95,13,Off,True,True,00000010000000000000000000001000,000000000000000000,,,,,"4,109",,"1,402",4,"1,584","6,926",,,,,0,39,570,"9,209",9,,,,,
04/27/2019 08:40,04/27/2019 18:28,Sensor Value Elapsed Time,39.4513018,-92.4173177,0,,,0.67,0,883,95,13,Off,True,True,00000010000000000000000000001000,000000000000000000,,,,,"4,108",,"1,514",4,"1,691","6,806",,,,,0,40,570,"9,209",9,,,,,
04/27/2019 08:48,04/27/2019 18:28,Heartbeat Status,39.4513228,-92.4174488,0,,,0.45,0,994,85,15,Off,True,True,00000010000000000000000000001000,000000000000000000,,,,,"4,108",,"1,572",4,"1,742","6,726",,,,,0,40,570,"9,209",9,,,,,
04/27/2019 08:52,04/27/2019 18:28,Sensor Value Elapsed Time,39.4513228,-92.4174488,0,,,0.45,0,994,85,15,Off,True,True,00000010000000000000000000001000,000000000000000000,,,,,"4,104",,"1,641",4,"1,798","6,647",,,,,0,41,571,"9,212",9,,,,,
04/27/2019 09:17,04/27/2019 18:28,Heartbeat Status,39.4510112,-92.4170204,0,,,1.57,264,"1,027",89,14,Off,True,True,00000010000000000000000000001000,000000000000000000,,,,,"4,107",,"1,639",4,"1,802","6,459",,,,,0,41,571,"9,212",9,,,,,
04/27/2019 09:57,04/27/2019 18:28,Heartbeat Status,39.4513507,-92.4174520,0,,,1.34,0,801,135,12,Off,True,True,00000010000000000000000000001000,000000000000000000,,,,,"4,110",,"1,595",4,"1,776","6,342",,,,,0,42,572,"9,215",9,,,,,
04/27/2019 10:51,04/27/2019 18:28,Heartbeat Status,39.4512463,-92.4172832,1,,,1.79,300,876,135,23,Off,True,True,00000010000000000000000000001000,000000000000000000,,,,,"4,108",,"1,553",4,"1,735","6,289",,,,,0,43,583,"9,286",9,,,,,
04/27/2019 11:29,04/27/2019 18:28,Sensor Value Elapsed Time,39.4512486,-92.4171664,0,,,1.12,0,869,128,13,Off,True,True,00000010000000000000000000001000,000000000000000000,,,,,"4,107",,"1,717",4,"1,904","6,501",,,,,0,44,595,"9,338",9,,,,,
04/27/2019 11:40,04/27/2019 18:28,Sensor Value Elapsed Time,39.4512486,-92.4171664,0,,,1.12,0,869,128,13,Off,True,True,00000010000000000000000000001000,000000000000000000,,,,,"4,108",,"1,818",4,"2,024","6,642",,,,,0,44,595,"9,338",9,,,,,
04/27/2019 11:47,04/27/2019 18:28,Sensor Value Elapsed Time,39.4513417,-92.4173480,0,,,1.57,0,886,151,16,Off,True,True,00000010000000000000000000001000,000000000000000000,,,,,"4,104",,"1,957",4,"2,131","6,472",,,,,0,44,604,"9,356",9,,,,,
04/27/2019 11:59,04/27/2019 18:28,Sensor Value Elapsed Time,39.4512442,-92.4173743,0,,,1.34,0,909,135,20,Off,True,True,00000010000000000000000000001000,000000000000000000,,,,,"4,098",,"2,092",4,"2,238","6,290",,,,,0,44,607,"9,364",9,,,,,
04/27/2019 12:00,04/27/2019 18:28,Heartbeat Status,39.4513181,-92.4173959,0,,,1.57,0,971,121,14,Off,True,True,00000010000000000000000000001000,000000000000000000,,,,,"4,100",,"2,091",4,"2,238","6,290",,,,,0,44,607,"9,364",9,,,,,
04/27/2019 12:07,04/27/2019 18:28,Sensor Value Elapsed Time,39.4513375,-92.4172357,0,,,0.89,0,"1,017",115,15,Off,True,True,00000010000000000000000000001000,000000000000000000,,,,,"4,097",,"2,187",4,"2,342","6,266",,,,,0,45,609,"9,369",9,,,,,
04/27/2019 12:17,04/27/2019 18:28,Sensor Value Elapsed Time,39.4513590,-92.4172915,0,,,2.68,0,"1,014",151,14,Off,True,True,00000010000000000000000000001000,000000000000000000,,,,,"4,099",,"2,274",4,"2,442","6,172",,,,,0,45,611,"9,375",9,,,,,
04/27/2019 12:28,04/27/2019 18:28,Sensor Value Elapsed Time,39.4512184,-92.4173364,0,,,2.01,150,787,115,14,Off,True,True,00000010000000000000000000001000,000000000000000000,,,,,"4,093",,"2,425",4,"2,548","6,105",,,,,0,45,613,"9,383",9,,,,,
04/27/2019 12:37,04/27/2019 18:28,Sensor Value Elapsed Time,39.4510532,-92.4170360,0,,,1.79,0,745,161,23,Off,True,True,00000010000000000000000000001000,000000000000000000,,,,,"4,099",,"2,463",4,"2,653","5,980",,,,,0,45,621,"9,399",9,,,,,
04/27/2019 12:50,04/27/2019 18:28,Sensor Value Elapsed Time,39.4511545,-92.4178268,4,,,2.68,318,928,154,18,Off,True,True,00000010000000000000000000001000,000000000000000000,,,,,"4,095",,"2,599",4,"2,756","5,683",,,,,0,45,625,"9,411",9,,,,,
04/27/2019 12:52,04/27/2019 18:28,Start Of Trip,39.4511545,-92.4178268,4,,,2.68,318,928,154,18,On,True,True,00000011000000000000000000001001,000000000000000000,,,,,"4,092",,"2,640",4,"2,774","5,649",,,,,0,45,625,"9,411",10,,,,,
04/27/2019 12:54,04/27/2019 18:28,Distance Travelled,39.4487038,-92.4219474,0,,,0.45,0,866,36,12,On,True,True,00000011000000000000000000001001,000000000000000000,,,,,"4,092",,"2,640",4,"2,774","5,649",,,,,0,45,625,"9,411",10,,,,,
04/27/2019 12:57,04/27/2019 18:28,Elapsed Time,39.4475913,-92.4231696,0,,,0.67,0,860,121,13,On,True,True,00000011000000000000000000001001,000000000000000000,,,,,"4,086",,"2,752",4,"2,842","5,606",,,,,0,46,626,"9,418",10,,,,,
04/27/2019 12:58,04/27/2019 18:28,Sensor Value Elapsed Time,39.4475808,-92.4231828,0,,,0.22,0,869,10,11,On,True,True,00000011000000000000000000001001,000000000000000000,,,,,"4,087",,"2,738",4,"2,879","5,442",,,,,0,46,627,"9,457",10,,,,,
04/27/2019 12:59,04/27/2019 18:28,End Of Trip,39.4476220,-92.4231483,0,,,0.45,0,784,105,13,Off,True,True,00000010000000000000000000001000,000000000000000000,,,,,"4,091",,"2,717",4,"2,859","5,454",,,,,0,46,627,"9,457",10,,,,,
04/27/2019 13:07,04/27/2019 18:28,Start Of Trip,39.4476220,-92.4231483,0,,,0.45,0,784,105,13,On,True,True,00000011000000000000000000001001,000000000000000000,,,,,"4,091",,"2,702",4,"2,876","5,308",,,,,0,47,630,"9,466",11,,,,,
04/27/2019 13:08,04/27/2019 18:28,Distance Travelled,39.4464345,-92.4221154,19,,,0.22,126,863,33,11,On,True,True,00000011000000000000000000001001,000000000000000000,,,,,"4,091",,"2,702",4,"2,876","5,308",,,,,0,47,630,"9,466",11,,,,,
04/27/2019 13:11,04/27/2019 18:28,Elapsed Time,39.4421446,-92.4272406,1,,,1.57,316,945,151,17,On,True,True,00000011000000000000000000001001,000000000000000000,,,,,"4,081",,"2,830",4,"2,900","5,343",,,,,0,48,631,"9,472",11,,,,,
04/27/2019 13:13,04/27/2019 18:28,Elapsed Time,39.4421191,-92.4273994,0,,,0.67,0,846,151,19,On,True,True,00000011000000000000000000001001,000000000000000000,,,,,"4,082",,"2,820",4,"2,912","5,313",,,,,0,48,632,"9,475",11,,,,,
04/27/2019 13:15,04/27/2019 18:28,Elapsed Time,39.4421723,-92.4273392,0,,,1.34,0,912,135,18,On,True,True,00000011000000000000000000001001,000000000000000000,,,,,"4,083",,"2,814",4,"2,911","5,232",,,,,0,48,633,"9,478",11,,,,,
04/27/2019 13:17,04/27/2019 18:28,End Of Trip,39.4423281,-92.4274362,0,,,1.12,0,794,108,15,Off,True,True,00000010000000000000000000001000,000000000000000000,,,,,"4,084",,"2,816",4,"2,909","5,210",,,,,0,48,634,"9,481",11,,,,,
04/27/2019 13:26,04/27/2019 18:28,Heartbeat Status,39.4415559,-92.4273076,0,,,0.45,0,948,82,15,Off,True,True,00000010000000000000000000001000,000000000000000000,,,,,"4,087",,"2,795",4,"2,938","5,071",,,,,0,49,641,"9,501",11,,,,,
04/27/2019 13:31,04/27/2019 18:28,Sensor Value Elapsed Time,39.4416367,-92.4273600,1,,,1.57,0,935,118,15,Off,True,True,00000010000000000000000000001000,000000000000000000,,,,,"4,082",,"2,864",4,"2,981","5,100",,,,,0,50,643,"9,505",11,,,,,
04/27/2019 13:42,04/27/2019 18:28,Sensor Value Elapsed Time,39.4416779,-92.4273068,1,,,0.89,356,866,112,12,Off,True,True,00000010000000000000000000001000,000000000000000000,,,,,"4,082",,"2,977",4,"3,086","5,085",,,,,0,50,650,"9,519",11,,,,,
04/27/2019 13:51,04/27/2019 18:28,Sensor Value Elapsed Time,39.4416779,-92.4273068,1,,,0.89,356,866,112,12,Off,True,True,00000010000000000000000000001000,000000000000000000,,,,,"4,084",,"3,069",4,"3,191","4,938",,,,,0,50,650,"9,519",11,,,,,
04/27/2019 14:02,04/27/2019 18:28,Sensor Value Elapsed Time,39.4416395,-92.4272845,0,,,0.89,0,961,108,14,Off,True,True,00000010000000000000000000001000,000000000000000000,,,,,"4,083",,"3,171",4,"3,296","4,754",,,,,0,50,651,"9,522",11,,,,,
04/27/2019 15:11,04/27/2019 18:28,Heartbeat Status,39.4416852,-92.4273293,0,,,0.89,0,801,144,15,Off,True,True,00000010000000000000000000001000,000000000000000000,,,,,"4,081",,"3,257",4,"3,372","3,850",,,,,0,50,671,"9,600",11,,,,,
04/27/2019 15:13,04/27/2019 18:28,Sensor Value Elapsed Time,39.4416852,-92.4273293,0,,,0.89,0,801,144,15,Off,True,True,00000010000000000000000000001000,000000000000000000,,,,,"4,081",,"3,257",4,"3,396","3,843",,,,,0,50,672,"9,602",11,,,,,
04/27/2019 15:38,04/27/2019 18:28,Sensor Value Elapsed Time,39.4417095,-92.4272844,0,,,0.89,152,873,112,14,Off,True,True,00000010000000000000000000001000,000000000000000000,,,,,"4,081",,"3,160",4,"3,289","3,563",,,,,0,51,692,"9,679",11,,,,,
04/27/2019 15:45,04/27/2019 18:28,Sensor Value Elapsed Time,39.4418116,-92.4272663,1,,,1.57,152,883,118,14,Off,True,True,00000010000000000000000000001000,000000000000000000,,,,,"4,079",,"3,075",4,"3,181","3,521",,,,,0,51,698,"9,693",11,,,,,
04/27/2019 15:54,04/27/2019 18:28,Sensor Value Elapsed Time,39.4417097,-92.4273058,0,,,0.89,332,883,98,15,Off,True,True,00000010000000000000000000001000,000000000000000000,,,,,"4,081",,"2,970",4,"3,081","3,624",,,,,0,51,707,"9,704",11,,,,,
04/27/2019 16:07,04/27/2019 18:28,Sensor Value Elapsed Time,39.4417551,-92.4274002,0,,,1.12,304,823,115,12,Off,True,True,00000010000000000000000000001000,000000000000000000,,,,,"4,083",,"2,865",4,"2,977","3,649",,,,,0,51,714,"9,719",11,,,,,
04/27/2019 16:26,04/27/2019 18:28,Sensor Value Elapsed Time,39.4416927,-92.4273146,0,,,0.89,0,906,102,18,Off,True,True,00000010000000000000000000001000,000000000000000000,,,,,"4,082",,"2,763",4,"2,872","3,766",,,,,0,51,719,"9,728",11,,,,,
04/27/2019 16:50,04/27/2019 18:28,Sensor Value Elapsed Time,39.4417335,-92.4273382,0,,,0.89,0,886,95,12,Off,True,True,00000010000000000000000000001000,000000000000000000,,,,,"4,088",,"2,622",4,"2,768","3,820",,,,,0,51,730,"9,755",11,,,,,
04/27/2019 17:17,04/27/2019 18:28,Heartbeat Status,39.4423279,-92.4266409,0,,,0.45,140,833,69,11,Off,True,True,00000010000000000000000000001000,000000000000000000,,,,,"4,086",,"2,555",4,"2,677","3,868",,,,,0,51,739,"9,778",11,,,,,
04/27/2019 17:20,04/27/2019 18:28,Sensor Value Elapsed Time,39.4423279,-92.4266409,0,,,0.45,140,833,69,11,Off,True,True,00000010000000000000000000001000,000000000000000000,,,,,"4,087",,"2,530",4,"2,668","3,894",,,,,0,52,740,"9,780",11,,,,,
04/27/2019 17:20,04/27/2019 18:28,Start Of Trip,39.4423279,-92.4266409,0,,,0.45,140,833,69,11,On,True,True,00000011000000000000000000001001,000000000000000000,,,,,"4,089",,"2,472",4,"2,624","4,054",,,,,0,52,741,"9,783",12,,,,,
04/27/2019 17:27,04/27/2019 18:28,Distance Travelled,39.4300325,-92.4592239,42,,,0.45,238,758,75,12,On,True,True,00000011000000000000000000001001,000000000000000000,,,,,"4,089",,"2,472",4,"2,624","4,054",,,,,0,52,741,"9,783",12,,,,,
04/27/2019 17:31,04/27/2019 18:28,Elapsed Time,39.4211055,-92.5248369,63,,,0.45,276,659,98,14,On,True,True,00000011000000000000000000001001,000000000000000000,,,,,"4,084",,"2,565",4,"2,670","4,136",,,,,0,53,742,"9,822",12,,,,,
04/27/2019 17:33,04/27/2019 18:28,Elapsed Time,39.4263208,-92.5649457,65,,,0.67,272,659,102,15,On,True,True,00000011000000000000000000001001,000000000000000000,,,,,"4,085",,"2,555",4,"2,677","4,172",,,,,0,53,743,"9,826",12,,,,,
04/27/2019 17:35,04/27/2019 18:28,Elapsed Time,39.4242770,-92.6048642,29,,,0.45,272,607,95,13,On,True,True,00000011000000000000000000001001,000000000000000000,,,,,"4,088",,"2,531",4,"2,689","4,200",,,,,0,53,744,"9,829",12,,,,,
04/27/2019 17:37,04/27/2019 18:28,Elapsed Time,39.4002645,-92.6080984,60,,,0.22,202,722,75,11,On,True,True,00000011000000000000000000001001,000000000000000000,,,,,"4,086",,"2,591",4,"2,704","4,209",,,,,0,53,745,"9,832",12,,,,,
04/27/2019 17:39,04/27/2019 18:28,Elapsed Time,39.3774760,-92.6342514,54,,,0.67,234,699,89,12,On,True,True,00000011000000000000000000001001,000000000000000000,,,,,"4,082",,"2,628",4,"2,717","4,192",,,,,0,53,746,"9,835",12,,,,,
04/27/2019 17:41,04/27/2019 18:28,Elapsed Time,39.3541022,-92.6589324,65,,,0.45,206,650,108,14,On,True,True,00000011000000000000000000001001,000000000000000000,,,,,"4,086",,"2,602",4,"2,729","4,164",,,,,0,53,747,"9,838",12,,,,,
04/27/2019 17:43,04/27/2019 18:28,Elapsed Time,39.3267838,-92.6762790,62,,,0.45,226,801,125,19,On,True,True,00000011000000000000000000001001,000000000000000000,,,,,"4,082",,"2,629",4,"2,741","4,131",,,,,0,53,748,"9,839",12,,,,,
04/27/2019 17:43,04/27/2019 18:28,Sensor Value Elapsed Time,39.3212695,-92.6840700,65,,,0.22,226,787,13,12,On,True,True,00000011000000000000000000001001,000000000000000000,,,,,"4,082",,"2,629",4,"2,774","4,088",,,,,0,53,749,"9,841",12,,,,,
04/27/2019 17:45,04/27/2019 18:28,Elapsed Time,39.2993501,-92.6896039,65,,,0.67,182,761,98,14,On,True,True,00000011000000000000000000001001,000000000000000000,,,,,"4,087",,"2,606",4,"2,759","4,077",,,,,0,53,749,"9,876",12,,,,,
04/27/2019 17:47,04/27/2019 18:28,Elapsed Time,39.2723462,-92.7011667,38,,,0.22,182,771,98,13,On,True,True,00000011000000000000000000001001,000000000000000000,,,,,"4,087",,"2,598",4,"2,763","4,043",,,,,0,53,750,"9,885",12,,,,,
04/27/2019 17:49,04/27/2019 18:28,Elapsed Time,39.2505988,-92.7011084,61,,,1.79,180,791,102,11,On,True,True,00000011000000000000000000001001,000000000000000000,,,,,"4,084",,"2,656",4,"2,767","4,006",,,,,0,53,751,"9,888",12,,,,,
04/27/2019 17:51,04/27/2019 18:28,Elapsed Time,39.2264291,-92.7106544,58,,,0.67,208,758,151,16,On,True,True,00000011000000000000000000001001,000000000000000000,,,,,"4,088",,"2,617",4,"2,770","3,963",,,,,0,53,752,"9,892",12,,,,,
04/27/2019 17:53,04/27/2019 18:28,Elapsed Time,39.2184266,-92.7320881,57,,,0.45,316,738,72,13,On,True,True,00000011000000000000000000001001,000000000000000000,,,,,"4,084",,"2,655",4,"2,770","3,923",,,,,0,53,753,"9,894",12,,,,,
04/27/2019 17:55,04/27/2019 18:28,Elapsed Time,39.2316574,-92.7632472,55,,,0.45,286,751,112,14,On,True,True,00000011000000000000000000001001,000000000000000000,,,,,"4,089",,"2,603",4,"2,770","3,882",,,,,0,53,754,"9,897",12,,,,,
04/27/2019 17:57,04/27/2019 18:28,Elapsed Time,39.2314667,-92.8012078,69,,,0.45,228,617,105,14,On,True,True,00000011000000000000000000001001,000000000000000000,,,,,"4,084",,"2,641",4,"2,766","3,850",,,,,0,53,755,"9,899",12,,,,,
04/27/2019 18:01,04/27/2019 18:28,Elapsed Time,39.2211792,-92.8446020,31,,,0.45,322,584,102,14,On,True,True,00000011000000000000000000001001,000000000000000000,,,,,"4,082",,"2,672",4,"2,794","3,794",,,,,0,54,756,"9,902",12,,,,,
04/27/2019 18:03,04/27/2019 18:28,Elapsed Time,39.2163356,-92.8723010,52,,,0.67,268,453,125,15,On,True,True,00000011000000000000000000001001,000000000000000000,,,,,"4,081",,"2,694",4,"2,790","3,739",,,,,0,54,757,"9,906",12,,,,,
04/27/2019 18:05,04/27/2019 18:28,Elapsed Time,39.2200533,-92.9098662,60,,,0.67,290,610,125,13,On,True,True,00000011000000000000000000001001,000000000000000000,,,,,"4,083",,"2,670",4,"2,787","3,707",,,,,0,54,758,"9,945",12,,,,,
04/27/2019 18:07,04/27/2019 18:28,Elapsed Time,39.2250871,-92.9465113,60,,,0.45,260,686,92,12,On,True,True,00000011000000000000000000001001,000000000000000000,,,,,"4,083",,"2,648",4,"2,773","3,675",,,,,0,54,759,"9,947",12,,,,,
04/27/2019 18:09,04/27/2019 18:28,Elapsed Time,39.2290145,-92.9833567,58,,,0.45,272,761,56,13,On,True,True,00000011000000000000000000001001,000000000000000000,,,,,"4,083",,"2,635",4,"2,759","3,649",,,,,0,54,760,"9,948",12,,,,,
04/27/2019 18:11,04/27/2019 18:28,Elapsed Time,39.2299512,-93.0195438,63,,,0.45,270,784,85,12,On,True,True,00000011000000000000000000001001,000000000000000000,,,,,"4,083",,"2,595",4,"2,739","3,617",,,,,0,54,761,"9,952",12,,,,,
04/27/2019 18:13,04/27/2019 18:28,Elapsed Time,39.2157698,-93.0496578,53,,,0.67,274,843,131,15,On,True,True,00000011000000000000000000001001,000000000000000000,,,,,"4,086",,"2,585",4,"2,722","3,597",,,,,0,54,762,"9,955",12,,,,,
04/27/2019 18:15,04/27/2019 18:28,Elapsed Time,39.2039403,-93.0678516,63,,,0.67,182,804,128,15,On,True,True,00000011000000000000000000001001,000000000000000000,,,,,"4,085",,"2,560",4,"2,700","3,572",,,,,0,54,763,"9,957",12,,,,,
04/27/2019 18:17,04/27/2019 18:28,Elapsed Time,39.1741250,-93.0737215,57,,,0.45,182,725,82,12,On,True,True,00000011000000000000000000001001,000000000000000000,,,,,"4,087",,"2,505",4,"2,678","3,560",,,,,0,54,764,"9,961",12,,,,,
04/27/2019 18:18,04/27/2019 18:28,Sensor Value Elapsed Time,39.1741250,-93.0737215,57,,,0.45,182,725,82,12,On,True,True,00000011000000000000000000001001,000000000000000000,,,,,"4,089",,"2,506",4,"2,664","3,549",,,,,0,54,765,"9,964",12,,,,,
04/27/2019 18:19,04/27/2019 18:28,Elapsed Time,39.1450803,-93.0842660,63,,,0.45,182,784,85,13,On,True,True,00000011000000000000000000001001,000000000000000000,,,,,"4,083",,"2,538",4,"2,653","3,543",,,,,0,54,765,"9,964",12,,,,,
04/27/2019 18:21,04/27/2019 18:28,Elapsed Time,39.1293329,-93.1075162,57,,,0.45,272,722,144,14,On,True,True,00000011000000000000000000001001,000000000000000000,,,,,"4,084",,"2,513",4,"2,627","3,526",,,,,0,54,766,"9,966",12,,,,,
04/27/2019 18:23,04/27/2019 18:28,Elapsed Time,39.1287031,-93.1415093,60,,,0.45,276,696,102,12,On,True,True,00000011000000000000000000001001,000000000000000000,,,,,"4,087",,"2,475",4,"2,602","3,511",,,,,0,54,767,"9,968",12,,,,,
04/27/2019 18:25,04/27/2019 18:28,Elapsed Time,39.1343916,-93.1773101,48,,,0.22,292,748,89,12,On,True,True,00000011000000000000000000001001,000000000000000000,,,,,"4,087",,"2,445",4,"2,574","3,502",,,,,0,54,768,"9,969",12,,,,,
04/27/2019 18:26,04/27/2019 18:28,Sensor Value Elapsed Time,39.1343916,-93.1773101,48,,,0.22,292,748,89,12,On,True,True,00000011000000000000000000001001,000000000000000000,,,,,"4,087",,"2,445",4,"2,559","3,497",,,,,0,54,769,"9,970",12,,,,,
04/27/2019 18:27,04/27/2019 18:28,Elapsed Time,39.1277597,-93.1952080,34,,,0.45,218,735,98,15,On,True,True,00000011000000000000000000001001,000000000000000000,,,,,"4,087",,"2,417",4,"2,544","3,494",,,,,0,54,769,"9,970",12,,,,,
04/27/2019 18:29,04/27/2019 18:36,Elapsed Time,39.1240610,-93.1995136,0,,,1.12,0,764,105,13,On,True,True,00000011000000000000000000001001,000000000000000000,,,,,"4,085",,"2,419",18,"2,546","3,497",,,,,0,54,770,"9,973",12,,,,,
04/27/2019 18:31,04/27/2019 18:36,Elapsed Time,39.1223748,-93.1994087,0,,,0.45,0,768,66,12,On,True,True,00000011000000000000000000001001,000000000000000000,,,,,"4,086",,"2,377",18,"2,505","3,501",,,,,0,54,771,"9,976",12,,,,,
04/27/2019 18:33,04/27/2019 18:36,Elapsed Time,39.1223510,-93.2000891,0,,,0.45,0,755,79,14,On,True,True,00000011000000000000000000001001,000000000000000000,,,,,"4,090",,"2,310",18,"2,477","3,520",,,,,0,54,772,"9,979",12,,,,,
04/27/2019 18:35,04/27/2019 18:36,Sensor Value Elapsed Time,39.1223510,-93.2000891,0,,,0.45,0,755,79,14,On,True,True,00000011000000000000000000001001,000000000000000000,,,,,"4,086",,"2,322",18,"2,449","3,538",,,,,0,54,773,"9,981",12,,,,,
04/27/2019 18:36,04/27/2019 18:36,End Of Trip,39.1222769,-93.2000351,0,,,0.67,14,791,102,16,Off,True,True,00000010000000000000000000001000,000000000000000000,,,,,"4,088",,"2,303",18,"2,449","3,538",,,,,0,54,773,"9,981",12,,,,,
04/27/2019 18:45,04/27/2019 20:15,Sensor Value Elapsed Time,39.1221512,-93.1992453,0,,,0.22,0,817,98,15,Off,True,True,00000010000000000000000000001000,000000000000000000,,,,,"4,089",,"2,201",17,"2,347","3,671",,,,,0,54,787,"10,008",12,,,,,
04/27/2019 20:11,04/27/2019 20:15,Start Of Trip,39.1221512,-93.1992453,0,,,0.22,0,817,98,15,On,True,True,00000011000000000000000000001001,000000000000000000,,,,,"4,088",,"2,119",17,"2,255","4,084",,,,,0,54,823,"10,125",13,,,,,
04/27/2019 20:15,04/27/2019 20:15,Distance Travelled,39.1196992,-93.2135667,0,,,0.45,334,758,46,13,On,True,True,00000011000000000000000000001001,000000000000000000,,,,,"4,088",,"2,119",17,"2,255","4,084",,,,,0,54,823,"10,125",13,,,,,
04/27/2019 20:17,04/27/2019 20:24,Elapsed Time,39.1111327,-93.2140303,4,,,0.89,220,748,98,18,On,True,True,00000011000000000000000000001001,000000000000000000,,,,,"4,091",,"2,100",22,"2,264","4,075",,,,,0,54,824,"10,133",13,,,,,
04/27/2019 20:19,04/27/2019 20:24,Elapsed Time,39.1103117,-93.2136005,6,,,0.22,66,705,72,14,On,True,True,00000011000000000000000000001001,000000000000000000,,,,,"4,089",,"2,103",22,"2,260","4,044",,,,,0,54,825,"10,136",13,,,,,
04/27/2019 20:21,04/27/2019 20:24,Sensor Value Elapsed Time,39.1103117,-93.2136005,6,,,0.22,66,705,72,14,On,True,True,00000011000000000000000000001001,000000000000000000,,,,,"4,090",,"2,092",22,"2,242","4,000",,,,,0,54,826,"10,140",13,,,,,
04/27/2019 20:21,04/27/2019 20:24,Elapsed Time,39.1110584,-93.2139773,1,,,0.45,0,764,82,14,On,True,True,00000011000000000000000000001001,000000000000000000,,,,,"4,089",,"2,096",22,"2,242","4,000",,,,,0,54,826,"10,140",13,,,,,
04/27/2019 20:23,04/27/2019 20:24,End Of Trip,39.1110198,-93.2140119,0,,,0.45,0,758,59,19,Off,True,True,00000010000000000000000000001000,000000000000000000,,,,,"4,089",,"2,083",22,"2,232","4,023",,,,,0,54,827,"10,142",13,,,,,
04/27/2019 20:35,04/27/2019 20:45,Start Of Trip,39.1110198,-93.2140119,0,,,0.45,0,758,59,19,On,True,True,00000011000000000000000000001001,000000000000000000,,,,,"4,092",,"2,004",16,"2,170","4,019",,,,,0,54,838,"10,172",14,,,,,
04/27/2019 20:45,04/27/2019 20:45,Distance Travelled,39.0858048,-93.2036490,58,,,0.22,136,768,33,11,On,True,True,00000011000000000000000000001001,000000000000000000,,,,,"4,092",,"2,004",16,"2,170","4,019",,,,,0,54,838,"10,172",14,,,,,
04/27/2019 20:47,04/27/2019 21:15,Elapsed Time,39.0589028,-93.1953666,60,,,0.67,170,755,135,16,On,True,True,00000011000000000000000000001001,000000000000000000,,,,,"4,090",,"2,017",15,"2,177","4,019",,,,,0,54,839,"10,179",14,,,,,
04/27/2019 20:49,04/27/2019 21:15,Elapsed Time,39.0284136,-93.1956370,63,,,0.45,180,738,72,14,On,True,True,00000011000000000000000000001001,000000000000000000,,,,,"4,092",,"2,010",15,"2,170","4,022",,,,,0,54,840,"10,182",14,,,,,
04/27/2019 20:51,04/27/2019 21:15,Elapsed Time,38.9964434,-93.1965973,66,,,1.79,180,610,82,14,On,True,True,00000011000000000000000000001001,000000000000000000,,,,,"4,093",,"1,986",15,"2,164","4,027",,,,,0,54,841,"10,185",14,,,,,
04/27/2019 20:53,04/27/2019 21:15,Elapsed Time,38.9681315,-93.2070370,52,,,0.45,182,755,102,17,On,True,True,00000011000000000000000000001001,000000000000000000,,,,,"4,095",,"1,972",15,"2,159","4,032",,,,,0,54,842,"10,188",14,,,,,
04/27/2019 20:55,04/27/2019 21:15,Elapsed Time,38.9599397,-93.1916056,67,,,0.22,94,751,56,12,On,True,True,00000011000000000000000000001001,000000000000000000,,,,,"4,092",,"1,985",15,"2,154","4,036",,,,,0,54,843,"10,190",14,,,,,
04/27/2019 20:57,04/27/2019 21:15,Elapsed Time,38.9570146,-93.1483544,73,,,0.22,94,735,56,12,On,True,True,00000011000000000000000000001001,000000000000000000,,,,,"4,090",,"1,998",15,"2,145","4,039",,,,,0,54,844,"10,193",14,,,,,
04/27/2019 20:59,04/27/2019 21:15,Sensor Value Elapsed Time,38.9570146,-93.1483544,73,,,0.22,94,735,56,12,On,True,True,00000011000000000000000000001001,000000000000000000,,,,,"4,090",,"2,016",15,"2,141","4,046",,,,,0,54,845,"10,196",14,,,,,
04/27/2019 20:59,04/27/2019 21:15,Elapsed Time,38.9540190,-93.1028235,71,,,0.22,94,784,52,13,On,True,True,00000011000000000000000000001001,000000000000000000,,,,,"4,092",,"1,980",15,"2,141","4,046",,,,,0,54,845,"10,196",14,,,,,
04/27/2019 21:01,04/27/2019 21:15,Elapsed Time,38.9509673,-93.0574189,71,,,0.45,94,696,154,19,On,True,True,00000011000000000000000000001001,000000000000000000,,,,,"4,095",,"1,937",15,"2,139","4,055",,,,,0,54,846,"10,199",14,,,,,
04/27/2019 21:04,04/27/2019 21:15,Elapsed Time,38.9477961,-93.0119695,71,,,0.22,94,755,59,20,On,True,True,00000011000000000000000000001001,000000000000000000,,,,,"4,093",,"1,967",15,"2,131","4,061",,,,,0,54,847,"10,201",14,,,,,
04/27/2019 21:06,04/27/2019 21:15,Elapsed Time,38.9332222,-92.9726676,69,,,1.57,90,699,131,17,On,True,True,00000011000000000000000000001001,000000000000000000,,,,,"4,094",,"1,948",15,"2,127","4,073",,,,,0,54,848,"10,204",14,,,,,
04/27/2019 21:08,04/27/2019 21:15,Elapsed Time,38.9341182,-92.9275915,72,,,0.45,88,636,138,19,On,True,True,00000011000000000000000000001001,000000000000000000,,,,,"4,095",,"1,926",15,"2,123","4,085",,,,,0,54,849,"10,206",14,,,,,
04/27/2019 21:10,04/27/2019 21:15,Elapsed Time,38.9350541,-92.8824949,71,,,0.22,88,627,72,12,On,True,True,00000011000000000000000000001001,000000000000000000,,,,,"4,093",,"1,944",15,"2,129","4,082",,,,,0,54,850,"10,240",14,,,,,
04/27/2019 21:12,04/27/2019 21:15,Elapsed Time,38.9350982,-92.8378429,71,,,0.22,90,689,89,11,On,True,True,00000011000000000000000000001001,000000000000000000,,,,,"4,094",,"1,949",15,"2,122","4,102",,,,,0,54,851,"10,242",14,,,,,
04/27/2019 21:14,04/27/2019 21:15,Elapsed Time,38.9352596,-92.7923460,71,,,0.22,88,682,79,13,On,True,True,00000011000000000000000000001001,000000000000000000,,,,,"4,094",,"1,930",15,"2,120","4,113",,,,,0,54,852,"10,244",14,,,,,
04/27/2019 21:16,04/27/2019 21:29,Elapsed Time,38.9351702,-92.7792611,0,,,0.89,0,787,95,11,On,True,True,00000011000000000000000000001001,000000000000000000,,,,,"4,090",,"1,992",22,"2,116","4,123",,,,,31,54,853,"10,246",14,,,,,
04/27/2019 21:18,04/27/2019 21:29,Elapsed Time,38.9351167,-92.7792854,0,,,0.67,308,745,85,13,On,True,True,00000011000000000000000000001001,000000000000000000,,,,,"4,093",,"1,932",22,"2,115","4,055",,,,,0,54,854,"10,248",14,,,,,
04/27/2019 21:20,04/27/2019 21:29,Elapsed Time,38.9351890,-92.7794378,0,,,0.45,0,728,72,13,On,True,True,00000011000000000000000000001001,000000000000000000,,,,,"4,094",,"1,896",22,"2,090","4,028",,,,,0,54,855,"10,250",14,,,,,
04/27/2019 21:22,04/27/2019 21:29,Elapsed Time,38.9383568,-92.7738508,28,,,0.45,36,843,118,13,On,True,True,00000011000000000000000000001001,000000000000000000,,,,,"4,098",,"1,856",22,"2,076","4,064",,,,,0,54,856,"10,252",14,,,,,
04/27/2019 21:24,04/27/2019 21:29,Elapsed Time,38.9396359,-92.7740307,1,,,1.79,60,807,108,16,On,True,True,00000011000000000000000000001001,000000000000000000,,,,,"4,093",,"1,900",22,"2,067","4,087",,,,,0,54,857,"10,254",14,,,,,
04/27/2019 21:26,04/27/2019 21:29,Elapsed Time,38.9397695,-92.7741046,0,,,0.67,0,863,115,15,On,True,True,00000011000000000000000000001001,000000000000000000,,,,,"4,092",,"1,898",22,"2,063","4,098",,,,,0,54,858,"10,257",14,,,,,
04/27/2019 21:28,04/27/2019 21:29,End Of Trip,38.9394987,-92.7739941,0,,,0.89,140,751,98,15,Off,True,True,00000010000000000000000000001000,000000000000000000,,,,,"4,095",,"1,881",22,"2,051","4,110",,,,,0,54,859,"10,259",14,,,,,
04/27/2019 21:37,04/28/2019 09:29,Sensor Value Elapsed Time,38.9396472,-92.7740051,0,,,1.57,0,804,118,14,Off,True,True,00000010000000000000000000001000,000000000000000000,,,,,"4,094",,"1,862",24,"2,040","4,123",,,,,0,54,862,"10,272",14,,,,,
04/27/2019 21:57,04/28/2019 09:29,Sensor Value Elapsed Time,38.9391528,-92.7735689,0,,,2.01,106,659,121,29,Off,True,True,00000010000000000000000000001000,000000000000000000,,,,,"4,093",,"1,761",24,"1,931","4,059",,,,,0,54,872,"10,307",14,,,,,
04/27/2019 22:05,04/28/2019 09:29,Sensor Value Elapsed Time,38.9391528,-92.7735689,0,,,2.01,106,659,121,29,Off,True,True,00000010000000000000000000001000,000000000000000000,,,,,"4,100",,"1,617",24,"1,826","4,122",,,,,0,54,872,"10,307",14,,,,,
04/27/2019 22:15,04/28/2019 09:29,Sensor Value Elapsed Time,38.9391528,-92.7735689,0,,,2.01,106,659,121,29,Off,True,True,00000010000000000000000000001000,000000000000000000,,,,,"4,100",,"1,523",24,"1,720","4,212",,,,,0,54,872,"10,307",14,,,,,
04/27/2019 22:28,04/28/2019 09:29,Sensor Value Elapsed Time,38.9391528,-92.7735689,0,,,2.01,106,659,121,29,Off,True,True,00000010000000000000000000001000,000000000000000000,,,,,"4,099",,"1,453",24,"1,618","4,315",,,,,0,54,872,"10,307",14,,,,,
04/27/2019 22:45,04/28/2019 09:29,Sensor Value Elapsed Time,38.9391528,-92.7735689,0,,,2.01,106,659,121,29,Off,True,True,00000010000000000000000000001000,000000000000000000,,,,,"4,105",,"1,304",24,"1,516","4,431",,,,,0,54,872,"10,307",14,,,,,
04/27/2019 23:12,04/28/2019 09:29,Sensor Value Elapsed Time,38.9391528,-92.7735689,0,,,2.01,106,659,121,29,Off,True,True,00000010000000000000000000001000,000000000000000000,,,,,"4,104",,"1,222",24,"1,416","4,589",,,,,0,54,872,"10,307",14,,,,,
04/27/2019 23:48,04/28/2019 09:29,Sensor Value Elapsed Time,38.9391528,-92.7735689,0,,,2.01,106,659,121,29,Off,True,True,00000010000000000000000000001000,000000000000000000,,,,,"4,100",,"1,166",24,"1,314","4,739",,,,,0,54,872,"10,307",14,,,,,
,,,,,,,,,,,,,,,,,,,,,,,,,,,,,,,,,,,,,,,,,