﻿,,,,,,,,,,,,,,,,,,,,,,,,,,,,,,,,,,,,,,,,,
Telemetry Data Report,,,,,,,,,,,,,,,,,,,,,,,,,,,,,,,,,,,,,,,,,
Telemetry Data for 154547 - 154547 - 04/29/2019 ,,,,,,,,,,,,,,,,,,,,,,,,,,,,,,,,,,,,,,,,,
Date Logged (ET (-05:00)),Date Received (ET (-05:00)),Log Reason,Latitude,Longitude,Speed MPH,Used Speed Limit (MPH),Speed Band,Speed Accuracy (MPH),Heading Degrees,Altitude (ft),Position Accuracy (ft),PDOP Raw,Ignition,Gps Status Fix OK,Gps Status Fix 3D,Digital Inputs,Digital Outputs,Driver Id Type,Driver Id Data,Trip Type Code,Project Code,Analog 1,Analog 2,Analog 3,Analog 4,Analog 5,Analog 6,Analog 7,Analog 8,Analog 9,Analog 10,Analog 11,Analog 12,Analog 13,Analog 14,Analog 15,Analog 16,Analog 17,Analog 18,Analog 19,Analog 20
04/29/2019 08:19,04/29/2019 09:31,Sensor Value Elapsed Time,38.9396340,-92.7740409,0,,,1.79,286,"1,083",161,20,Off,True,True,00000010000000000000000000001000,000000000000000000,,,,,"4,104",,"1,152",13,"1,340","6,199",,,,,0,54,888,"10,951",14,,,,,
04/29/2019 09:30,04/29/2019 09:31,Heartbeat Status,38.9395702,-92.7743473,0,,,1.79,0,840,154,21,Off,True,True,00000010000000000000000000001000,000000000000000000,,,,,"4,102",,"1,195",13,"1,414","6,481",,,,,0,54,888,"10,951",14,,,,,
04/29/2019 10:13,04/29/2019 16:05,Sensor Value Elapsed Time,38.9395702,-92.7743473,0,,,1.79,0,840,154,21,Off,True,True,00000010000000000000000000001000,000000000000000000,,,,,"4,099",,"1,270",12,"1,441","6,662",,,,,0,54,889,"10,993",14,,,,,
04/29/2019 11:20,04/29/2019 16:05,Sensor Value Elapsed Time,38.9395702,-92.7743473,0,,,1.79,0,840,154,21,Off,True,True,00000010000000000000000000001000,000000000000000000,,,,,"4,101",,"1,342",12,"1,546","6,878",,,,,0,54,889,"10,993",14,,,,,
04/29/2019 12:42,04/29/2019 16:05,Sensor Value Elapsed Time,38.9395702,-92.7743473,0,,,1.79,0,840,154,21,Off,True,True,00000010000000000000000000001000,000000000000000000,,,,,"4,100",,"1,444",12,"1,648","6,942",,,,,0,54,889,"10,993",14,,,,,
04/29/2019 15:30,04/29/2019 16:05,Sensor Value Elapsed Time,38.9395702,-92.7743473,0,,,1.79,0,840,154,21,Off,True,True,00000010000000000000000000001000,000000000000000000,,,,,"4,098",,"1,560",12,"1,750","7,000",,,,,0,54,889,"10,993",14,,,,,
04/29/2019 15:54,04/29/2019 16:05,Sensor Value Elapsed Time,38.9395702,-92.7743473,0,,,1.79,0,840,154,21,Off,True,True,00000010000000000000000000001000,000000000000000000,,,,,"4,090",,"1,686",12,"1,850","6,927",,,,,0,54,892,"11,173",14,,,,,
04/29/2019 16:03,04/29/2019 16:05,Start Of Trip,38.9395702,-92.7743473,0,,,1.79,0,840,154,21,On,True,True,00000011000000000000000000001001,000000000000000000,,,,,"4,093",,"1,717",12,"1,887","7,086",,,,,0,54,897,"11,227",15,,,,,
04/29/2019 16:05,04/29/2019 16:05,Distance Travelled,38.9433710,-92.7710556,34,,,0.45,8,840,52,14,On,True,True,00000011000000000000000000001001,000000000000000000,,,,,"4,093",,"1,717",12,"1,887","7,086",,,,,0,54,897,"11,227",15,,,,,
04/29/2019 16:07,04/29/2019 16:34,Elapsed Time,38.9468420,-92.7697396,1,,,1.34,0,794,141,17,On,True,True,00000011000000000000000000001001,000000000000000000,,,,,"4,089",,"1,790",26,"1,921","6,919",,,,,0,54,898,"11,234",15,,,,,
04/29/2019 16:09,04/29/2019 16:34,Elapsed Time,38.9530113,-92.7651872,0,,,0.89,0,728,92,18,On,True,True,00000011000000000000000000001001,000000000000000000,,,,,"4,088",,"1,821",26,"1,949","6,888",,,,,0,54,899,"11,236",15,,,,,
04/29/2019 16:09,04/29/2019 16:34,Sensor Value Elapsed Time,38.9530113,-92.7651872,0,,,0.89,0,728,92,18,On,True,True,00000011000000000000000000001001,000000000000000000,,,,,"4,090",,"1,806",26,"1,955","6,832",,,,,0,54,900,"11,238",15,,,,,
04/29/2019 16:11,04/29/2019 16:34,Elapsed Time,38.9529299,-92.7651855,0,,,1.34,0,791,148,16,On,True,True,00000011000000000000000000001001,000000000000000000,,,,,"4,092",,"1,809",26,"1,967","6,880",,,,,0,54,900,"11,238",15,,,,,
04/29/2019 16:13,04/29/2019 16:34,Elapsed Time,38.9605961,-92.7573413,37,,,0.67,36,666,148,14,On,True,True,00000011000000000000000000001001,000000000000000000,,,,,"4,089",,"1,849",26,"2,009","6,830",,,,,0,54,901,"11,275",15,,,,,
04/29/2019 16:15,04/29/2019 16:34,Elapsed Time,38.9679735,-92.7416734,6,,,0.45,76,673,92,15,On,True,True,00000011000000000000000000001001,000000000000000000,,,,,"4,089",,"1,868",26,"2,009","6,531",,,,,0,54,902,"11,277",15,,,,,
04/29/2019 16:17,04/29/2019 16:34,Elapsed Time,38.9730219,-92.7430625,18,,,0.67,346,673,115,17,On,True,True,00000011000000000000000000001001,000000000000000000,,,,,"4,092",,"1,848",26,"2,001","6,364",,,,,0,54,903,"11,279",15,,,,,
04/29/2019 16:19,04/29/2019 16:34,Elapsed Time,38.9766426,-92.7431549,12,,,0.45,76,679,92,21,On,True,True,00000011000000000000000000001001,000000000000000000,,,,,"4,091",,"1,839",26,"1,992","6,241",,,,,0,54,904,"11,282",15,,,,,
04/29/2019 16:21,04/29/2019 16:34,Elapsed Time,38.9778960,-92.7279286,29,,,1.79,86,591,151,19,On,True,True,00000011000000000000000000001001,000000000000000000,,,,,"4,093",,"1,789",26,"1,977","6,176",,,,,0,54,905,"11,285",15,,,,,
04/29/2019 16:23,04/29/2019 16:34,Elapsed Time,38.9780507,-92.7257151,0,,,0.89,0,643,92,15,On,True,True,00000011000000000000000000001001,000000000000000000,,,,,"4,090",,"1,818",26,"1,968","6,194",,,,,0,54,906,"11,287",15,,,,,
04/29/2019 16:25,04/29/2019 16:34,Elapsed Time,38.9776100,-92.7352321,32,,,1.34,270,623,151,21,On,True,True,00000011000000000000000000001001,000000000000000000,,,,,"4,091",,"1,834",26,"1,983","6,329",,,,,0,54,907,"11,289",15,,,,,
04/29/2019 16:27,04/29/2019 16:34,Elapsed Time,38.9764984,-92.7439429,0,,,0.89,0,679,92,15,On,True,True,00000011000000000000000000001001,000000000000000000,,,,,"4,088",,"1,873",26,"1,991","6,242",,,,,0,54,908,"11,292",15,,,,,
04/29/2019 16:29,04/29/2019 16:34,Elapsed Time,38.9755120,-92.7441104,1,,,1.12,104,735,95,18,On,True,True,00000011000000000000000000001001,000000000000000000,,,,,"4,090",,"1,829",26,"1,989","6,187",,,,,0,54,909,"11,294",15,,,,,
04/29/2019 16:31,04/29/2019 16:34,Elapsed Time,38.9756301,-92.7440253,0,,,1.57,0,673,148,18,On,True,True,00000011000000000000000000001001,000000000000000000,,,,,"4,088",,"1,850",26,"1,983","6,133",,,,,0,54,910,"11,298",15,,,,,
04/29/2019 16:33,04/29/2019 16:34,End Of Trip,38.9756237,-92.7440880,0,,,1.12,0,676,115,15,Off,True,True,00000010000000000000000000001000,000000000000000000,,,,,"4,089",,"1,862",26,"2,004","6,290",,,,,0,54,911,"11,301",15,,,,,
04/29/2019 16:37,04/30/2019 04:34,Sensor Value Elapsed Time,38.9756237,-92.7440880,0,,,1.12,0,676,115,15,Off,True,True,00000010000000000000000000001000,000000000000000000,,,,,"4,091",,"1,863",28,"2,055","6,345",,,,,0,54,912,"11,305",15,,,,,
04/29/2019 16:48,04/30/2019 04:34,Sensor Value Elapsed Time,38.9755968,-92.7439540,0,,,1.57,0,856,121,15,Off,True,True,00000010000000000000000000001000,000000000000000000,,,,,"4,088",,"2,022",28,"2,159","6,310",,,,,0,54,917,"11,355",15,,,,,
04/29/2019 18:33,04/30/2019 04:34,Sensor Value Elapsed Time,38.9755038,-92.7440069,1,,,2.91,166,659,141,17,Off,True,True,00000010000000000000000000001000,000000000000000000,,,,,"4,085",,"1,941",28,"2,058","5,651",,,,,0,54,956,"11,680",15,,,,,
04/29/2019 19:18,04/30/2019 04:34,Sensor Value Elapsed Time,38.9751764,-92.7439320,1,,,1.57,180,617,138,20,Off,True,True,00000010000000000000000000001000,000000000000000000,,,,,"4,092",,"1,757",28,"1,957","5,643",,,,,0,54,974,"11,821",15,,,,,
04/29/2019 20:13,04/30/2019 04:34,Sensor Value Elapsed Time,38.9755973,-92.7440233,0,,,2.01,0,659,141,21,Off,True,True,00000010000000000000000000001000,000000000000000000,,,,,"4,087",,"1,730",28,"1,856","5,660",,,,,0,54,990,"11,954",15,,,,,
04/29/2019 21:34,04/30/2019 04:34,Sensor Value Elapsed Time,38.9749830,-92.7438962,2,,,2.24,184,663,161,22,Off,True,True,00000010000000000000000000001000,000000000000000000,,,,,"4,091",,"1,595",28,"1,755","5,770",,,,,0,54,"1,009","12,086",15,,,,,
04/29/2019 22:26,04/30/2019 04:34,Sensor Value Elapsed Time,38.9749830,-92.7438962,2,,,2.24,184,663,161,22,Off,True,True,00000010000000000000000000001000,000000000000000000,,,,,"4,090",,"1,504",28,"1,655","5,890",,,,,0,54,"1,009","12,086",15,,,,,
,,,,,,,,,,,,,,,,,,,,,,,,,,,,,,,,,,,,,,,,,