﻿,,,,,,,,,,,,,,,,,,,,,,,,,,,,,,,,,,,,,,,,,
Telemetry Data Report,,,,,,,,,,,,,,,,,,,,,,,,,,,,,,,,,,,,,,,,,
Telemetry Data for 154547 - 154547 - 04/28/2019 ,,,,,,,,,,,,,,,,,,,,,,,,,,,,,,,,,,,,,,,,,
Date Logged (ET (-05:00)),Date Received (ET (-05:00)),Log Reason,Latitude,Longitude,Speed MPH,Used Speed Limit (MPH),Speed Band,Speed Accuracy (MPH),Heading Degrees,Altitude (ft),Position Accuracy (ft),PDOP Raw,Ignition,Gps Status Fix OK,Gps Status Fix 3D,Digital Inputs,Digital Outputs,Driver Id Type,Driver Id Data,Trip Type Code,Project Code,Analog 1,Analog 2,Analog 3,Analog 4,Analog 5,Analog 6,Analog 7,Analog 8,Analog 9,Analog 10,Analog 11,Analog 12,Analog 13,Analog 14,Analog 15,Analog 16,Analog 17,Analog 18,Analog 19,Analog 20
04/28/2019 00:51,04/28/2019 09:29,Sensor Value Elapsed Time,38.9391528,-92.7735689,0,,,2.01,106,659,121,29,Off,True,True,00000010000000000000000000001000,000000000000000000,,,,,"4,106",,"1,026",24,"1,214","4,958",,,,,0,54,872,"10,307",14,,,,,
04/28/2019 02:38,04/28/2019 09:29,Sensor Value Elapsed Time,38.9391528,-92.7735689,0,,,2.01,106,659,121,29,Off,True,True,00000010000000000000000000001000,000000000000000000,,,,,"4,107",,914,24,"1,114","5,227",,,,,0,54,872,"10,307",14,,,,,
04/28/2019 05:33,04/28/2019 09:29,Sensor Value Elapsed Time,38.9391528,-92.7735689,0,,,2.01,106,659,121,29,Off,True,True,00000010000000000000000000001000,000000000000000000,,,,,"4,110",,813,24,"1,014","5,554",,,,,0,54,872,"10,307",14,,,,,
04/28/2019 09:29,04/28/2019 09:29,Heartbeat Status,38.9394633,-92.7741121,0,,,2.91,82,784,105,21,Off,True,True,00000010000000000000000000001000,000000000000000000,,,,,"4,110",,778,24,986,"5,786",,,,,0,54,872,"10,307",14,,,,,
04/28/2019 12:01,04/28/2019 21:30,Sensor Value Elapsed Time,38.9394603,-92.7744637,0,,,1.79,100,955,89,16,Off,True,True,00000010000000000000000000001000,000000000000000000,,,,,"4,110",,886,11,"1,116","5,817",,,,,0,54,878,"10,561",14,,,,,
04/28/2019 12:32,04/28/2019 21:30,Sensor Value Elapsed Time,38.9395434,-92.7741688,0,,,3.13,0,778,121,20,Off,True,True,00000010000000000000000000001000,000000000000000000,,,,,"4,105",,"1,007",11,"1,235","5,746",,,,,0,54,880,"10,680",14,,,,,
04/28/2019 14:20,04/28/2019 21:30,Sensor Value Elapsed Time,38.9395740,-92.7741455,3,,,2.91,0,781,148,16,Off,True,True,00000010000000000000000000001000,000000000000000000,,,,,"4,105",,"1,127",11,"1,336","5,686",,,,,0,54,882,"10,758",14,,,,,
04/28/2019 15:18,04/28/2019 21:30,Sensor Value Elapsed Time,38.9395740,-92.7741455,3,,,2.91,0,781,148,16,Off,True,True,00000010000000000000000000001000,000000000000000000,,,,,"4,102",,"1,245",11,"1,436","5,648",,,,,0,54,882,"10,758",14,,,,,
04/28/2019 16:02,04/28/2019 21:30,Sensor Value Elapsed Time,38.9395740,-92.7741455,3,,,2.91,0,781,148,16,Off,True,True,00000010000000000000000000001000,000000000000000000,,,,,"4,098",,"1,357",11,"1,539","5,642",,,,,0,54,882,"10,758",14,,,,,
04/28/2019 16:36,04/28/2019 21:30,Sensor Value Elapsed Time,38.9395740,-92.7741455,3,,,2.91,0,781,148,16,Off,True,True,00000010000000000000000000001000,000000000000000000,,,,,"4,100",,"1,445",11,"1,640","5,607",,,,,0,54,882,"10,758",14,,,,,
04/28/2019 19:53,04/28/2019 21:30,Sensor Value Elapsed Time,38.9395740,-92.7741455,3,,,2.91,0,781,148,16,Off,True,True,00000010000000000000000000001000,000000000000000000,,,,,"4,100",,"1,368",11,"1,540","5,531",,,,,0,54,882,"10,758",14,,,,,
04/28/2019 21:20,04/28/2019 21:30,Sensor Value Elapsed Time,38.9395297,-92.7742203,1,,,2.01,80,787,118,25,Off,True,True,00000010000000000000000000001000,000000000000000000,,,,,"4,103",,"1,248",11,"1,440","5,560",,,,,0,54,887,"10,905",14,,,,,
04/28/2019 21:30,04/28/2019 21:30,Heartbeat Status,38.9396340,-92.7740409,0,,,1.79,286,"1,083",161,20,Off,True,True,00000010000000000000000000001000,000000000000000000,,,,,"4,098",,"1,273",11,"1,428","5,567",,,,,0,54,887,"10,905",14,,,,,
,,,,,,,,,,,,,,,,,,,,,,,,,,,,,,,,,,,,,,,,,