﻿,,,,,,,,,,,,,,,,,,,,,,,,,,,,,,,,,,,,,,,,,
Telemetry Data Report,,,,,,,,,,,,,,,,,,,,,,,,,,,,,,,,,,,,,,,,,
Telemetry Data for 154167 - 154167 - 04/25/2019 ,,,,,,,,,,,,,,,,,,,,,,,,,,,,,,,,,,,,,,,,,
Date Logged (ET (-05:00)),Date Received (ET (-05:00)),Log Reason,Latitude,Longitude,Speed MPH,Used Speed Limit (MPH),Speed Band,Speed Accuracy (MPH),Heading Degrees,Altitude (ft),Position Accuracy (ft),PDOP Raw,Ignition,Gps Status Fix OK,Gps Status Fix 3D,Digital Inputs,Digital Outputs,Driver Id Type,Driver Id Data,Trip Type Code,Project Code,Analog 1,Analog 2,Analog 3,Analog 4,Analog 5,Analog 6,Analog 7,Analog 8,Analog 9,Analog 10,Analog 11,Analog 12,Analog 13,Analog 14,Analog 15,Analog 16,Analog 17,Analog 18,Analog 19,Analog 20
04/25/2019 07:59,05/13/2019 18:18,Heartbeat Status,42.9665841,-85.6782151,0,,,2.46,0,528,151,21,Off,True,True,00000010000000000000000000000000,000000000000000000,,,,,"3,993",,"2,156",12,,,,,,,16,32,417,"14,194",23,,,,,
04/25/2019 10:43,05/13/2019 18:18,Start Of Trip,42.9665841,-85.6782151,0,,,2.46,0,528,151,21,On,True,True,00000011000000000000000000000001,000000000000000000,,,,,"3,992",,"2,253",12,,,,,,,16,33,437,"14,977",24,,,,,
04/25/2019 10:44,05/13/2019 18:18,Distance Travelled,42.9695590,-85.6781356,52,,,0.45,2,650,39,10,On,True,True,00000011000000000000000000000001,000000000000000000,,,,,"3,992",,"2,253",12,,,,,,,16,33,437,"14,977",24,,,,,
04/25/2019 10:47,05/13/2019 18:18,Elapsed Time,43.0168003,-85.6844002,58,,,0.45,280,673,95,11,On,True,True,00000011000000000000000000000001,000000000000000000,,,,,"3,985",,"2,357",12,,,,,,,16,34,438,"14,983",24,,,,,
04/25/2019 10:49,05/13/2019 18:18,Elapsed Time,43.0206896,-85.6890175,0,,,0.89,0,771,98,16,On,True,True,00000011000000000000000000000001,000000000000000000,,,,,"3,988",,"2,326",12,,,,,,,16,34,439,"14,986",24,,,,,
04/25/2019 10:51,05/13/2019 18:18,Elapsed Time,43.0311875,-85.6890193,12,,,0.67,68,807,112,12,On,True,True,00000011000000000000000000000001,000000000000000000,,,,,"3,984",,"2,355",12,,,,,,,16,34,440,"14,989",24,,,,,
04/25/2019 10:53,05/13/2019 18:18,Elapsed Time,43.0313499,-85.6887618,1,,,2.24,190,732,138,17,On,True,True,00000011000000000000000000000001,000000000000000000,,,,,"3,984",,"2,354",12,,,,,,,16,34,441,"14,992",24,,,,,
04/25/2019 10:55,05/13/2019 18:18,Elapsed Time,43.0312814,-85.6888676,0,,,1.34,0,817,98,15,On,True,True,00000011000000000000000000000001,000000000000000000,,,,,"3,986",,"2,366",12,,,,,,,16,34,442,"15,032",24,,,,,
04/25/2019 10:57,05/13/2019 18:18,End Of Trip,43.0313414,-85.6888153,1,,,1.57,350,804,115,15,Off,True,True,00000010000000000000000000000000,000000000000000000,,,,,"3,985",,"2,355",12,,,,,,,16,34,443,"15,033",24,,,,,
04/25/2019 11:03,05/13/2019 18:18,Start Of Trip,43.0313414,-85.6888153,1,,,1.57,350,804,115,15,On,True,True,00000011000000000000000000000001,000000000000000000,,,,,"3,987",,"2,342",12,,,,,,,16,35,446,"15,043",25,,,,,
04/25/2019 11:05,05/13/2019 18:18,Distance Travelled,43.0266159,-85.6893660,37,,,0.45,176,692,49,13,On,True,True,00000011000000000000000000000001,000000000000000000,,,,,"3,987",,"2,342",12,,,,,,,16,35,446,"15,043",25,,,,,
04/25/2019 11:08,05/13/2019 18:18,Elapsed Time,43.0207204,-85.6874257,0,,,0.67,0,692,92,16,On,True,True,00000011000000000000000000000001,000000000000000000,,,,,"3,982",,"2,407",12,,,,,,,16,36,447,"15,050",25,,,,,
04/25/2019 11:10,05/13/2019 18:18,Elapsed Time,43.0208649,-85.6873866,0,,,0.89,0,659,135,16,On,True,True,00000011000000000000000000000001,000000000000000000,,,,,"3,986",,"2,376",12,,,,,,,16,36,448,"15,052",25,,,,,
04/25/2019 11:12,05/13/2019 18:18,Elapsed Time,43.0205598,-85.6884741,4,,,1.12,224,820,157,12,On,True,True,00000011000000000000000000000001,000000000000000000,,,,,"3,983",,"2,372",12,,,,,,,16,36,449,"15,054",25,,,,,
04/25/2019 11:14,05/13/2019 18:18,End Of Trip,43.0208837,-85.6884136,0,,,1.79,170,794,138,17,Off,True,True,00000010000000000000000000000000,000000000000000000,,,,,"3,986",,"2,363",12,,,,,,,16,36,450,"15,057",25,,,,,
04/25/2019 11:14,05/13/2019 18:18,Start Of Trip,43.0208837,-85.6884136,0,,,1.79,170,794,138,17,On,True,True,00000011000000000000000000000001,000000000000000000,,,,,"3,983",,"2,375",12,,,,,,,16,37,451,"15,060",26,,,,,
04/25/2019 11:19,05/13/2019 18:18,Distance Travelled,43.0348956,-85.6895950,24,,,0.67,358,794,52,13,On,True,True,00000011000000000000000000000001,000000000000000000,,,,,"3,983",,"2,375",12,,,,,,,16,37,451,"15,060",26,,,,,
04/25/2019 11:22,05/13/2019 18:18,Elapsed Time,43.0653631,-85.6898985,64,,,0.89,358,768,105,17,On,True,True,00000011000000000000000000000001,000000000000000000,,,,,"3,983",,"2,401",12,,,,,,,16,38,452,"15,068",26,,,,,
04/25/2019 11:24,05/13/2019 18:18,Elapsed Time,43.0984474,-85.6942566,71,,,0.67,336,764,128,18,On,True,True,00000011000000000000000000000001,000000000000000000,,,,,"3,984",,"2,388",12,,,,,,,16,38,453,"15,070",26,,,,,
04/25/2019 11:26,05/13/2019 18:18,Elapsed Time,43.1278348,-85.7100290,55,,,0.67,0,837,138,15,On,True,True,00000011000000000000000000000001,000000000000000000,,,,,"3,983",,"2,401",12,,,,,,,16,38,454,"15,109",26,,,,,
04/25/2019 11:28,05/13/2019 18:18,Elapsed Time,43.1511508,-85.7100152,43,,,0.67,0,781,135,16,On,True,True,00000011000000000000000000000001,000000000000000000,,,,,"3,982",,"2,397",12,,,,,,,16,38,455,"15,111",26,,,,,
04/25/2019 11:30,05/13/2019 18:18,Elapsed Time,43.1606717,-85.7089419,0,,,1.34,0,827,135,15,On,True,True,00000011000000000000000000000001,000000000000000000,,,,,"3,983",,"2,402",12,,,,,,,16,38,456,"15,113",26,,,,,
04/25/2019 11:32,05/13/2019 18:18,Elapsed Time,43.1606447,-85.7089192,0,,,1.57,0,784,131,16,On,True,True,00000011000000000000000000000001,000000000000000000,,,,,"3,982",,"2,401",12,,,,,,,16,38,457,"15,115",26,,,,,
04/25/2019 11:34,05/13/2019 18:18,Elapsed Time,43.1607054,-85.7090146,0,,,0.89,0,784,66,18,On,True,True,00000011000000000000000000000001,000000000000000000,,,,,"3,982",,"2,401",12,,,,,,,16,38,458,"15,117",26,,,,,
04/25/2019 11:36,05/13/2019 18:18,End Of Trip,43.1606821,-85.7089872,0,,,0.67,0,774,138,18,Off,True,True,00000010000000000000000000000000,000000000000000000,,,,,"3,983",,"2,385",12,,,,,,,16,38,459,"15,119",26,,,,,
04/25/2019 11:42,05/13/2019 18:18,Start Of Trip,43.1606821,-85.7089872,0,,,0.67,0,774,138,18,On,True,True,00000011000000000000000000000001,000000000000000000,,,,,"3,981",,"2,398",12,,,,,,,16,39,461,"15,124",27,,,,,
04/25/2019 11:44,05/13/2019 18:18,Distance Travelled,43.1608528,-85.7141433,30,,,0.67,270,820,66,15,On,True,True,00000011000000000000000000000001,000000000000000000,,,,,"3,981",,"2,398",12,,,,,,,16,39,461,"15,124",27,,,,,
04/25/2019 11:47,05/13/2019 18:18,Elapsed Time,43.1613478,-85.7482264,45,,,0.89,270,866,125,21,On,True,True,00000011000000000000000000000001,000000000000000000,,,,,"3,980",,"2,444",12,,,,,,,16,40,462,"15,132",27,,,,,
04/25/2019 11:49,05/13/2019 18:18,Elapsed Time,43.1468390,-85.7521673,45,,,1.34,268,860,131,22,On,True,True,00000011000000000000000000000001,000000000000000000,,,,,"3,981",,"2,405",12,,,,,,,16,40,463,"15,171",27,,,,,
04/25/2019 11:51,05/13/2019 18:18,Elapsed Time,43.1394616,-85.7699130,49,,,0.45,178,912,98,14,On,True,True,00000011000000000000000000000001,000000000000000000,,,,,"3,981",,"2,392",12,,,,,,,16,40,464,"15,175",27,,,,,
04/25/2019 11:53,05/13/2019 18:18,Elapsed Time,43.1159768,-85.7686839,45,,,0.45,178,853,98,17,On,True,True,00000011000000000000000000000001,000000000000000000,,,,,"3,980",,"2,408",12,,,,,,,16,40,465,"15,178",27,,,,,
04/25/2019 11:55,05/13/2019 18:18,Elapsed Time,43.1108230,-85.7688515,1,,,1.57,122,935,121,14,On,True,True,00000011000000000000000000000001,000000000000000000,,,,,"3,983",,"2,384",12,,,,,,,16,40,466,"15,181",27,,,,,
04/25/2019 11:57,05/13/2019 18:18,Elapsed Time,43.1108559,-85.7690692,0,,,2.68,0,807,121,18,On,True,True,00000011000000000000000000000001,000000000000000000,,,,,"3,984",,"2,374",12,,,,,,,16,40,467,"15,185",27,,,,,
04/25/2019 11:59,05/13/2019 18:18,Elapsed Time,43.1110489,-85.7688588,0,,,2.68,0,856,125,15,On,True,True,00000011000000000000000000000001,000000000000000000,,,,,"3,980",,"2,404",12,,,,,,,16,40,468,"15,193",27,,,,,
04/25/2019 12:02,05/13/2019 18:18,End Of Trip,43.1110861,-85.7690470,0,,,1.57,26,807,118,27,Off,True,True,00000010000000000000000000000000,000000000000000000,,,,,"3,978",,"2,429",12,,,,,,,16,40,469,"15,206",27,,,,,
04/25/2019 12:51,05/13/2019 18:18,External Power Change,43.1110519,-85.7689749,0,,,1.79,0,787,138,21,Off,True,True,00000110000000000000000000000000,000000000000000000,,,,,"3,983",,"2,262",12,,,,,,,0,0,0,0,0,,,,,
04/25/2019 12:52,05/13/2019 18:18,Heartbeat Status,43.1110537,-85.7687116,0,,,1.57,0,869,131,20,Off,True,True,00000110000000000000000000000000,000000000000000000,,,,,"4,066",,"2,370",12,,,,,,,0,0,0,0,0,,,,,
04/25/2019 14:30,05/13/2019 18:18,External Power Change,43.1111711,-85.7689829,0,,,0.89,250,837,43,20,Off,True,True,00000010000000000000000000000000,000000000000000000,,,,,"4,185",,"2,150",12,,,,,,,0,0,0,0,0,,,,,
04/25/2019 14:31,05/13/2019 18:18,Heartbeat Status,43.1111162,-85.7687974,0,,,2.24,0,876,135,15,Off,True,True,00000010000000000000000000000000,000000000000000000,,,,,"4,183",,"2,177",12,,,,,,,0,0,1,51,0,,,,,
04/25/2019 14:39,05/13/2019 18:18,Start Of Trip,43.1111162,-85.7687974,0,,,2.24,0,876,135,15,On,True,True,00000011000000000000000000000001,000000000000000000,,,,,"4,168",,"2,317",12,,,,,,,0,1,4,87,1,,,,,
04/25/2019 14:42,05/13/2019 18:18,Distance Travelled,43.1177684,-85.7670628,37,,,0.45,90,886,26,12,On,True,True,00000011000000000000000000000001,000000000000000000,,,,,"4,168",,"2,317",12,,,,,,,0,1,4,87,1,,,,,
04/25/2019 14:45,05/13/2019 18:18,Elapsed Time,43.1170365,-85.7096630,37,,,0.67,90,860,75,14,On,True,True,00000011000000000000000000000001,000000000000000000,,,,,"4,168",,"2,385",12,,,,,,,0,2,5,93,1,,,,,
04/25/2019 14:47,05/13/2019 18:18,Elapsed Time,43.1167390,-85.6908420,9,,,0.89,90,761,161,15,On,True,True,00000011000000000000000000000001,000000000000000000,,,,,"4,166",,"2,382",12,,,,,,,0,2,6,96,1,,,,,
04/25/2019 14:49,05/13/2019 18:18,Elapsed Time,43.1165725,-85.6647319,54,,,0.45,90,794,89,16,On,True,True,00000011000000000000000000000001,000000000000000000,,,,,"4,163",,"2,435",12,,,,,,,0,2,7,98,1,,,,,
04/25/2019 14:51,05/13/2019 18:18,Elapsed Time,43.1167046,-85.6417729,34,,,0.89,90,761,102,20,On,True,True,00000011000000000000000000000001,000000000000000000,,,,,"4,166",,"2,415",12,,,,,,,0,2,8,102,1,,,,,
04/25/2019 14:53,05/13/2019 18:18,Elapsed Time,43.1170062,-85.6057208,43,,,0.67,88,886,128,18,On,True,True,00000011000000000000000000000001,000000000000000000,,,,,"4,166",,"2,427",12,,,,,,,0,2,9,140,1,,,,,
04/25/2019 14:55,05/13/2019 18:18,Elapsed Time,43.1171805,-85.5738074,53,,,0.45,88,804,79,15,On,True,True,00000011000000000000000000000001,000000000000000000,,,,,"4,165",,"2,460",12,,,,,,,0,2,10,142,1,,,,,
04/25/2019 14:57,05/13/2019 18:18,Elapsed Time,43.1173764,-85.5555547,19,,,0.67,90,764,79,18,On,True,True,00000011000000000000000000000001,000000000000000000,,,,,"4,167",,"2,459",12,,,,,,,0,2,11,146,1,,,,,
04/25/2019 14:59,05/13/2019 18:18,Elapsed Time,43.1033461,-85.5504695,66,,,0.89,180,735,125,18,On,True,True,00000011000000000000000000000001,000000000000000000,,,,,"4,165",,"2,479",12,,,,,,,0,2,12,149,1,,,,,
04/25/2019 15:02,05/13/2019 18:18,Elapsed Time,43.0716930,-85.5790381,11,,,0.45,206,669,56,12,On,True,True,00000011000000000000000000000001,000000000000000000,,,,,"4,164",,"2,528",12,,,,,,,0,2,13,152,1,,,,,
04/25/2019 15:04,05/13/2019 18:18,Elapsed Time,43.0595528,-85.5799691,35,,,0.67,178,594,141,17,On,True,True,00000011000000000000000000000001,000000000000000000,,,,,"4,161",,"2,561",12,,,,,,,0,2,14,207,1,,,,,
04/25/2019 15:07,05/13/2019 18:18,Elapsed Time,43.0283808,-85.5903119,20,,,0.45,184,817,52,13,On,True,True,00000011000000000000000000000001,000000000000000000,,,,,"4,164",,"2,529",12,,,,,,,0,2,15,209,1,,,,,
04/25/2019 15:09,05/13/2019 18:18,Elapsed Time,43.0278258,-85.5923103,0,,,1.57,0,820,141,19,On,True,True,00000011000000000000000000000001,000000000000000000,,,,,"4,163",,"2,544",12,,,,,,,0,2,16,243,1,,,,,
04/25/2019 15:11,05/13/2019 18:18,Elapsed Time,43.0278551,-85.5923217,0,,,0.89,0,748,108,18,On,True,True,00000011000000000000000000000001,000000000000000000,,,,,"4,161",,"2,572",12,,,,,,,0,2,17,244,1,,,,,
04/25/2019 15:13,05/13/2019 18:18,End Of Trip,43.0280422,-85.5925452,0,,,0.89,130,837,105,20,Off,True,True,00000010000000000000000000000000,000000000000000000,,,,,"4,163",,"2,571",12,,,,,,,0,2,18,246,1,,,,,
04/25/2019 15:18,05/13/2019 18:18,Start Of Trip,43.0280422,-85.5925452,0,,,0.89,130,837,105,20,On,True,True,00000011000000000000000000000001,000000000000000000,,,,,"4,161",,"2,636",12,,,,,,,0,3,21,254,2,,,,,
04/25/2019 15:21,05/13/2019 18:18,Distance Travelled,43.0201664,-85.5906690,66,,,0.45,182,768,39,14,On,True,True,00000011000000000000000000000001,000000000000000000,,,,,"4,161",,"2,636",12,,,,,,,0,3,21,254,2,,,,,
04/25/2019 15:24,05/13/2019 18:18,Elapsed Time,42.9779983,-85.5908253,48,,,0.67,178,794,85,14,On,True,True,00000011000000000000000000000001,000000000000000000,,,,,"4,156",,"2,726",12,,,,,,,0,4,22,261,2,,,,,
04/25/2019 15:26,05/13/2019 18:18,Elapsed Time,42.9626872,-85.5936430,42,,,0.45,268,814,105,16,On,True,True,00000011000000000000000000000001,000000000000000000,,,,,"4,155",,"2,723",12,,,,,,,0,4,23,265,2,,,,,
04/25/2019 15:28,05/13/2019 18:18,Elapsed Time,42.9586924,-85.6186110,26,,,0.89,264,728,157,23,On,True,True,00000011000000000000000000000001,000000000000000000,,,,,"4,158",,"2,690",12,,,,,,,0,4,24,268,2,,,,,
04/25/2019 15:30,05/13/2019 18:18,Elapsed Time,42.9555090,-85.6303141,25,,,0.45,268,761,82,15,On,True,True,00000011000000000000000000000001,000000000000000000,,,,,"4,157",,"2,698",12,,,,,,,0,4,25,271,2,,,,,
04/25/2019 15:33,05/13/2019 18:18,Elapsed Time,42.9555646,-85.6321720,0,,,1.12,0,774,128,22,On,True,True,00000011000000000000000000000001,000000000000000000,,,,,"4,155",,"2,735",12,,,,,,,0,4,26,275,2,,,,,
04/25/2019 15:35,05/13/2019 18:18,Elapsed Time,42.9554674,-85.6321562,0,,,1.34,0,722,105,19,On,True,True,00000011000000000000000000000001,000000000000000000,,,,,"4,155",,"2,707",12,,,,,,,0,4,27,279,2,,,,,
04/25/2019 15:37,05/13/2019 18:18,End Of Trip,42.9555384,-85.6320846,0,,,2.24,0,781,135,23,Off,True,True,00000010000000000000000000000000,000000000000000000,,,,,"4,154",,"2,722",12,,,,,,,0,4,28,281,2,,,,,
04/25/2019 15:53,05/13/2019 18:18,Start Of Trip,42.9555384,-85.6320846,0,,,2.24,0,781,135,23,On,True,True,00000011000000000000000000000001,000000000000000000,,,,,"4,157",,"2,719",12,,,,,,,0,5,29,283,3,,,,,
04/25/2019 15:54,05/13/2019 18:18,Distance Travelled,42.9555461,-85.6361869,19,,,0.67,268,699,56,11,On,True,True,00000011000000000000000000000001,000000000000000000,,,,,"4,157",,"2,719",12,,,,,,,0,5,29,283,3,,,,,
04/25/2019 15:57,05/13/2019 18:18,Elapsed Time,42.9556397,-85.6490968,0,,,0.89,0,719,72,21,On,True,True,00000011000000000000000000000001,000000000000000000,,,,,"4,154",,"2,784",12,,,,,,,0,6,30,291,3,,,,,
04/25/2019 15:59,05/13/2019 18:18,Elapsed Time,42.9558569,-85.6628981,25,,,1.12,272,623,128,13,On,True,True,00000011000000000000000000000001,000000000000000000,,,,,"4,154",,"2,748",12,,,,,,,0,6,31,295,3,,,,,
04/25/2019 16:01,05/13/2019 18:18,Elapsed Time,42.9487587,-85.6651882,0,,,1.12,0,594,92,15,On,True,True,00000011000000000000000000000001,000000000000000000,,,,,"4,153",,"2,763",12,,,,,,,0,6,32,298,3,,,,,
04/25/2019 16:03,05/13/2019 18:18,Elapsed Time,42.9488319,-85.6708733,18,,,0.45,268,620,82,14,On,True,True,00000011000000000000000000000001,000000000000000000,,,,,"4,155",,"2,746",12,,,,,,,0,6,33,301,3,,,,,
04/25/2019 16:05,05/13/2019 18:18,Elapsed Time,42.9632204,-85.6783238,52,,,0.67,340,617,98,13,On,True,True,00000011000000000000000000000001,000000000000000000,,,,,"4,153",,"2,769",12,,,,,,,0,6,34,304,3,,,,,
04/25/2019 16:07,05/13/2019 18:18,Elapsed Time,42.9659543,-85.6774773,0,,,1.34,350,568,144,21,On,True,True,00000011000000000000000000000001,000000000000000000,,,,,"4,154",,"2,758",12,,,,,,,0,6,35,307,3,,,,,
04/25/2019 16:10,05/13/2019 18:18,Elapsed Time,42.9664916,-85.6779763,1,,,2.46,356,630,141,19,On,True,True,00000011000000000000000000000001,000000000000000000,,,,,"4,149",,"2,778",12,,,,,,,0,6,36,310,3,,,,,
04/25/2019 16:12,05/13/2019 18:18,End Of Trip,42.9659033,-85.6780005,0,,,2.46,0,630,131,20,Off,True,True,00000010000000000000000000000000,000000000000000000,,,,,"4,153",,"2,755",12,,,,,,,0,6,37,359,3,,,,,
,,,,,,,,,,,,,,,,,,,,,,,,,,,,,,,,,,,,,,,,,