[
    {
      "measurement": "154416",
      "tags": {
        "Company": "Apples USA",
        "Project": "Apple IoT Test",
        "Tag_Data_Hash": "797499c7-00ca-4e5e-8361-62e7e3391e75",
        "SensorID": "154416"
      },
      "fields": {
        "Status": "Heartbeat Status",
        "Latitude": 40.8451664,
        "Longitude": -73.9402697,
        "Speed_KmH": 0,
        "Speed_Accuracy_KmH": 1.8,
        "Heading_Degrees": 86,
        "Altitude_m": 68,
        "Position_Accuracy_m": 17,
        "PDOP_Raw": 20,
        "Ignition": "Normal",
        "Gps_Status_Fix_OK": true,
        "Gps_Status_Fix_3D": true,
        "Analog_1": 3827,
        "Analog_3": 2558,
        "Analog_4": 23,
        "Analog_5": 2384,
        "Analog_6": 3868,
        "BigChain_Hash": "daa7551c-1be8-49aa-8607-fe2eccfa04a5",
        "Iota_Hash": "36429872-7d89-4a8a-87f2-1e01114c56b2",
        "Penta_Hash": "465d80df-9536-4989-8d0b-73780684b2fc",
        "Battery_Voltage_V": 3.827,
        "Temperature_C": 25.58,
        "Temperature_F": 78.044,
        "Cellular_Signal_Strength": 23,
        "Temperature_Sensor_C": 23.84,
        "Temperature_Sensor_F": 74.912,
        "Relative_Humidity_Percent": 38.68,
        "Logged": "10\/4\/19 0:03"
      },
      "timestamp": "2019-04-09T14:03:00.000Z"
    },
    {
      "measurement": "154416",
      "tags": {
        "Company": "Apples USA",
        "Project": "Apple IoT Test",
        "Tag_Data_Hash": "797499c7-00ca-4e5e-8361-62e7e3391e75",
        "SensorID": "154416"
      },
      "fields": {
        "Status": "Heartbeat Status",
        "Latitude": 40.8451664,
        "Longitude": -73.9402697,
        "Speed_KmH": 0,
        "Speed_Accuracy_KmH": 1.8,
        "Heading_Degrees": 86,
        "Altitude_m": 68,
        "Position_Accuracy_m": 17,
        "PDOP_Raw": 20,
        "Ignition": "Normal",
        "Gps_Status_Fix_OK": true,
        "Gps_Status_Fix_3D": true,
        "Analog_1": 3823,
        "Analog_3": 2627,
        "Analog_4": 18,
        "Analog_5": 2410,
        "Analog_6": 3949,
        "BigChain_Hash": "daa7551c-1be8-49aa-8607-fe2eccfa04a5",
        "Iota_Hash": "36429872-7d89-4a8a-87f2-1e01114c56b2",
        "Penta_Hash": "465d80df-9536-4989-8d0b-73780684b2fc",
        "Battery_Voltage_V": 3.823,
        "Temperature_C": 26.27,
        "Temperature_F": 79.286,
        "Cellular_Signal_Strength": 18,
        "Temperature_Sensor_C": 24.1,
        "Temperature_Sensor_F": 75.38,
        "Relative_Humidity_Percent": 39.49,
        "Logged": "10\/4\/19 0:09"
      },
      "timestamp": "2019-04-09T14:09:00.000Z"
    },
    {
      "measurement": "154416",
      "tags": {
        "Company": "Apples USA",
        "Project": "Apple IoT Test",
        "Tag_Data_Hash": "797499c7-00ca-4e5e-8361-62e7e3391e75",
        "SensorID": "154416"
      },
      "fields": {
        "Status": "Heartbeat Status",
        "Latitude": 40.8451664,
        "Longitude": -73.9402697,
        "Speed_KmH": 0,
        "Speed_Accuracy_KmH": 1.8,
        "Heading_Degrees": 86,
        "Altitude_m": 68,
        "Position_Accuracy_m": 17,
        "PDOP_Raw": 20,
        "Ignition": "Normal",
        "Gps_Status_Fix_OK": true,
        "Gps_Status_Fix_3D": true,
        "Analog_1": 3823,
        "Analog_3": 2616,
        "Analog_4": 14,
        "Analog_5": 2408,
        "Analog_6": 4047,
        "BigChain_Hash": "daa7551c-1be8-49aa-8607-fe2eccfa04a5",
        "Iota_Hash": "36429872-7d89-4a8a-87f2-1e01114c56b2",
        "Penta_Hash": "465d80df-9536-4989-8d0b-73780684b2fc",
        "Battery_Voltage_V": 3.823,
        "Temperature_C": 26.16,
        "Temperature_F": 79.088,
        "Cellular_Signal_Strength": 14,
        "Temperature_Sensor_C": 24.08,
        "Temperature_Sensor_F": 75.344,
        "Relative_Humidity_Percent": 40.47,
        "Logged": "10\/4\/19 0:20"
      },
      "timestamp": "2019-04-09T14:20:00.000Z"
    },
    {
      "measurement": "154416",
      "tags": {
        "Company": "Apples USA",
        "Project": "Apple IoT Test",
        "Tag_Data_Hash": "797499c7-00ca-4e5e-8361-62e7e3391e75",
        "SensorID": "154416"
      },
      "fields": {
        "Status": "Heartbeat Status",
        "Latitude": 40.8451664,
        "Longitude": -73.9402697,
        "Speed_KmH": 0,
        "Speed_Accuracy_KmH": 1.8,
        "Heading_Degrees": 86,
        "Altitude_m": 68,
        "Position_Accuracy_m": 17,
        "PDOP_Raw": 20,
        "Ignition": "Normal",
        "Gps_Status_Fix_OK": true,
        "Gps_Status_Fix_3D": true,
        "Analog_1": 3827,
        "Analog_3": 2559,
        "Analog_4": 24,
        "Analog_5": 2396,
        "Analog_6": 3913,
        "BigChain_Hash": "daa7551c-1be8-49aa-8607-fe2eccfa04a5",
        "Iota_Hash": "36429872-7d89-4a8a-87f2-1e01114c56b2",
        "Penta_Hash": "465d80df-9536-4989-8d0b-73780684b2fc",
        "Battery_Voltage_V": 3.827,
        "Temperature_C": 25.59,
        "Temperature_F": 78.062,
        "Cellular_Signal_Strength": 24,
        "Temperature_Sensor_C": 23.96,
        "Temperature_Sensor_F": 75.128,
        "Relative_Humidity_Percent": 39.13,
        "Logged": "10\/4\/19 0:31"
      },
      "timestamp": "2019-04-09T14:31:00.000Z"
    },
    {
      "measurement": "154416",
      "tags": {
        "Company": "Apples USA",
        "Project": "Apple IoT Test",
        "Tag_Data_Hash": "797499c7-00ca-4e5e-8361-62e7e3391e75",
        "SensorID": "154416"
      },
      "fields": {
        "Status": "Heartbeat Status",
        "Latitude": 40.8451664,
        "Longitude": -73.9402697,
        "Speed_KmH": 0,
        "Speed_Accuracy_KmH": 1.8,
        "Heading_Degrees": 86,
        "Altitude_m": 68,
        "Position_Accuracy_m": 17,
        "PDOP_Raw": 20,
        "Ignition": "Normal",
        "Gps_Status_Fix_OK": true,
        "Gps_Status_Fix_3D": true,
        "Analog_1": 3823,
        "Analog_3": 2591,
        "Analog_4": 4,
        "Analog_5": 2417,
        "Analog_6": 3905,
        "BigChain_Hash": "daa7551c-1be8-49aa-8607-fe2eccfa04a5",
        "Iota_Hash": "36429872-7d89-4a8a-87f2-1e01114c56b2",
        "Penta_Hash": "465d80df-9536-4989-8d0b-73780684b2fc",
        "Battery_Voltage_V": 3.823,
        "Temperature_C": 25.91,
        "Temperature_F": 78.638,
        "Cellular_Signal_Strength": 4,
        "Temperature_Sensor_C": 24.17,
        "Temperature_Sensor_F": 75.506,
        "Relative_Humidity_Percent": 39.05,
        "Logged": "10\/4\/19 0:42"
      },
      "timestamp": "2019-04-09T14:42:00.000Z"
    },
    {
      "measurement": "154416",
      "tags": {
        "Company": "Apples USA",
        "Project": "Apple IoT Test",
        "Tag_Data_Hash": "797499c7-00ca-4e5e-8361-62e7e3391e75",
        "SensorID": "154416"
      },
      "fields": {
        "Status": "Heartbeat Status",
        "Latitude": 40.8451664,
        "Longitude": -73.9402697,
        "Speed_KmH": 0,
        "Speed_Accuracy_KmH": 1.8,
        "Heading_Degrees": 86,
        "Altitude_m": 68,
        "Position_Accuracy_m": 17,
        "PDOP_Raw": 20,
        "Ignition": "Normal",
        "Gps_Status_Fix_OK": true,
        "Gps_Status_Fix_3D": true,
        "Analog_1": 3826,
        "Analog_3": 2556,
        "Analog_4": 6,
        "Analog_5": 2405,
        "Analog_6": 3929,
        "BigChain_Hash": "daa7551c-1be8-49aa-8607-fe2eccfa04a5",
        "Iota_Hash": "36429872-7d89-4a8a-87f2-1e01114c56b2",
        "Penta_Hash": "465d80df-9536-4989-8d0b-73780684b2fc",
        "Battery_Voltage_V": 3.826,
        "Temperature_C": 25.56,
        "Temperature_F": 78.008,
        "Cellular_Signal_Strength": 6,
        "Temperature_Sensor_C": 24.05,
        "Temperature_Sensor_F": 75.29,
        "Relative_Humidity_Percent": 39.29,
        "Logged": "10\/4\/19 0:53"
      },
      "timestamp": "2019-04-09T14:53:00.000Z"
    },
    {
      "measurement": "154416",
      "tags": {
        "Company": "Apples USA",
        "Project": "Apple IoT Test",
        "Tag_Data_Hash": "797499c7-00ca-4e5e-8361-62e7e3391e75",
        "SensorID": "154416"
      },
      "fields": {
        "Status": "Heartbeat Status",
        "Latitude": 40.8451664,
        "Longitude": -73.9402697,
        "Speed_KmH": 0,
        "Speed_Accuracy_KmH": 1.8,
        "Heading_Degrees": 86,
        "Altitude_m": 68,
        "Position_Accuracy_m": 17,
        "PDOP_Raw": 20,
        "Ignition": "Normal",
        "Gps_Status_Fix_OK": true,
        "Gps_Status_Fix_3D": true,
        "Analog_1": 3826,
        "Analog_3": 2535,
        "Analog_4": 6,
        "Analog_5": 2389,
        "Analog_6": 3950,
        "BigChain_Hash": "daa7551c-1be8-49aa-8607-fe2eccfa04a5",
        "Iota_Hash": "36429872-7d89-4a8a-87f2-1e01114c56b2",
        "Penta_Hash": "465d80df-9536-4989-8d0b-73780684b2fc",
        "Battery_Voltage_V": 3.826,
        "Temperature_C": 25.35,
        "Temperature_F": 77.63,
        "Cellular_Signal_Strength": 6,
        "Temperature_Sensor_C": 23.89,
        "Temperature_Sensor_F": 75.002,
        "Relative_Humidity_Percent": 39.5,
        "Logged": "10\/4\/19 1:04"
      },
      "timestamp": "2019-04-09T15:04:00.000Z"
    },
    {
      "measurement": "154416",
      "tags": {
        "Company": "Apples USA",
        "Project": "Apple IoT Test",
        "Tag_Data_Hash": "797499c7-00ca-4e5e-8361-62e7e3391e75",
        "SensorID": "154416"
      },
      "fields": {
        "Status": "Heartbeat Status",
        "Latitude": 40.8451664,
        "Longitude": -73.9402697,
        "Speed_KmH": 0,
        "Speed_Accuracy_KmH": 1.8,
        "Heading_Degrees": 86,
        "Altitude_m": 68,
        "Position_Accuracy_m": 17,
        "PDOP_Raw": 20,
        "Ignition": "Normal",
        "Gps_Status_Fix_OK": true,
        "Gps_Status_Fix_3D": true,
        "Analog_1": 3819,
        "Analog_3": 2671,
        "Analog_4": 6,
        "Analog_5": 2468,
        "Analog_6": 3919,
        "BigChain_Hash": "daa7551c-1be8-49aa-8607-fe2eccfa04a5",
        "Iota_Hash": "36429872-7d89-4a8a-87f2-1e01114c56b2",
        "Penta_Hash": "465d80df-9536-4989-8d0b-73780684b2fc",
        "Battery_Voltage_V": 3.819,
        "Temperature_C": 26.71,
        "Temperature_F": 80.078,
        "Cellular_Signal_Strength": 6,
        "Temperature_Sensor_C": 24.68,
        "Temperature_Sensor_F": 76.424,
        "Relative_Humidity_Percent": 39.19,
        "Logged": "10\/4\/19 1:09"
      },
      "timestamp": "2019-04-09T15:09:00.000Z"
    },
    {
      "measurement": "154416",
      "tags": {
        "Company": "Apples USA",
        "Project": "Apple IoT Test",
        "Tag_Data_Hash": "797499c7-00ca-4e5e-8361-62e7e3391e75",
        "SensorID": "154416"
      },
      "fields": {
        "Status": "Heartbeat Status",
        "Latitude": 40.8451664,
        "Longitude": -73.9402697,
        "Speed_KmH": 0,
        "Speed_Accuracy_KmH": 1.8,
        "Heading_Degrees": 86,
        "Altitude_m": 68,
        "Position_Accuracy_m": 17,
        "PDOP_Raw": 20,
        "Ignition": "Normal",
        "Gps_Status_Fix_OK": true,
        "Gps_Status_Fix_3D": true,
        "Analog_1": 3816,
        "Analog_3": 2666,
        "Analog_4": 5,
        "Analog_5": 2434,
        "Analog_6": 3933,
        "BigChain_Hash": "daa7551c-1be8-49aa-8607-fe2eccfa04a5",
        "Iota_Hash": "36429872-7d89-4a8a-87f2-1e01114c56b2",
        "Penta_Hash": "465d80df-9536-4989-8d0b-73780684b2fc",
        "Battery_Voltage_V": 3.816,
        "Temperature_C": 26.66,
        "Temperature_F": 79.988,
        "Cellular_Signal_Strength": 5,
        "Temperature_Sensor_C": 24.34,
        "Temperature_Sensor_F": 75.812,
        "Relative_Humidity_Percent": 39.33,
        "Logged": "10\/4\/19 1:20"
      },
      "timestamp": "2019-04-09T15:20:00.000Z"
    },
    {
      "measurement": "154416",
      "tags": {
        "Company": "Apples USA",
        "Project": "Apple IoT Test",
        "Tag_Data_Hash": "797499c7-00ca-4e5e-8361-62e7e3391e75",
        "SensorID": "154416"
      },
      "fields": {
        "Status": "Heartbeat Status",
        "Latitude": 40.8451664,
        "Longitude": -73.9402697,
        "Speed_KmH": 0,
        "Speed_Accuracy_KmH": 1.8,
        "Heading_Degrees": 86,
        "Altitude_m": 68,
        "Position_Accuracy_m": 17,
        "PDOP_Raw": 20,
        "Ignition": "Normal",
        "Gps_Status_Fix_OK": true,
        "Gps_Status_Fix_3D": true,
        "Analog_1": 3820,
        "Analog_3": 2649,
        "Analog_4": 8,
        "Analog_5": 2454,
        "Analog_6": 3907,
        "BigChain_Hash": "daa7551c-1be8-49aa-8607-fe2eccfa04a5",
        "Iota_Hash": "36429872-7d89-4a8a-87f2-1e01114c56b2",
        "Penta_Hash": "465d80df-9536-4989-8d0b-73780684b2fc",
        "Battery_Voltage_V": 3.82,
        "Temperature_C": 26.49,
        "Temperature_F": 79.682,
        "Cellular_Signal_Strength": 8,
        "Temperature_Sensor_C": 24.54,
        "Temperature_Sensor_F": 76.172,
        "Relative_Humidity_Percent": 39.07,
        "Logged": "10\/4\/19 1:29"
      },
      "timestamp": "2019-04-09T15:29:00.000Z"
    },
    {
      "measurement": "154416",
      "tags": {
        "Company": "Apples USA",
        "Project": "Apple IoT Test",
        "Tag_Data_Hash": "797499c7-00ca-4e5e-8361-62e7e3391e75",
        "SensorID": "154416"
      },
      "fields": {
        "Status": "Heartbeat Status",
        "Latitude": 40.8451664,
        "Longitude": -73.9402697,
        "Speed_KmH": 0,
        "Speed_Accuracy_KmH": 1.8,
        "Heading_Degrees": 86,
        "Altitude_m": 68,
        "Position_Accuracy_m": 17,
        "PDOP_Raw": 20,
        "Ignition": "Normal",
        "Gps_Status_Fix_OK": true,
        "Gps_Status_Fix_3D": true,
        "Analog_1": 3819,
        "Analog_3": 2683,
        "Analog_4": 8,
        "Analog_5": 2490,
        "Analog_6": 3865,
        "BigChain_Hash": "daa7551c-1be8-49aa-8607-fe2eccfa04a5",
        "Iota_Hash": "36429872-7d89-4a8a-87f2-1e01114c56b2",
        "Penta_Hash": "465d80df-9536-4989-8d0b-73780684b2fc",
        "Battery_Voltage_V": 3.819,
        "Temperature_C": 26.83,
        "Temperature_F": 80.294,
        "Cellular_Signal_Strength": 8,
        "Temperature_Sensor_C": 24.9,
        "Temperature_Sensor_F": 76.82,
        "Relative_Humidity_Percent": 38.65,
        "Logged": "10\/4\/19 1:39"
      },
      "timestamp": "2019-04-09T15:39:00.000Z"
    },
    {
      "measurement": "154416",
      "tags": {
        "Company": "Apples USA",
        "Project": "Apple IoT Test",
        "Tag_Data_Hash": "797499c7-00ca-4e5e-8361-62e7e3391e75",
        "SensorID": "154416"
      },
      "fields": {
        "Status": "Heartbeat Status",
        "Latitude": 40.8451664,
        "Longitude": -73.9402697,
        "Speed_KmH": 0,
        "Speed_Accuracy_KmH": 1.8,
        "Heading_Degrees": 86,
        "Altitude_m": 68,
        "Position_Accuracy_m": 17,
        "PDOP_Raw": 20,
        "Ignition": "Normal",
        "Gps_Status_Fix_OK": true,
        "Gps_Status_Fix_3D": true,
        "Analog_1": 3817,
        "Analog_3": 2746,
        "Analog_4": 8,
        "Analog_5": 2521,
        "Analog_6": 3826,
        "BigChain_Hash": "daa7551c-1be8-49aa-8607-fe2eccfa04a5",
        "Iota_Hash": "36429872-7d89-4a8a-87f2-1e01114c56b2",
        "Penta_Hash": "465d80df-9536-4989-8d0b-73780684b2fc",
        "Battery_Voltage_V": 3.817,
        "Temperature_C": 27.46,
        "Temperature_F": 81.428,
        "Cellular_Signal_Strength": 8,
        "Temperature_Sensor_C": 25.21,
        "Temperature_Sensor_F": 77.378,
        "Relative_Humidity_Percent": 38.26,
        "Logged": "10\/4\/19 1:50"
      },
      "timestamp": "2019-04-09T15:50:00.000Z"
    },
    {
      "measurement": "154416",
      "tags": {
        "Company": "Apples USA",
        "Project": "Apple IoT Test",
        "Tag_Data_Hash": "797499c7-00ca-4e5e-8361-62e7e3391e75",
        "SensorID": "154416"
      },
      "fields": {
        "Status": "Heartbeat Status",
        "Latitude": 40.8451664,
        "Longitude": -73.9402697,
        "Speed_KmH": 0,
        "Speed_Accuracy_KmH": 1.8,
        "Heading_Degrees": 86,
        "Altitude_m": 68,
        "Position_Accuracy_m": 17,
        "PDOP_Raw": 20,
        "Ignition": "Normal",
        "Gps_Status_Fix_OK": true,
        "Gps_Status_Fix_3D": true,
        "Analog_1": 3815,
        "Analog_3": 2754,
        "Analog_4": 8,
        "Analog_5": 2536,
        "Analog_6": 3810,
        "BigChain_Hash": "daa7551c-1be8-49aa-8607-fe2eccfa04a5",
        "Iota_Hash": "36429872-7d89-4a8a-87f2-1e01114c56b2",
        "Penta_Hash": "465d80df-9536-4989-8d0b-73780684b2fc",
        "Battery_Voltage_V": 3.815,
        "Temperature_C": 27.54,
        "Temperature_F": 81.572,
        "Cellular_Signal_Strength": 8,
        "Temperature_Sensor_C": 25.36,
        "Temperature_Sensor_F": 77.648,
        "Relative_Humidity_Percent": 38.1,
        "Logged": "10\/4\/19 1:59"
      },
      "timestamp": "2019-04-09T15:59:00.000Z"
    },
    {
      "measurement": "154416",
      "tags": {
        "Company": "Apples USA",
        "Project": "Apple IoT Test",
        "Tag_Data_Hash": "797499c7-00ca-4e5e-8361-62e7e3391e75",
        "SensorID": "154416"
      },
      "fields": {
        "Status": "Heartbeat Status",
        "Latitude": 40.8451664,
        "Longitude": -73.9402697,
        "Speed_KmH": 0,
        "Speed_Accuracy_KmH": 1.8,
        "Heading_Degrees": 86,
        "Altitude_m": 68,
        "Position_Accuracy_m": 17,
        "PDOP_Raw": 20,
        "Ignition": "Normal",
        "Gps_Status_Fix_OK": true,
        "Gps_Status_Fix_3D": true,
        "Analog_1": 3816,
        "Analog_3": 2723,
        "Analog_4": 8,
        "Analog_5": 2535,
        "Analog_6": 3809,
        "BigChain_Hash": "daa7551c-1be8-49aa-8607-fe2eccfa04a5",
        "Iota_Hash": "36429872-7d89-4a8a-87f2-1e01114c56b2",
        "Penta_Hash": "465d80df-9536-4989-8d0b-73780684b2fc",
        "Battery_Voltage_V": 3.816,
        "Temperature_C": 27.23,
        "Temperature_F": 81.014,
        "Cellular_Signal_Strength": 8,
        "Temperature_Sensor_C": 25.35,
        "Temperature_Sensor_F": 77.63,
        "Relative_Humidity_Percent": 38.09,
        "Logged": "10\/4\/19 2:09"
      },
      "timestamp": "2019-04-09T16:09:00.000Z"
    },
    {
      "measurement": "154416",
      "tags": {
        "Company": "Apples USA",
        "Project": "Apple IoT Test",
        "Tag_Data_Hash": "797499c7-00ca-4e5e-8361-62e7e3391e75",
        "SensorID": "154416"
      },
      "fields": {
        "Status": "Heartbeat Status",
        "Latitude": 40.8451664,
        "Longitude": -73.9402697,
        "Speed_KmH": 0,
        "Speed_Accuracy_KmH": 1.8,
        "Heading_Degrees": 86,
        "Altitude_m": 68,
        "Position_Accuracy_m": 17,
        "PDOP_Raw": 20,
        "Ignition": "Normal",
        "Gps_Status_Fix_OK": true,
        "Gps_Status_Fix_3D": true,
        "Analog_1": 3812,
        "Analog_3": 2793,
        "Analog_4": 8,
        "Analog_5": 2550,
        "Analog_6": 3794,
        "BigChain_Hash": "daa7551c-1be8-49aa-8607-fe2eccfa04a5",
        "Iota_Hash": "36429872-7d89-4a8a-87f2-1e01114c56b2",
        "Penta_Hash": "465d80df-9536-4989-8d0b-73780684b2fc",
        "Battery_Voltage_V": 3.812,
        "Temperature_C": 27.93,
        "Temperature_F": 82.274,
        "Cellular_Signal_Strength": 8,
        "Temperature_Sensor_C": 25.5,
        "Temperature_Sensor_F": 77.9,
        "Relative_Humidity_Percent": 37.94,
        "Logged": "10\/4\/19 2:19"
      },
      "timestamp": "2019-04-09T16:19:00.000Z"
    },
    {
      "measurement": "154416",
      "tags": {
        "Company": "Apples USA",
        "Project": "Apple IoT Test",
        "Tag_Data_Hash": "797499c7-00ca-4e5e-8361-62e7e3391e75",
        "SensorID": "154416"
      },
      "fields": {
        "Status": "Heartbeat Status",
        "Latitude": 40.8451664,
        "Longitude": -73.9402697,
        "Speed_KmH": 0,
        "Speed_Accuracy_KmH": 1.8,
        "Heading_Degrees": 86,
        "Altitude_m": 68,
        "Position_Accuracy_m": 17,
        "PDOP_Raw": 20,
        "Ignition": "Normal",
        "Gps_Status_Fix_OK": true,
        "Gps_Status_Fix_3D": true,
        "Analog_1": 3813,
        "Analog_3": 2735,
        "Analog_4": 8,
        "Analog_5": 2517,
        "Analog_6": 3810,
        "BigChain_Hash": "daa7551c-1be8-49aa-8607-fe2eccfa04a5",
        "Iota_Hash": "36429872-7d89-4a8a-87f2-1e01114c56b2",
        "Penta_Hash": "465d80df-9536-4989-8d0b-73780684b2fc",
        "Battery_Voltage_V": 3.813,
        "Temperature_C": 27.35,
        "Temperature_F": 81.23,
        "Cellular_Signal_Strength": 8,
        "Temperature_Sensor_C": 25.17,
        "Temperature_Sensor_F": 77.306,
        "Relative_Humidity_Percent": 38.1,
        "Logged": "10\/4\/19 2:30"
      },
      "timestamp": "2019-04-09T16:30:00.000Z"
    },
    {
      "measurement": "154416",
      "tags": {
        "Company": "Apples USA",
        "Project": "Apple IoT Test",
        "Tag_Data_Hash": "797499c7-00ca-4e5e-8361-62e7e3391e75",
        "SensorID": "154416"
      },
      "fields": {
        "Status": "Heartbeat Status",
        "Latitude": 40.8451664,
        "Longitude": -73.9402697,
        "Speed_KmH": 0,
        "Speed_Accuracy_KmH": 1.8,
        "Heading_Degrees": 86,
        "Altitude_m": 68,
        "Position_Accuracy_m": 17,
        "PDOP_Raw": 20,
        "Ignition": "Normal",
        "Gps_Status_Fix_OK": true,
        "Gps_Status_Fix_3D": true,
        "Analog_1": 3812,
        "Analog_3": 2713,
        "Analog_4": 7,
        "Analog_5": 2504,
        "Analog_6": 3819,
        "BigChain_Hash": "daa7551c-1be8-49aa-8607-fe2eccfa04a5",
        "Iota_Hash": "36429872-7d89-4a8a-87f2-1e01114c56b2",
        "Penta_Hash": "465d80df-9536-4989-8d0b-73780684b2fc",
        "Battery_Voltage_V": 3.812,
        "Temperature_C": 27.13,
        "Temperature_F": 80.834,
        "Cellular_Signal_Strength": 7,
        "Temperature_Sensor_C": 25.04,
        "Temperature_Sensor_F": 77.072,
        "Relative_Humidity_Percent": 38.19,
        "Logged": "10\/4\/19 2:41"
      },
      "timestamp": "2019-04-09T16:41:00.000Z"
    },
    {
      "measurement": "154416",
      "tags": {
        "Company": "Apples USA",
        "Project": "Apple IoT Test",
        "Tag_Data_Hash": "797499c7-00ca-4e5e-8361-62e7e3391e75",
        "SensorID": "154416"
      },
      "fields": {
        "Status": "Heartbeat Status",
        "Latitude": 40.8451664,
        "Longitude": -73.9402697,
        "Speed_KmH": 0,
        "Speed_Accuracy_KmH": 1.8,
        "Heading_Degrees": 86,
        "Altitude_m": 68,
        "Position_Accuracy_m": 17,
        "PDOP_Raw": 20,
        "Ignition": "Normal",
        "Gps_Status_Fix_OK": true,
        "Gps_Status_Fix_3D": true,
        "Analog_1": 3815,
        "Analog_3": 2707,
        "Analog_4": 6,
        "Analog_5": 2519,
        "Analog_6": 3795,
        "BigChain_Hash": "daa7551c-1be8-49aa-8607-fe2eccfa04a5",
        "Iota_Hash": "36429872-7d89-4a8a-87f2-1e01114c56b2",
        "Penta_Hash": "465d80df-9536-4989-8d0b-73780684b2fc",
        "Battery_Voltage_V": 3.815,
        "Temperature_C": 27.07,
        "Temperature_F": 80.726,
        "Cellular_Signal_Strength": 6,
        "Temperature_Sensor_C": 25.19,
        "Temperature_Sensor_F": 77.342,
        "Relative_Humidity_Percent": 37.95,
        "Logged": "10\/4\/19 2:52"
      },
      "timestamp": "2019-04-09T16:52:00.000Z"
    },
    {
      "measurement": "154416",
      "tags": {
        "Company": "Apples USA",
        "Project": "Apple IoT Test",
        "Tag_Data_Hash": "797499c7-00ca-4e5e-8361-62e7e3391e75",
        "SensorID": "154416"
      },
      "fields": {
        "Status": "Start Of Trip",
        "Latitude": 40.7463616,
        "Longitude": -73.9845597,
        "Speed_KmH": 2,
        "Speed_Accuracy_KmH": 3.24,
        "Heading_Degrees": 42,
        "Altitude_m": 181,
        "Position_Accuracy_m": 42,
        "PDOP_Raw": 20,
        "Ignition": "Normal",
        "Gps_Status_Fix_OK": true,
        "Gps_Status_Fix_3D": true,
        "Analog_1": 3815,
        "Analog_3": 2719,
        "Analog_4": 12,
        "Analog_5": 2519,
        "Analog_6": 3795,
        "BigChain_Hash": "daa7551c-1be8-49aa-8607-fe2eccfa04a5",
        "Iota_Hash": "36429872-7d89-4a8a-87f2-1e01114c56b2",
        "Penta_Hash": "465d80df-9536-4989-8d0b-73780684b2fc",
        "Battery_Voltage_V": 3.815,
        "Temperature_C": 27.19,
        "Temperature_F": 80.942,
        "Cellular_Signal_Strength": 12,
        "Temperature_Sensor_C": 25.19,
        "Temperature_Sensor_F": 77.342,
        "Relative_Humidity_Percent": 37.95,
        "Logged": "10\/4\/19 2:55"
      },
      "timestamp": "2019-04-09T16:55:00.000Z"
    },
    {
      "measurement": "154416",
      "tags": {
        "Company": "Apples USA",
        "Project": "Apple IoT Test",
        "Tag_Data_Hash": "797499c7-00ca-4e5e-8361-62e7e3391e75",
        "SensorID": "154416"
      },
      "fields": {
        "Status": "End Of Trip",
        "Latitude": 40.7462678,
        "Longitude": -73.984104,
        "Speed_KmH": 4,
        "Speed_Accuracy_KmH": 1.08,
        "Heading_Degrees": 24,
        "Altitude_m": 122,
        "Position_Accuracy_m": 30,
        "PDOP_Raw": 20,
        "Ignition": "Normal",
        "Gps_Status_Fix_OK": true,
        "Gps_Status_Fix_3D": true,
        "Analog_1": 3811,
        "Analog_3": 2758,
        "Analog_4": 18,
        "Analog_5": 2575,
        "Analog_6": 3747,
        "BigChain_Hash": "daa7551c-1be8-49aa-8607-fe2eccfa04a5",
        "Iota_Hash": "36429872-7d89-4a8a-87f2-1e01114c56b2",
        "Penta_Hash": "465d80df-9536-4989-8d0b-73780684b2fc",
        "Battery_Voltage_V": 3.811,
        "Temperature_C": 27.58,
        "Temperature_F": 81.644,
        "Cellular_Signal_Strength": 18,
        "Temperature_Sensor_C": 25.75,
        "Temperature_Sensor_F": 78.35,
        "Relative_Humidity_Percent": 37.47,
        "Logged": "10\/4\/19 3:01"
      },
      "timestamp": "2019-04-09T17:01:00.000Z"
    },
    {
      "measurement": "154416",
      "tags": {
        "Company": "Apples USA",
        "Project": "Apple IoT Test",
        "Tag_Data_Hash": "797499c7-00ca-4e5e-8361-62e7e3391e75",
        "SensorID": "154416"
      },
      "fields": {
        "Status": "Heartbeat Status",
        "Latitude": 40.7462678,
        "Longitude": -73.984104,
        "Speed_KmH": 4,
        "Speed_Accuracy_KmH": 1.08,
        "Heading_Degrees": 24,
        "Altitude_m": 122,
        "Position_Accuracy_m": 30,
        "PDOP_Raw": 20,
        "Ignition": "Normal",
        "Gps_Status_Fix_OK": true,
        "Gps_Status_Fix_3D": true,
        "Analog_1": 3817,
        "Analog_3": 2658,
        "Analog_4": 16,
        "Analog_5": 2507,
        "Analog_6": 3770,
        "BigChain_Hash": "daa7551c-1be8-49aa-8607-fe2eccfa04a5",
        "Iota_Hash": "36429872-7d89-4a8a-87f2-1e01114c56b2",
        "Penta_Hash": "465d80df-9536-4989-8d0b-73780684b2fc",
        "Battery_Voltage_V": 3.817,
        "Temperature_C": 26.58,
        "Temperature_F": 79.844,
        "Cellular_Signal_Strength": 16,
        "Temperature_Sensor_C": 25.07,
        "Temperature_Sensor_F": 77.126,
        "Relative_Humidity_Percent": 37.7,
        "Logged": "10\/4\/19 3:12"
      },
      "timestamp": "2019-04-09T17:12:00.000Z"
    },
    {
      "measurement": "154416",
      "tags": {
        "Company": "Apples USA",
        "Project": "Apple IoT Test",
        "Tag_Data_Hash": "797499c7-00ca-4e5e-8361-62e7e3391e75",
        "SensorID": "154416"
      },
      "fields": {
        "Status": "Heartbeat Status",
        "Latitude": 40.7462678,
        "Longitude": -73.984104,
        "Speed_KmH": 4,
        "Speed_Accuracy_KmH": 1.08,
        "Heading_Degrees": 24,
        "Altitude_m": 122,
        "Position_Accuracy_m": 30,
        "PDOP_Raw": 20,
        "Ignition": "Normal",
        "Gps_Status_Fix_OK": true,
        "Gps_Status_Fix_3D": true,
        "Analog_1": 3813,
        "Analog_3": 2671,
        "Analog_4": 15,
        "Analog_5": 2478,
        "Analog_6": 3789,
        "BigChain_Hash": "daa7551c-1be8-49aa-8607-fe2eccfa04a5",
        "Iota_Hash": "36429872-7d89-4a8a-87f2-1e01114c56b2",
        "Penta_Hash": "465d80df-9536-4989-8d0b-73780684b2fc",
        "Battery_Voltage_V": 3.813,
        "Temperature_C": 26.71,
        "Temperature_F": 80.078,
        "Cellular_Signal_Strength": 15,
        "Temperature_Sensor_C": 24.78,
        "Temperature_Sensor_F": 76.604,
        "Relative_Humidity_Percent": 37.89,
        "Logged": "10\/4\/19 3:23"
      },
      "timestamp": "2019-04-09T17:23:00.000Z"
    },
    {
      "measurement": "154416",
      "tags": {
        "Company": "Apples USA",
        "Project": "Apple IoT Test",
        "Tag_Data_Hash": "797499c7-00ca-4e5e-8361-62e7e3391e75",
        "SensorID": "154416"
      },
      "fields": {
        "Status": "Heartbeat Status",
        "Latitude": 40.7459266,
        "Longitude": -73.9843335,
        "Speed_KmH": 0,
        "Speed_Accuracy_KmH": 3.24,
        "Heading_Degrees": 272,
        "Altitude_m": 71,
        "Position_Accuracy_m": 43,
        "PDOP_Raw": 33,
        "Ignition": "Normal",
        "Gps_Status_Fix_OK": true,
        "Gps_Status_Fix_3D": true,
        "Analog_1": 3814,
        "Analog_3": 2641,
        "Analog_4": 12,
        "Analog_5": 2469,
        "Analog_6": 3806,
        "BigChain_Hash": "daa7551c-1be8-49aa-8607-fe2eccfa04a5",
        "Iota_Hash": "36429872-7d89-4a8a-87f2-1e01114c56b2",
        "Penta_Hash": "465d80df-9536-4989-8d0b-73780684b2fc",
        "Battery_Voltage_V": 3.814,
        "Temperature_C": 26.41,
        "Temperature_F": 79.538,
        "Cellular_Signal_Strength": 12,
        "Temperature_Sensor_C": 24.69,
        "Temperature_Sensor_F": 76.442,
        "Relative_Humidity_Percent": 38.06,
        "Logged": "10\/4\/19 3:34"
      },
      "timestamp": "2019-04-09T17:34:00.000Z"
    },
    {
      "measurement": "154416",
      "tags": {
        "Company": "Apples USA",
        "Project": "Apple IoT Test",
        "Tag_Data_Hash": "797499c7-00ca-4e5e-8361-62e7e3391e75",
        "SensorID": "154416"
      },
      "fields": {
        "Status": "Heartbeat Status",
        "Latitude": 40.7459266,
        "Longitude": -73.9843335,
        "Speed_KmH": 0,
        "Speed_Accuracy_KmH": 3.24,
        "Heading_Degrees": 272,
        "Altitude_m": 71,
        "Position_Accuracy_m": 43,
        "PDOP_Raw": 33,
        "Ignition": "Normal",
        "Gps_Status_Fix_OK": true,
        "Gps_Status_Fix_3D": true,
        "Analog_1": 3812,
        "Analog_3": 2648,
        "Analog_4": 12,
        "Analog_5": 2486,
        "Analog_6": 3740,
        "BigChain_Hash": "daa7551c-1be8-49aa-8607-fe2eccfa04a5",
        "Iota_Hash": "36429872-7d89-4a8a-87f2-1e01114c56b2",
        "Penta_Hash": "465d80df-9536-4989-8d0b-73780684b2fc",
        "Battery_Voltage_V": 3.812,
        "Temperature_C": 26.48,
        "Temperature_F": 79.664,
        "Cellular_Signal_Strength": 12,
        "Temperature_Sensor_C": 24.86,
        "Temperature_Sensor_F": 76.748,
        "Relative_Humidity_Percent": 37.4,
        "Logged": "10\/4\/19 3:45"
      },
      "timestamp": "2019-04-09T17:45:00.000Z"
    },
    {
      "measurement": "154416",
      "tags": {
        "Company": "Apples USA",
        "Project": "Apple IoT Test",
        "Tag_Data_Hash": "797499c7-00ca-4e5e-8361-62e7e3391e75",
        "SensorID": "154416"
      },
      "fields": {
        "Status": "Heartbeat Status",
        "Latitude": 40.7459266,
        "Longitude": -73.9843335,
        "Speed_KmH": 0,
        "Speed_Accuracy_KmH": 3.24,
        "Heading_Degrees": 272,
        "Altitude_m": 71,
        "Position_Accuracy_m": 43,
        "PDOP_Raw": 33,
        "Ignition": "Normal",
        "Gps_Status_Fix_OK": true,
        "Gps_Status_Fix_3D": true,
        "Analog_1": 3812,
        "Analog_3": 2665,
        "Analog_4": 6,
        "Analog_5": 2500,
        "Analog_6": 3775,
        "BigChain_Hash": "daa7551c-1be8-49aa-8607-fe2eccfa04a5",
        "Iota_Hash": "36429872-7d89-4a8a-87f2-1e01114c56b2",
        "Penta_Hash": "465d80df-9536-4989-8d0b-73780684b2fc",
        "Battery_Voltage_V": 3.812,
        "Temperature_C": 26.65,
        "Temperature_F": 79.97,
        "Cellular_Signal_Strength": 6,
        "Temperature_Sensor_C": 25,
        "Temperature_Sensor_F": 77,
        "Relative_Humidity_Percent": 37.75,
        "Logged": "10\/4\/19 3:56"
      },
      "timestamp": "2019-04-09T17:56:00.000Z"
    }
  ]