[
    {
      "measurement": "220226",
      "tags": {
        "Company": "Apples USA",
        "Project": "Apple IoT Test",
        "Tag_Data_Hash": "039af18d-2375-4f37-8843-637fabf12dc7",
        "SensorID": "220226"
      },
      "fields": {
        "SensorId": "221226",
        "Latitude": 43.05885,
        "Longitude": -85.74356,
        "Temperature_C": 12.8,
        "Temperature_F": 55,
        "Pressure": 975,
        "Ambient": 0,
        "Tilt_Shock": 4.25,
        "Relative_Humidity_Percent": 36,
        "Tamper": 0,
        "Altitude_m": 98.35,
        "Altitude_f": 322.67,
        "Address": "5164 Peach Ridge Ave NW, Grand Rapids, MI 49544, USA",
        "Time_Stamp": "Apr 26, 2019 12:49 PM",
        "BigChain_Hash": "81730e44-bb2a-4323-9f36-316b1f04f41f",
        "Iota_Hash": "1e2c1132-42b1-4220-b37e-d9c1ddb92772",
        "Penta_Hash": "f5984a1d-a9b4-4bde-b1d5-48e23716400b",
        "Temperature_Sensor_C": 12.8,
        "Temperature_Sensor_F": 55,
        "Logged": "Apr 26, 2019 12:49 PM"
      },
      "timestamp": null
    },
    {
      "measurement": "220226",
      "tags": {
        "Company": "Apples USA",
        "Project": "Apple IoT Test",
        "Tag_Data_Hash": "039af18d-2375-4f37-8843-637fabf12dc7",
        "SensorID": "220226"
      },
      "fields": {
        "SensorId": "221226",
        "Latitude": 43.05885,
        "Longitude": -85.74356,
        "Temperature_C": 12.8,
        "Temperature_F": 55,
        "Pressure": 975,
        "Ambient": 0,
        "Tilt_Shock": 4.25,
        "Relative_Humidity_Percent": 36,
        "Altitude_m": 98.35,
        "Altitude_f": 322.67,
        "Address": "5164 Peach Ridge Ave NW, Grand Rapids, MI 49544, USA",
        "Time_Stamp": "Apr 26, 2019 12:49 PM",
        "BigChain_Hash": "81730e44-bb2a-4323-9f36-316b1f04f41f",
        "Iota_Hash": "1e2c1132-42b1-4220-b37e-d9c1ddb92772",
        "Penta_Hash": "f5984a1d-a9b4-4bde-b1d5-48e23716400b",
        "Temperature_Sensor_C": 12.8,
        "Temperature_Sensor_F": 55,
        "Logged": "Apr 26, 2019 12:49 PM"
      },
      "timestamp": null
    },
    {
      "measurement": "220226",
      "tags": {
        "Company": "Apples USA",
        "Project": "Apple IoT Test",
        "Tag_Data_Hash": "039af18d-2375-4f37-8843-637fabf12dc7",
        "SensorID": "220226"
      },
      "fields": {
        "SensorId": "221226",
        "Latitude": 43.01443,
        "Longitude": -85.67993,
        "Temperature_C": 11.1,
        "Temperature_F": 52,
        "Pressure": 976,
        "Ambient": 0,
        "Tilt_Shock": 12.08,
        "Relative_Humidity_Percent": 38,
        "Tamper": 1,
        "Altitude_m": 94.74,
        "Altitude_f": 310.82,
        "Address": "2791 Hillside Dr NW, Grand Rapids, MI 49544, USA",
        "Time_Stamp": "Apr 26, 2019 12:59 PM",
        "BigChain_Hash": "81730e44-bb2a-4323-9f36-316b1f04f41f",
        "Iota_Hash": "1e2c1132-42b1-4220-b37e-d9c1ddb92772",
        "Penta_Hash": "f5984a1d-a9b4-4bde-b1d5-48e23716400b",
        "Temperature_Sensor_C": 11.1,
        "Temperature_Sensor_F": 52,
        "Logged": "Apr 26, 2019 12:59 PM"
      },
      "timestamp": null
    },
    {
      "measurement": "220226",
      "tags": {
        "Company": "Apples USA",
        "Project": "Apple IoT Test",
        "Tag_Data_Hash": "039af18d-2375-4f37-8843-637fabf12dc7",
        "SensorID": "220226"
      },
      "fields": {
        "SensorId": "221226",
        "Latitude": 43.01443,
        "Longitude": -85.67993,
        "Temperature_C": 11.1,
        "Temperature_F": 52,
        "Pressure": 976,
        "Ambient": 0,
        "Tilt_Shock": 12.08,
        "Relative_Humidity_Percent": 38,
        "Altitude_m": 94.74,
        "Altitude_f": 310.82,
        "Address": "2791 Hillside Dr NW, Grand Rapids, MI 49544, USA",
        "Time_Stamp": "Apr 26, 2019 12:59 PM",
        "BigChain_Hash": "81730e44-bb2a-4323-9f36-316b1f04f41f",
        "Iota_Hash": "1e2c1132-42b1-4220-b37e-d9c1ddb92772",
        "Penta_Hash": "f5984a1d-a9b4-4bde-b1d5-48e23716400b",
        "Temperature_Sensor_C": 11.1,
        "Temperature_Sensor_F": 52,
        "Logged": "Apr 26, 2019 12:59 PM"
      },
      "timestamp": null
    },
    {
      "measurement": "220226",
      "tags": {
        "Company": "Apples USA",
        "Project": "Apple IoT Test",
        "Tag_Data_Hash": "039af18d-2375-4f37-8843-637fabf12dc7",
        "SensorID": "220226"
      },
      "fields": {
        "SensorId": "221226",
        "Latitude": 42.94,
        "Longitude": -85.69302,
        "Temperature_C": 10,
        "Temperature_F": 50,
        "Pressure": 980,
        "Ambient": 22,
        "Tilt_Shock": 7.36,
        "Relative_Humidity_Percent": 40,
        "Tamper": 1,
        "Altitude_m": 84.58,
        "Altitude_f": 277.5,
        "Address": "1305 Terminal Dr SW, Grand Rapids, MI 49503, USA",
        "Time_Stamp": "Apr 26, 2019 1:09 PM",
        "BigChain_Hash": "81730e44-bb2a-4323-9f36-316b1f04f41f",
        "Iota_Hash": "1e2c1132-42b1-4220-b37e-d9c1ddb92772",
        "Penta_Hash": "f5984a1d-a9b4-4bde-b1d5-48e23716400b",
        "Temperature_Sensor_C": 10,
        "Temperature_Sensor_F": 50,
        "Logged": "Apr 26, 2019 1:09 PM"
      },
      "timestamp": "2019-04-26T03:09:00.000Z"
    },
    {
      "measurement": "220226",
      "tags": {
        "Company": "Apples USA",
        "Project": "Apple IoT Test",
        "Tag_Data_Hash": "039af18d-2375-4f37-8843-637fabf12dc7",
        "SensorID": "220226"
      },
      "fields": {
        "SensorId": "221226",
        "Latitude": 42.94,
        "Longitude": -85.69302,
        "Temperature_C": 10,
        "Temperature_F": 50,
        "Pressure": 980,
        "Ambient": 22,
        "Tilt_Shock": 7.36,
        "Relative_Humidity_Percent": 40,
        "Altitude_m": 84.58,
        "Altitude_f": 277.5,
        "Address": "1305 Terminal Dr SW, Grand Rapids, MI 49503, USA",
        "Time_Stamp": "Apr 26, 2019 1:09 PM",
        "BigChain_Hash": "81730e44-bb2a-4323-9f36-316b1f04f41f",
        "Iota_Hash": "1e2c1132-42b1-4220-b37e-d9c1ddb92772",
        "Penta_Hash": "f5984a1d-a9b4-4bde-b1d5-48e23716400b",
        "Temperature_Sensor_C": 10,
        "Temperature_Sensor_F": 50,
        "Logged": "Apr 26, 2019 1:09 PM"
      },
      "timestamp": "2019-04-26T03:09:00.000Z"
    },
    {
      "measurement": "220226",
      "tags": {
        "Company": "Apples USA",
        "Project": "Apple IoT Test",
        "Tag_Data_Hash": "039af18d-2375-4f37-8843-637fabf12dc7",
        "SensorID": "220226"
      },
      "fields": {
        "SensorId": "221226",
        "Latitude": 42.94009,
        "Longitude": -85.6933,
        "Temperature_C": 9.4,
        "Temperature_F": 48.9,
        "Pressure": 980,
        "Ambient": 1,
        "Tilt_Shock": 4.22,
        "Relative_Humidity_Percent": 44,
        "Tamper": 1,
        "Altitude_m": 83.8,
        "Altitude_f": 274.94,
        "Address": "1281 Terminal Dr SW, Grand Rapids, MI 49503, USA",
        "Time_Stamp": "Apr 26, 2019 1:20 PM",
        "BigChain_Hash": "81730e44-bb2a-4323-9f36-316b1f04f41f",
        "Iota_Hash": "1e2c1132-42b1-4220-b37e-d9c1ddb92772",
        "Penta_Hash": "f5984a1d-a9b4-4bde-b1d5-48e23716400b",
        "Temperature_Sensor_C": 9.4,
        "Temperature_Sensor_F": 48.9,
        "Logged": "Apr 26, 2019 1:20 PM"
      },
      "timestamp": "2019-04-26T03:20:00.000Z"
    },
    {
      "measurement": "220226",
      "tags": {
        "Company": "Apples USA",
        "Project": "Apple IoT Test",
        "Tag_Data_Hash": "039af18d-2375-4f37-8843-637fabf12dc7",
        "SensorID": "220226"
      },
      "fields": {
        "SensorId": "221226",
        "Latitude": 42.94009,
        "Longitude": -85.6933,
        "Temperature_C": 9.4,
        "Temperature_F": 48.9,
        "Pressure": 980,
        "Ambient": 1,
        "Tilt_Shock": 4.22,
        "Relative_Humidity_Percent": 44,
        "Altitude_m": 83.8,
        "Altitude_f": 274.94,
        "Address": "1281 Terminal Dr SW, Grand Rapids, MI 49503, USA",
        "Time_Stamp": "Apr 26, 2019 1:20 PM",
        "BigChain_Hash": "81730e44-bb2a-4323-9f36-316b1f04f41f",
        "Iota_Hash": "1e2c1132-42b1-4220-b37e-d9c1ddb92772",
        "Penta_Hash": "f5984a1d-a9b4-4bde-b1d5-48e23716400b",
        "Temperature_Sensor_C": 9.4,
        "Temperature_Sensor_F": 48.9,
        "Logged": "Apr 26, 2019 1:20 PM"
      },
      "timestamp": "2019-04-26T03:20:00.000Z"
    },
    {
      "measurement": "220226",
      "tags": {
        "Company": "Apples USA",
        "Project": "Apple IoT Test",
        "Tag_Data_Hash": "039af18d-2375-4f37-8843-637fabf12dc7",
        "SensorID": "220226"
      },
      "fields": {
        "SensorId": "221226",
        "Latitude": 42.93087,
        "Longitude": -85.68587,
        "Temperature_C": 9.5,
        "Temperature_F": 49.1,
        "Pressure": 980,
        "Ambient": 0,
        "Tilt_Shock": 4.45,
        "Relative_Humidity_Percent": 45,
        "Tamper": 1,
        "Altitude_m": 83.98,
        "Altitude_f": 275.54,
        "Address": "1856 Clyde Park Ave SW, Grand Rapids, MI 49509, USA",
        "Time_Stamp": "Apr 26, 2019 1:30 PM",
        "BigChain_Hash": "81730e44-bb2a-4323-9f36-316b1f04f41f",
        "Iota_Hash": "1e2c1132-42b1-4220-b37e-d9c1ddb92772",
        "Penta_Hash": "f5984a1d-a9b4-4bde-b1d5-48e23716400b",
        "Temperature_Sensor_C": 9.5,
        "Temperature_Sensor_F": 49.1,
        "Logged": "Apr 26, 2019 1:30 PM"
      },
      "timestamp": "2019-04-26T03:30:00.000Z"
    },
    {
      "measurement": "220226",
      "tags": {
        "Company": "Apples USA",
        "Project": "Apple IoT Test",
        "Tag_Data_Hash": "039af18d-2375-4f37-8843-637fabf12dc7",
        "SensorID": "220226"
      },
      "fields": {
        "SensorId": "221226",
        "Latitude": 42.93087,
        "Longitude": -85.68587,
        "Temperature_C": 9.5,
        "Temperature_F": 49.1,
        "Pressure": 980,
        "Ambient": 0,
        "Tilt_Shock": 4.45,
        "Relative_Humidity_Percent": 45,
        "Altitude_m": 83.98,
        "Altitude_f": 275.54,
        "Address": "1856 Clyde Park Ave SW, Grand Rapids, MI 49509, USA",
        "Time_Stamp": "Apr 26, 2019 1:30 PM",
        "BigChain_Hash": "81730e44-bb2a-4323-9f36-316b1f04f41f",
        "Iota_Hash": "1e2c1132-42b1-4220-b37e-d9c1ddb92772",
        "Penta_Hash": "f5984a1d-a9b4-4bde-b1d5-48e23716400b",
        "Temperature_Sensor_C": 9.5,
        "Temperature_Sensor_F": 49.1,
        "Logged": "Apr 26, 2019 1:30 PM"
      },
      "timestamp": "2019-04-26T03:30:00.000Z"
    },
    {
      "measurement": "220226",
      "tags": {
        "Company": "Apples USA",
        "Project": "Apple IoT Test",
        "Tag_Data_Hash": "039af18d-2375-4f37-8843-637fabf12dc7",
        "SensorID": "220226"
      },
      "fields": {
        "SensorId": "221226",
        "Latitude": 42.81198,
        "Longitude": -85.70238,
        "Temperature_C": 9.8,
        "Temperature_F": 49.6,
        "Pressure": 977,
        "Ambient": 0,
        "Tilt_Shock": 3.17,
        "Relative_Humidity_Percent": 45,
        "Tamper": 1,
        "Altitude_m": 92.28,
        "Altitude_f": 302.76,
        "Address": "8374 Burlingame Ave SW, Byron Center, MI 49315, USA",
        "Time_Stamp": "Apr 26, 2019 1:57 PM",
        "BigChain_Hash": "81730e44-bb2a-4323-9f36-316b1f04f41f",
        "Iota_Hash": "1e2c1132-42b1-4220-b37e-d9c1ddb92772",
        "Penta_Hash": "f5984a1d-a9b4-4bde-b1d5-48e23716400b",
        "Temperature_Sensor_C": 9.8,
        "Temperature_Sensor_F": 49.6,
        "Logged": "Apr 26, 2019 1:57 PM"
      },
      "timestamp": "2019-04-26T03:57:00.000Z"
    },
    {
      "measurement": "220226",
      "tags": {
        "Company": "Apples USA",
        "Project": "Apple IoT Test",
        "Tag_Data_Hash": "039af18d-2375-4f37-8843-637fabf12dc7",
        "SensorID": "220226"
      },
      "fields": {
        "SensorId": "221226",
        "Latitude": 42.81198,
        "Longitude": -85.70238,
        "Temperature_C": 9.8,
        "Temperature_F": 49.6,
        "Pressure": 977,
        "Ambient": 0,
        "Tilt_Shock": 3.17,
        "Relative_Humidity_Percent": 45,
        "Altitude_m": 92.28,
        "Altitude_f": 302.76,
        "Address": "8374 Burlingame Ave SW, Byron Center, MI 49315, USA",
        "Time_Stamp": "Apr 26, 2019 1:57 PM",
        "BigChain_Hash": "81730e44-bb2a-4323-9f36-316b1f04f41f",
        "Iota_Hash": "1e2c1132-42b1-4220-b37e-d9c1ddb92772",
        "Penta_Hash": "f5984a1d-a9b4-4bde-b1d5-48e23716400b",
        "Temperature_Sensor_C": 9.8,
        "Temperature_Sensor_F": 49.6,
        "Logged": "Apr 26, 2019 1:57 PM"
      },
      "timestamp": "2019-04-26T03:57:00.000Z"
    },
    {
      "measurement": "220226",
      "tags": {
        "Company": "Apples USA",
        "Project": "Apple IoT Test",
        "Tag_Data_Hash": "039af18d-2375-4f37-8843-637fabf12dc7",
        "SensorID": "220226"
      },
      "fields": {
        "SensorId": "221226",
        "Latitude": 42.81042,
        "Longitude": -85.72713,
        "Temperature_C": 9.7,
        "Temperature_F": 49.5,
        "Pressure": 976,
        "Ambient": 0,
        "Tilt_Shock": 3.98,
        "Relative_Humidity_Percent": 42,
        "Tamper": 1,
        "Altitude_m": 94.42,
        "Altitude_f": 309.79,
        "Address": "2630 Prescott St SW, Byron Center, MI 49315, USA",
        "Time_Stamp": "Apr 26, 2019 2:07 PM",
        "BigChain_Hash": "81730e44-bb2a-4323-9f36-316b1f04f41f",
        "Iota_Hash": "1e2c1132-42b1-4220-b37e-d9c1ddb92772",
        "Penta_Hash": "f5984a1d-a9b4-4bde-b1d5-48e23716400b",
        "Temperature_Sensor_C": 9.7,
        "Temperature_Sensor_F": 49.5,
        "Logged": "Apr 26, 2019 2:07 PM"
      },
      "timestamp": "2019-04-26T04:07:00.000Z"
    },
    {
      "measurement": "220226",
      "tags": {
        "Company": "Apples USA",
        "Project": "Apple IoT Test",
        "Tag_Data_Hash": "039af18d-2375-4f37-8843-637fabf12dc7",
        "SensorID": "220226"
      },
      "fields": {
        "SensorId": "221226",
        "Latitude": 42.81042,
        "Longitude": -85.72713,
        "Temperature_C": 9.7,
        "Temperature_F": 49.5,
        "Pressure": 976,
        "Ambient": 0,
        "Tilt_Shock": 3.98,
        "Relative_Humidity_Percent": 42,
        "Altitude_m": 94.42,
        "Altitude_f": 309.79,
        "Address": "2630 Prescott St SW, Byron Center, MI 49315, USA",
        "Time_Stamp": "Apr 26, 2019 2:07 PM",
        "BigChain_Hash": "81730e44-bb2a-4323-9f36-316b1f04f41f",
        "Iota_Hash": "1e2c1132-42b1-4220-b37e-d9c1ddb92772",
        "Penta_Hash": "f5984a1d-a9b4-4bde-b1d5-48e23716400b",
        "Temperature_Sensor_C": 9.7,
        "Temperature_Sensor_F": 49.5,
        "Logged": "Apr 26, 2019 2:07 PM"
      },
      "timestamp": "2019-04-26T04:07:00.000Z"
    },
    {
      "measurement": "220226",
      "tags": {
        "Company": "Apples USA",
        "Project": "Apple IoT Test",
        "Tag_Data_Hash": "039af18d-2375-4f37-8843-637fabf12dc7",
        "SensorID": "220226"
      },
      "fields": {
        "SensorId": "221226",
        "Latitude": 42.7863,
        "Longitude": -85.66843,
        "Temperature_C": 9.4,
        "Temperature_F": 48.9,
        "Pressure": 974,
        "Ambient": 0,
        "Tilt_Shock": 4.02,
        "Relative_Humidity_Percent": 44,
        "Tamper": 1,
        "Altitude_m": 100.05,
        "Altitude_f": 328.25,
        "Address": "9765 Division Ave S, Byron Center, MI 49315, USA",
        "Time_Stamp": "Apr 26, 2019 2:17 PM",
        "BigChain_Hash": "81730e44-bb2a-4323-9f36-316b1f04f41f",
        "Iota_Hash": "1e2c1132-42b1-4220-b37e-d9c1ddb92772",
        "Penta_Hash": "f5984a1d-a9b4-4bde-b1d5-48e23716400b",
        "Temperature_Sensor_C": 9.4,
        "Temperature_Sensor_F": 48.9,
        "Logged": "Apr 26, 2019 2:17 PM"
      },
      "timestamp": "2019-04-26T04:17:00.000Z"
    },
    {
      "measurement": "220226",
      "tags": {
        "Company": "Apples USA",
        "Project": "Apple IoT Test",
        "Tag_Data_Hash": "039af18d-2375-4f37-8843-637fabf12dc7",
        "SensorID": "220226"
      },
      "fields": {
        "SensorId": "221226",
        "Latitude": 42.7863,
        "Longitude": -85.66843,
        "Temperature_C": 9.4,
        "Temperature_F": 48.9,
        "Pressure": 974,
        "Ambient": 0,
        "Tilt_Shock": 4.02,
        "Relative_Humidity_Percent": 44,
        "Altitude_m": 100.05,
        "Altitude_f": 328.25,
        "Address": "9765 Division Ave S, Byron Center, MI 49315, USA",
        "Time_Stamp": "Apr 26, 2019 2:17 PM",
        "BigChain_Hash": "81730e44-bb2a-4323-9f36-316b1f04f41f",
        "Iota_Hash": "1e2c1132-42b1-4220-b37e-d9c1ddb92772",
        "Penta_Hash": "f5984a1d-a9b4-4bde-b1d5-48e23716400b",
        "Temperature_Sensor_C": 9.4,
        "Temperature_Sensor_F": 48.9,
        "Logged": "Apr 26, 2019 2:17 PM"
      },
      "timestamp": "2019-04-26T04:17:00.000Z"
    },
    {
      "measurement": "220226",
      "tags": {
        "Company": "Apples USA",
        "Project": "Apple IoT Test",
        "Tag_Data_Hash": "039af18d-2375-4f37-8843-637fabf12dc7",
        "SensorID": "220226"
      },
      "fields": {
        "SensorId": "221226",
        "Latitude": 42.62434,
        "Longitude": -85.6629,
        "Temperature_C": 9.4,
        "Temperature_F": 48.9,
        "Pressure": 975,
        "Ambient": 0,
        "Tilt_Shock": 7.53,
        "Relative_Humidity_Percent": 45,
        "Tamper": 1,
        "Altitude_m": 97.33,
        "Altitude_f": 319.32,
        "Address": "2804 12th St, Shelbyville, MI 49344, USA",
        "Time_Stamp": "Apr 26, 2019 2:28 PM",
        "BigChain_Hash": "81730e44-bb2a-4323-9f36-316b1f04f41f",
        "Iota_Hash": "1e2c1132-42b1-4220-b37e-d9c1ddb92772",
        "Penta_Hash": "f5984a1d-a9b4-4bde-b1d5-48e23716400b",
        "Temperature_Sensor_C": 9.4,
        "Temperature_Sensor_F": 48.9,
        "Logged": "Apr 26, 2019 2:28 PM"
      },
      "timestamp": "2019-04-26T04:28:00.000Z"
    },
    {
      "measurement": "220226",
      "tags": {
        "Company": "Apples USA",
        "Project": "Apple IoT Test",
        "Tag_Data_Hash": "039af18d-2375-4f37-8843-637fabf12dc7",
        "SensorID": "220226"
      },
      "fields": {
        "SensorId": "221226",
        "Latitude": 42.62434,
        "Longitude": -85.6629,
        "Temperature_C": 9.4,
        "Temperature_F": 48.9,
        "Pressure": 975,
        "Ambient": 0,
        "Tilt_Shock": 7.53,
        "Relative_Humidity_Percent": 45,
        "Altitude_m": 97.33,
        "Altitude_f": 319.32,
        "Address": "2804 12th St, Shelbyville, MI 49344, USA",
        "Time_Stamp": "Apr 26, 2019 2:28 PM",
        "BigChain_Hash": "81730e44-bb2a-4323-9f36-316b1f04f41f",
        "Iota_Hash": "1e2c1132-42b1-4220-b37e-d9c1ddb92772",
        "Penta_Hash": "f5984a1d-a9b4-4bde-b1d5-48e23716400b",
        "Temperature_Sensor_C": 9.4,
        "Temperature_Sensor_F": 48.9,
        "Logged": "Apr 26, 2019 2:28 PM"
      },
      "timestamp": "2019-04-26T04:28:00.000Z"
    },
    {
      "measurement": "220226",
      "tags": {
        "Company": "Apples USA",
        "Project": "Apple IoT Test",
        "Tag_Data_Hash": "039af18d-2375-4f37-8843-637fabf12dc7",
        "SensorID": "220226"
      },
      "fields": {
        "SensorId": "221226",
        "Latitude": 42.59468,
        "Longitude": -85.66355,
        "Temperature_C": 9.4,
        "Temperature_F": 48.9,
        "Pressure": 974,
        "Ambient": 0,
        "Tilt_Shock": 4.99,
        "Relative_Humidity_Percent": 42,
        "Tamper": 1,
        "Altitude_m": 99.34,
        "Altitude_f": 325.93,
        "Address": "2412 12th St, Shelbyville, MI 49344, USA",
        "Time_Stamp": "Apr 26, 2019 2:38 PM",
        "BigChain_Hash": "81730e44-bb2a-4323-9f36-316b1f04f41f",
        "Iota_Hash": "1e2c1132-42b1-4220-b37e-d9c1ddb92772",
        "Penta_Hash": "f5984a1d-a9b4-4bde-b1d5-48e23716400b",
        "Temperature_Sensor_C": 9.4,
        "Temperature_Sensor_F": 48.9,
        "Logged": "Apr 26, 2019 2:38 PM"
      },
      "timestamp": "2019-04-26T04:38:00.000Z"
    },
    {
      "measurement": "220226",
      "tags": {
        "Company": "Apples USA",
        "Project": "Apple IoT Test",
        "Tag_Data_Hash": "039af18d-2375-4f37-8843-637fabf12dc7",
        "SensorID": "220226"
      },
      "fields": {
        "SensorId": "221226",
        "Latitude": 42.59468,
        "Longitude": -85.66355,
        "Temperature_C": 9.4,
        "Temperature_F": 48.9,
        "Pressure": 974,
        "Ambient": 0,
        "Tilt_Shock": 4.99,
        "Relative_Humidity_Percent": 42,
        "Altitude_m": 99.34,
        "Altitude_f": 325.93,
        "Address": "2412 12th St, Shelbyville, MI 49344, USA",
        "Time_Stamp": "Apr 26, 2019 2:38 PM",
        "BigChain_Hash": "81730e44-bb2a-4323-9f36-316b1f04f41f",
        "Iota_Hash": "1e2c1132-42b1-4220-b37e-d9c1ddb92772",
        "Penta_Hash": "f5984a1d-a9b4-4bde-b1d5-48e23716400b",
        "Temperature_Sensor_C": 9.4,
        "Temperature_Sensor_F": 48.9,
        "Logged": "Apr 26, 2019 2:38 PM"
      },
      "timestamp": "2019-04-26T04:38:00.000Z"
    },
    {
      "measurement": "220226",
      "tags": {
        "Company": "Apples USA",
        "Project": "Apple IoT Test",
        "Tag_Data_Hash": "039af18d-2375-4f37-8843-637fabf12dc7",
        "SensorID": "220226"
      },
      "fields": {
        "SensorId": "221226",
        "Latitude": 42.42815,
        "Longitude": -85.66092,
        "Temperature_C": 9,
        "Temperature_F": 48.2,
        "Pressure": 976,
        "Ambient": 0,
        "Tilt_Shock": 7.27,
        "Relative_Humidity_Percent": 44,
        "Tamper": 1,
        "Altitude_m": 95.39,
        "Altitude_f": 312.97,
        "Address": "US-131, Plainwell, MI 49080, USA",
        "Time_Stamp": "Apr 26, 2019 2:48 PM",
        "BigChain_Hash": "81730e44-bb2a-4323-9f36-316b1f04f41f",
        "Iota_Hash": "1e2c1132-42b1-4220-b37e-d9c1ddb92772",
        "Penta_Hash": "f5984a1d-a9b4-4bde-b1d5-48e23716400b",
        "Temperature_Sensor_C": 9,
        "Temperature_Sensor_F": 48.2,
        "Logged": "Apr 26, 2019 2:48 PM"
      },
      "timestamp": "2019-04-26T04:48:00.000Z"
    },
    {
      "measurement": "220226",
      "tags": {
        "Company": "Apples USA",
        "Project": "Apple IoT Test",
        "Tag_Data_Hash": "039af18d-2375-4f37-8843-637fabf12dc7",
        "SensorID": "220226"
      },
      "fields": {
        "SensorId": "221226",
        "Latitude": 42.42815,
        "Longitude": -85.66092,
        "Temperature_C": 9,
        "Temperature_F": 48.2,
        "Pressure": 976,
        "Ambient": 0,
        "Tilt_Shock": 7.27,
        "Relative_Humidity_Percent": 44,
        "Altitude_m": 95.39,
        "Altitude_f": 312.97,
        "Address": "US-131, Plainwell, MI 49080, USA",
        "Time_Stamp": "Apr 26, 2019 2:48 PM",
        "BigChain_Hash": "81730e44-bb2a-4323-9f36-316b1f04f41f",
        "Iota_Hash": "1e2c1132-42b1-4220-b37e-d9c1ddb92772",
        "Penta_Hash": "f5984a1d-a9b4-4bde-b1d5-48e23716400b",
        "Temperature_Sensor_C": 9,
        "Temperature_Sensor_F": 48.2,
        "Logged": "Apr 26, 2019 2:48 PM"
      },
      "timestamp": "2019-04-26T04:48:00.000Z"
    },
    {
      "measurement": "220226",
      "tags": {
        "Company": "Apples USA",
        "Project": "Apple IoT Test",
        "Tag_Data_Hash": "039af18d-2375-4f37-8843-637fabf12dc7",
        "SensorID": "220226"
      },
      "fields": {
        "SensorId": "221226",
        "Latitude": 42.25349,
        "Longitude": -85.64603,
        "Temperature_C": 9.3,
        "Temperature_F": 48.7,
        "Pressure": 969,
        "Ambient": 0,
        "Tilt_Shock": 3.21,
        "Relative_Humidity_Percent": 45,
        "Tamper": 1,
        "Altitude_m": 112.89,
        "Altitude_f": 370.36,
        "Address": "3911 S 12th St, Kalamazoo, MI 49009, USA",
        "Time_Stamp": "Apr 26, 2019 2:59 PM",
        "BigChain_Hash": "81730e44-bb2a-4323-9f36-316b1f04f41f",
        "Iota_Hash": "1e2c1132-42b1-4220-b37e-d9c1ddb92772",
        "Penta_Hash": "f5984a1d-a9b4-4bde-b1d5-48e23716400b",
        "Temperature_Sensor_C": 9.3,
        "Temperature_Sensor_F": 48.7,
        "Logged": "Apr 26, 2019 2:59 PM"
      },
      "timestamp": "2019-04-26T04:59:00.000Z"
    },
    {
      "measurement": "220226",
      "tags": {
        "Company": "Apples USA",
        "Project": "Apple IoT Test",
        "Tag_Data_Hash": "039af18d-2375-4f37-8843-637fabf12dc7",
        "SensorID": "220226"
      },
      "fields": {
        "SensorId": "221226",
        "Latitude": 42.25349,
        "Longitude": -85.64603,
        "Temperature_C": 9.3,
        "Temperature_F": 48.7,
        "Pressure": 969,
        "Ambient": 0,
        "Tilt_Shock": 3.21,
        "Relative_Humidity_Percent": 45,
        "Altitude_m": 112.89,
        "Altitude_f": 370.36,
        "Address": "3911 S 12th St, Kalamazoo, MI 49009, USA",
        "Time_Stamp": "Apr 26, 2019 2:59 PM",
        "BigChain_Hash": "81730e44-bb2a-4323-9f36-316b1f04f41f",
        "Iota_Hash": "1e2c1132-42b1-4220-b37e-d9c1ddb92772",
        "Penta_Hash": "f5984a1d-a9b4-4bde-b1d5-48e23716400b",
        "Temperature_Sensor_C": 9.3,
        "Temperature_Sensor_F": 48.7,
        "Logged": "Apr 26, 2019 2:59 PM"
      },
      "timestamp": "2019-04-26T04:59:00.000Z"
    },
    {
      "measurement": "220226",
      "tags": {
        "Company": "Apples USA",
        "Project": "Apple IoT Test",
        "Tag_Data_Hash": "039af18d-2375-4f37-8843-637fabf12dc7",
        "SensorID": "220226"
      },
      "fields": {
        "SensorId": "221226",
        "Latitude": 42.26962,
        "Longitude": -85.44782,
        "Temperature_C": 9.1,
        "Temperature_F": 48.4,
        "Pressure": 973,
        "Ambient": 0,
        "Tilt_Shock": 6.71,
        "Relative_Humidity_Percent": 43,
        "Tamper": 1,
        "Altitude_m": 103.04,
        "Altitude_f": 338.05,
        "Address": "I-94, Galesburg, MI 49053, USA",
        "Time_Stamp": "Apr 26, 2019 3:09 PM",
        "BigChain_Hash": "81730e44-bb2a-4323-9f36-316b1f04f41f",
        "Iota_Hash": "1e2c1132-42b1-4220-b37e-d9c1ddb92772",
        "Penta_Hash": "f5984a1d-a9b4-4bde-b1d5-48e23716400b",
        "Temperature_Sensor_C": 9.1,
        "Temperature_Sensor_F": 48.4,
        "Logged": "Apr 26, 2019 3:09 PM"
      },
      "timestamp": "2019-04-26T05:09:00.000Z"
    }
  ]