SensorID,Latitude,Longitude,Battery (%),Temperature (C),Temperature (F),Pressure (hPa),Ambient (%),Tilt Shock,Relative Humidity (%),Tamper,Altitude (m),Altitude (feet),SHK,X,Y,Z,Resultant,Address,Date Logged (AET (+10:00)),Time,Time (UTC +00:00)
220226,42.874024,-85.877029,86,14,57.2,980.98,5,-7.78,35,,82.97,272.2,5,-72,80,-884,890.53,"3828 Kentucky Ln, Hudsonville, MI 49426, USA",26/04/2019 12:06,"Apr 26, 2019 12:06 PM PDT","Apr 26, 2019 7:06 PM"
220226,42.874024,-85.877029,86,14,57.2,980.98,46,-7.78,35,,82.97,272.2,5,-72,80,-884,890.53,"3828 Kentucky Ln, Hudsonville, MI 49426, USA",26/04/2019 13:04,"Apr 26, 2019 1:04 PM PDT","Apr 26, 2019 8:04 PM"
220226,42.874024,-85.877029,82,14,57.2,980.98,1,-7.78,35,,82.97,272.2,5,-72,80,-884,890.53,"3828 Kentucky Ln, Hudsonville, MI 49426, USA",26/04/2019 13:04,"Apr 26, 2019 1:04 PM PDT","Apr 26, 2019 8:04 PM"
220226,42.874024,-85.877029,86,14,57.2,980.98,82,-7.78,35,,82.97,272.2,5,-72,80,-884,890.53,"3828 Kentucky Ln, Hudsonville, MI 49426, USA",26/04/2019 13:17,"Apr 26, 2019 1:17 PM PDT","Apr 26, 2019 8:17 PM"
220226,42.874024,-85.877029,86,14,57.2,980.98,82,-7.78,35,,82.97,272.2,5,345,-188,-573,694.76,"3828 Kentucky Ln, Hudsonville, MI 49426, USA",26/04/2019 13:30,"Apr 26, 2019 1:30 PM PDT","Apr 26, 2019 8:30 PM"
220226,42.270025,-85.64527,86,14,57.2,980.98,82,-7.78,35,,82.97,272.2,5,423,71,-874,973.57,"4500 Stadium Dr, Kalamazoo, MI 49008, USA",26/04/2019 14:16,"Apr 26, 2019 2:16 PM PDT","Apr 26, 2019 9:16 PM"
