﻿Date Logged (AET (+10:00)),Date Received (AET (+10:00)),Log Reason,Latitude,Longitude,Speed KmH,Used Speed Limit (KmH),Speed Band,Speed Accuracy (KmH),Heading Degrees,Altitude (m),Position Accuracy (m),PDOP Raw,Ignition,Gps Status Fix OK,Gps Status Fix 3D,Digital Inputs,Digital Outputs,Driver Id Type,Driver Id Data,Trip Type Code,Project Code,Analog 1,Analog 2,Analog 3,Analog 4,Analog 5,Analog 6,Analog 7,Analog 8,Analog 9,Analog 10,Analog 11,Analog 12,Analog 13,Analog 14,Analog 15,Analog 16,Analog 17,Analog 18,Analog 19,Analog 20
23/04/2019 04:08,23/04/2019 04:08,Heartbeat Status,33.7478964,-84.3766483,0,,,2.52,0,318,40,22,Off,True,True,00000010000000000000000000000000,000000000000000000,,,,,4 002,,2 307,4,,,,,,,0,0,0,0,0,,,,,
23/04/2019 06:39,23/04/2019 06:40,Start Of Trip,33.7478964,-84.3766483,0,,,2.52,0,318,40,22,On,True,True,00000011000000000000000000000001,000000000000000000,,,,,4 008,,2 208,5,,,,,,,1,0,22,462,1,,,,,
23/04/2019 06:40,23/04/2019 06:40,Distance Travelled,33.7468472,-84.3791895,28,,,0.36,262,313,11,16,On,True,True,00000011000000000000000000000001,000000000000000000,,,,,4 008,,2 208,5,,,,,,,1,0,22,462,1,,,,,
23/04/2019 06:42,23/04/2019 06:51,Elapsed Time,33.7419461,-84.3907223,0,,,0.72,0,307,13,23,On,True,True,00000011000000000000000000000001,000000000000000000,,,,,4 007,,2 253,13,,,,,,,2,0,23,469,1,,,,,
23/04/2019 06:44,23/04/2019 06:51,Elapsed Time,33.7433726,-84.3980444,0,,,1.80,312,398,48,19,On,True,True,00000011000000000000000000000001,000000000000000000,,,,,4 002,,2 296,13,,,,,,,2,0,24,474,1,,,,,
23/04/2019 06:46,23/04/2019 06:51,Elapsed Time,33.7435022,-84.3985075,0,,,1.80,102,280,23,16,On,True,True,00000011000000000000000000000001,000000000000000000,,,,,4 006,,2 317,13,,,,,,,2,0,25,479,1,,,,,
23/04/2019 06:48,23/04/2019 06:51,Elapsed Time,33.7436346,-84.3987295,1,,,3.60,0,320,49,19,On,True,True,00000011000000000000000000000001,000000000000000000,,,,,4 006,,2 346,13,,,,,,,2,0,26,485,1,,,,,
23/04/2019 06:50,23/04/2019 06:51,End Of Trip,33.7434710,-84.3984306,0,,,3.96,0,314,34,23,Off,True,True,00000010000000000000000000000000,000000000000000000,,,,,4 005,,2 385,13,,,,,,,2,0,27,509,1,,,,,
23/04/2019 08:40,23/04/2019 08:41,Start Of Trip,33.7434710,-84.3984306,0,,,3.96,0,314,34,23,On,True,True,00000011000000000000000000000001,000000000000000000,,,,,4 004,,2 694,29,,,,,,,3,0,50,1 278,2,,,,,
23/04/2019 08:40,23/04/2019 08:41,Distance Travelled,33.7442156,-84.3979836,32,,,1.44,0,299,17,20,On,True,True,00000011000000000000000000000001,000000000000000000,,,,,4 004,,2 694,29,,,,,,,3,0,50,1 278,2,,,,,
23/04/2019 08:43,23/04/2019 08:54,Elapsed Time,33.7509259,-84.3948193,25,,,1.80,30,336,39,23,On,True,True,00000011000000000000000000000001,000000000000000000,,,,,4 006,,2 680,26,,,,,,,4,0,51,1 294,2,,,,,
23/04/2019 08:45,23/04/2019 08:54,Elapsed Time,33.7558374,-84.3912376,0,,,1.80,0,356,29,31,On,True,True,00000011000000000000000000000001,000000000000000000,,,,,4 005,,2 681,26,,,,,,,4,0,52,1 299,2,,,,,
23/04/2019 08:47,23/04/2019 08:54,Elapsed Time,33.7595762,-84.3904865,9,,,3.60,2,324,29,31,On,True,True,00000011000000000000000000000001,000000000000000000,,,,,4 002,,2 719,26,,,,,,,4,0,53,1 320,2,,,,,
23/04/2019 08:53,23/04/2019 08:54,End Of Trip,33.7609183,-84.3903685,20,,,2.16,22,339,21,32,Off,True,True,00000010000000000000000000000000,000000000000000000,,,,,4 004,,2 703,26,,,,,,,4,0,55,1 441,2,,,,,
23/04/2019 09:12,23/04/2019 09:14,Start Of Trip,33.7609183,-84.3903685,20,,,2.16,22,339,21,32,On,True,True,00000011000000000000000000000001,000000000000000000,,,,,4 008,,2 673,10,,,,,,,5,0,59,1 596,3,,,,,
23/04/2019 09:13,23/04/2019 09:14,Distance Travelled,33.7582875,-84.3876733,2,,,4.68,12,426,23,19,On,True,True,00000011000000000000000000000001,000000000000000000,,,,,4 008,,2 673,10,,,,,,,5,0,59,1 596,3,,,,,
23/04/2019 09:15,23/04/2019 09:20,Elapsed Time,33.7578394,-84.3896705,11,,,1.08,80,539,46,22,On,True,True,00000011000000000000000000000001,000000000000000000,,,,,4 002,,2 736,11,,,,,,,6,0,60,1 626,3,,,,,
23/04/2019 09:18,23/04/2019 09:20,Elapsed Time,33.7570095,-84.3867286,0,,,1.80,344,509,49,17,On,True,True,00000011000000000000000000000001,000000000000000000,,,,,4 003,,2 750,11,,,,,,,6,0,61,1 673,3,,,,,
23/04/2019 09:20,23/04/2019 09:20,End Of Trip,33.7570830,-84.3863340,0,,,3.24,140,316,48,23,Off,True,True,00000010000000000000000000000000,000000000000000000,,,,,4 001,,2 750,11,,,,,,,6,0,62,1 704,3,,,,,
23/04/2019 09:45,23/04/2019 09:49,Start Of Trip,33.7570830,-84.3863340,0,,,3.24,140,316,48,23,On,True,True,00000011000000000000000000000001,000000000000000000,,,,,4 003,,2 720,11,,,,,,,7,0,68,1 955,4,,,,,
23/04/2019 09:47,23/04/2019 09:49,Distance Travelled,33.7615582,-84.3855562,0,,,3.24,134,519,35,30,On,True,True,00000011000000000000000000000001,000000000000000000,,,,,4 003,,2 720,11,,,,,,,7,0,68,1 955,4,,,,,
23/04/2019 09:49,23/04/2019 09:55,Elapsed Time,33.7618758,-84.3855881,0,,,4.32,138,461,44,21,On,True,True,00000011000000000000000000000001,000000000000000000,,,,,3 999,,2 810,9,,,,,,,8,0,69,1 972,4,,,,,
23/04/2019 09:52,23/04/2019 09:55,Elapsed Time,33.7623596,-84.3861399,0,,,3.60,144,296,35,34,On,True,True,00000011000000000000000000000001,000000000000000000,,,,,4 003,,2 766,9,,,,,,,8,0,70,1 993,4,,,,,
23/04/2019 09:54,23/04/2019 09:55,End Of Trip,33.7610506,-84.3848952,0,,,4.32,138,367,37,32,Off,True,True,00000010000000000000000000000000,000000000000000000,,,,,4 000,,2 780,9,,,,,,,8,0,71,2 012,4,,,,,
23/04/2019 10:08,23/04/2019 10:10,Start Of Trip,33.7610506,-84.3848952,0,,,4.32,138,367,37,32,On,True,True,00000011000000000000000000000001,000000000000000000,,,,,4 004,,2 746,9,,,,,,,9,0,75,2 074,5,,,,,
23/04/2019 10:10,23/04/2019 10:10,Distance Travelled,33.7575243,-84.3860992,0,,,2.16,0,514,30,18,On,True,True,00000011000000000000000000000001,000000000000000000,,,,,4 004,,2 746,9,,,,,,,9,0,75,2 074,5,,,,,
23/04/2019 10:12,23/04/2019 10:41,Elapsed Time,33.7584284,-84.3798275,35,,,1.44,96,305,21,21,On,True,True,00000011000000000000000000000001,000000000000000000,,,,,4 000,,2 788,16,,,,,,,10,0,76,2 085,5,,,,,
23/04/2019 10:14,23/04/2019 10:41,Elapsed Time,33.7422482,-84.3922701,2,,,1.08,186,281,25,21,On,True,True,00000011000000000000000000000001,000000000000000000,,,,,4 004,,2 751,16,,,,,,,10,0,77,2 091,5,,,,,
23/04/2019 10:16,23/04/2019 10:41,Elapsed Time,33.7436579,-84.3984364,0,,,2.16,0,289,34,23,On,True,True,00000011000000000000000000000001,000000000000000000,,,,,4 004,,2 725,16,,,,,,,10,0,78,2 095,5,,,,,
23/04/2019 10:18,23/04/2019 10:41,Elapsed Time,33.7437813,-84.3987999,0,,,1.80,0,302,35,23,On,True,True,00000011000000000000000000000001,000000000000000000,,,,,4 003,,2 733,16,,,,,,,10,0,79,2 099,5,,,,,
23/04/2019 10:20,23/04/2019 10:41,Elapsed Time,33.7435215,-84.3996114,10,,,1.08,64,300,33,22,On,True,True,00000011000000000000000000000001,000000000000000000,,,,,4 003,,2 730,16,,,,,,,10,0,80,2 104,5,,,,,
23/04/2019 10:22,23/04/2019 10:41,Elapsed Time,33.7447801,-84.3957301,45,,,1.44,94,287,36,23,On,True,True,00000011000000000000000000000001,000000000000000000,,,,,4 002,,2 729,16,,,,,,,10,0,81,2 144,5,,,,,
23/04/2019 10:24,23/04/2019 10:41,Elapsed Time,33.7257488,-84.3940128,95,,,0.72,184,297,24,23,On,True,True,00000011000000000000000000000001,000000000000000000,,,,,4 001,,2 744,16,,,,,,,10,0,82,2 148,5,,,,,
23/04/2019 10:26,23/04/2019 10:41,Elapsed Time,33.6975479,-84.4049699,94,,,1.44,188,294,47,18,On,True,True,00000011000000000000000000000001,000000000000000000,,,,,3 998,,2 762,16,,,,,,,10,0,83,2 154,5,,,,,
23/04/2019 10:28,23/04/2019 10:41,Elapsed Time,33.6669335,-84.3973603,98,,,1.44,160,276,25,27,On,True,True,00000011000000000000000000000001,000000000000000000,,,,,4 003,,2 726,16,,,,,,,10,0,84,2 157,5,,,,,
23/04/2019 10:31,23/04/2019 10:41,Elapsed Time,33.6415366,-84.4016657,19,,,1.08,184,259,18,18,On,True,True,00000011000000000000000000000001,000000000000000000,,,,,4 004,,2 727,16,,,,,,,10,0,85,2 164,5,,,,,
23/04/2019 10:33,23/04/2019 10:41,Elapsed Time,33.6402147,-84.3929391,33,,,0.72,88,302,33,17,On,True,True,00000011000000000000000000000001,000000000000000000,,,,,4 006,,2 710,16,,,,,,,10,0,86,2 169,5,,,,,
23/04/2019 10:35,23/04/2019 10:41,Elapsed Time,33.6329216,-84.3902095,26,,,1.08,276,289,20,18,On,True,True,00000011000000000000000000000001,000000000000000000,,,,,4 000,,2 754,16,,,,,,,10,0,87,2 173,5,,,,,
23/04/2019 10:38,23/04/2019 10:41,Elapsed Time,33.6333377,-84.3916435,0,,,4.68,24,301,32,41,On,True,True,00000011000000000000000000000001,000000000000000000,,,,,3 998,,2 764,16,,,,,,,10,0,88,2 179,5,,,,,
23/04/2019 10:40,23/04/2019 10:41,End Of Trip,33.6329927,-84.3920285,3,,,4.68,248,294,40,28,Off,True,True,00000010000000000000000000000000,000000000000000000,,,,,4 003,,2 710,16,,,,,,,10,0,89,2 233,5,,,,,
23/04/2019 12:06,23/04/2019 15:19,Start Of Trip,33.6329927,-84.3920285,3,,,4.68,248,294,40,28,On,True,True,00000011000000000000000000000001,000000000000000000,,,,,4 001,,2 585,12,,,,,,,11,0,112,2 946,6,,,,,
23/04/2019 12:15,23/04/2019 15:19,Distance Travelled,33.6524839,-84.4089290,19,,,3.60,252,307,28,18,On,True,True,00000011000000000000000000000001,000000000000000000,,,,,4 001,,2 585,12,,,,,,,11,0,112,2 946,6,,,,,
23/04/2019 12:21,23/04/2019 15:19,Elapsed Time,33.6552511,-84.4151945,0,,,3.96,336,274,28,16,On,True,True,00000011000000000000000000000001,000000000000000000,,,,,3 997,,2 658,12,,,,,,,11,1,113,2 974,6,,,,,
23/04/2019 12:23,23/04/2019 15:19,Elapsed Time,33.6549759,-84.4151458,2,,,3.24,0,318,40,18,On,True,True,00000011000000000000000000000001,000000000000000000,,,,,4 000,,2 618,12,,,,,,,11,1,114,2 992,6,,,,,
23/04/2019 12:25,23/04/2019 15:19,Elapsed Time,33.6549458,-84.4158884,0,,,4.68,0,299,34,19,On,True,True,00000011000000000000000000000001,000000000000000000,,,,,3 999,,2 613,12,,,,,,,11,1,115,3 008,6,,,,,
23/04/2019 12:28,23/04/2019 15:19,End Of Trip,33.6549935,-84.4155592,0,,,4.68,354,267,43,31,Off,True,True,00000010000000000000000000000000,000000000000000000,,,,,3 995,,2 655,12,,,,,,,11,1,116,3 029,6,,,,,
23/04/2019 15:18,23/04/2019 15:19,Start Of Trip,39.7111560,-86.2873017,0,,,4.68,0,232,19,17,On,True,True,00000011000000000000000000000001,000000000000000000,,,,,3 998,,2 286,12,,,,,,,11,2,147,4 716,7,,,,,
23/04/2019 15:20,23/04/2019 15:30,Elapsed Time,39.7108942,-86.2849672,21,,,4.32,94,265,33,15,On,True,True,00000011000000000000000000000001,000000000000000000,,,,,3 996,,2 321,9,,,,,,,12,2,148,4 779,7,,,,,
23/04/2019 15:23,23/04/2019 15:30,Elapsed Time,39.7147759,-86.2801810,4,,,3.96,0,301,49,20,On,True,True,00000011000000000000000000000001,000000000000000000,,,,,3 997,,2 316,9,,,,,,,12,2,149,4 825,7,,,,,
23/04/2019 15:25,23/04/2019 15:30,Elapsed Time,39.7149647,-86.2801811,0,,,3.24,0,265,41,19,On,True,True,00000011000000000000000000000001,000000000000000000,,,,,3 996,,2 299,9,,,,,,,12,2,150,4 869,7,,,,,
23/04/2019 15:27,23/04/2019 15:30,Elapsed Time,39.7148268,-86.2798432,2,,,3.96,48,234,43,19,On,True,True,00000011000000000000000000000001,000000000000000000,,,,,3 994,,2 320,9,,,,,,,12,2,151,4 875,7,,,,,
23/04/2019 15:30,23/04/2019 15:30,End Of Trip,39.7148268,-86.2798432,2,,,3.96,48,234,43,19,Off,True,True,00000010000000000000000000000000,000000000000000000,,,,,3 997,,2 284,9,,,,,,,12,2,152,4 880,7,,,,,
23/04/2019 15:55,23/04/2019 15:57,Start Of Trip,39.7148268,-86.2798432,2,,,3.96,48,234,43,19,On,True,True,00000011000000000000000000000001,000000000000000000,,,,,3 993,,2 366,9,,,,,,,13,2,161,5 445,8,,,,,
23/04/2019 15:56,23/04/2019 15:57,Distance Travelled,39.7174420,-86.2752937,0,,,3.24,0,161,29,17,On,True,True,00000011000000000000000000000001,000000000000000000,,,,,3 993,,2 366,9,,,,,,,13,2,161,5 445,8,,,,,
23/04/2019 16:02,23/04/2019 16:03,End Of Trip,39.7174018,-86.2754421,0,,,2.88,0,169,27,17,Off,True,True,00000010000000000000000000000000,000000000000000000,,,,,3 992,,2 383,9,,,,,,,14,2,163,5 566,8,,,,,
23/04/2019 16:52,23/04/2019 16:54,Start Of Trip,39.7174018,-86.2754421,0,,,2.88,0,169,27,17,On,True,True,00000011000000000000000000000001,000000000000000000,,,,,3 997,,2 304,6,,,,,,,15,2,173,5 848,9,,,,,
23/04/2019 16:54,23/04/2019 16:54,Distance Travelled,39.7152630,-86.2798862,16,,,3.24,218,267,30,16,On,True,True,00000011000000000000000000000001,000000000000000000,,,,,3 997,,2 304,6,,,,,,,15,2,173,5 848,9,,,,,
23/04/2019 16:56,23/04/2019 17:03,Elapsed Time,39.7115134,-86.2847135,15,,,3.96,220,247,45,16,On,True,True,00000011000000000000000000000001,000000000000000000,,,,,3 994,,2 316,13,,,,,,,16,2,174,5 881,9,,,,,
23/04/2019 16:58,23/04/2019 17:03,Elapsed Time,39.7090530,-86.2876169,0,,,4.68,2,259,38,24,On,True,True,00000011000000000000000000000001,000000000000000000,,,,,3 992,,2 331,13,,,,,,,16,2,175,5 933,9,,,,,
23/04/2019 17:01,23/04/2019 17:03,Elapsed Time,39.7093656,-86.2874197,0,,,3.96,356,218,36,16,On,True,True,00000011000000000000000000000001,000000000000000000,,,,,3 991,,2 334,13,,,,,,,16,2,176,6 002,9,,,,,
23/04/2019 17:03,23/04/2019 17:03,End Of Trip,39.7092050,-86.2872449,0,,,4.32,0,216,33,16,Off,True,True,00000010000000000000000000000000,000000000000000000,,,,,3 995,,2 277,13,,,,,,,16,2,177,6 018,9,,,,,
23/04/2019 20:25,27/04/2019 01:45,Start Of Trip,42.8844415,-85.5059794,0,,,3.96,280,242,30,18,On,True,True,00000011000000000000000000000001,000000000000000000,,,,,3 991,,2 108,13,,,,,,,17,2,200,7 116,10,,,,,
23/04/2019 20:28,27/04/2019 01:45,Elapsed Time,42.8843429,-85.5058620,0,,,2.52,160,264,45,17,On,True,True,00000011000000000000000000000001,000000000000000000,,,,,3 988,,2 188,13,,,,,,,17,3,201,7 193,10,,,,,
23/04/2019 20:31,27/04/2019 01:45,End Of Trip,42.8843861,-85.5055086,11,,,1.80,4,246,39,16,Off,True,True,00000010000000000000000000000000,000000000000000000,,,,,3 992,,2 147,13,,,,,,,17,3,202,7 229,10,,,,,
23/04/2019 20:51,27/04/2019 01:45,Start Of Trip,42.8843861,-85.5055086,11,,,1.80,4,246,39,16,On,True,True,00000011000000000000000000000001,000000000000000000,,,,,3 991,,2 110,13,,,,,,,17,4,207,7 396,11,,,,,
23/04/2019 20:51,27/04/2019 01:45,Distance Travelled,42.8859358,-85.5079695,27,,,2.16,352,225,30,16,On,True,True,00000011000000000000000000000001,000000000000000000,,,,,3 991,,2 110,13,,,,,,,17,4,207,7 396,11,,,,,
23/04/2019 20:55,27/04/2019 01:45,Elapsed Time,42.8978912,-85.5202236,11,,,1.80,280,251,45,18,On,True,True,00000011000000000000000000000001,000000000000000000,,,,,3 987,,2 197,13,,,,,,,17,5,208,7 411,11,,,,,
23/04/2019 20:57,27/04/2019 01:45,Elapsed Time,42.8983629,-85.5333781,70,,,1.44,268,242,46,20,On,True,True,00000011000000000000000000000001,000000000000000000,,,,,3 992,,2 129,13,,,,,,,17,5,209,7 425,11,,,,,
23/04/2019 20:59,27/04/2019 01:45,Elapsed Time,42.8980532,-85.5475869,0,,,3.96,0,239,48,22,On,True,True,00000011000000000000000000000001,000000000000000000,,,,,3 993,,2 129,13,,,,,,,17,5,210,7 442,11,,,,,
23/04/2019 21:01,27/04/2019 01:45,Elapsed Time,42.8757846,-85.5468328,79,,,4.68,178,225,34,18,On,True,True,00000011000000000000000000000001,000000000000000000,,,,,3 988,,2 148,13,,,,,,,17,5,211,7 451,11,,,,,
23/04/2019 21:04,27/04/2019 01:45,Elapsed Time,42.8712644,-85.5526258,0,,,4.32,326,234,33,14,On,True,True,00000011000000000000000000000001,000000000000000000,,,,,3 992,,2 126,13,,,,,,,17,5,212,7 462,11,,,,,
23/04/2019 21:06,27/04/2019 01:45,Elapsed Time,42.8709712,-85.5525005,2,,,4.68,0,221,47,19,On,True,True,00000011000000000000000000000001,000000000000000000,,,,,3 992,,2 115,13,,,,,,,17,5,213,7 476,11,,,,,
23/04/2019 21:08,27/04/2019 01:45,Elapsed Time,42.8711463,-85.5527111,0,,,4.68,0,210,41,15,On,True,True,00000011000000000000000000000001,000000000000000000,,,,,3 989,,2 160,13,,,,,,,17,5,214,7 495,11,,,,,
23/04/2019 21:10,27/04/2019 01:45,End Of Trip,42.8711164,-85.5525296,10,,,2.16,198,233,45,19,Off,True,True,00000010000000000000000000000000,000000000000000000,,,,,3 991,,2 119,13,,,,,,,17,5,215,7 506,11,,,,,
23/04/2019 22:06,27/04/2019 01:45,Start Of Trip,42.8711164,-85.5525296,10,,,2.16,198,233,45,19,On,True,True,00000011000000000000000000000001,000000000000000000,,,,,3 989,,2 077,13,,,,,,,17,6,228,8 123,12,,,,,
23/04/2019 22:15,27/04/2019 01:45,Distance Travelled,42.8965519,-85.5478777,54,,,3.96,356,254,25,12,On,True,True,00000011000000000000000000000001,000000000000000000,,,,,3 989,,2 077,13,,,,,,,17,6,228,8 123,12,,,,,
23/04/2019 22:19,27/04/2019 01:45,Elapsed Time,42.9043072,-85.5205538,81,,,2.52,302,236,47,20,On,True,True,00000011000000000000000000000001,000000000000000000,,,,,3 985,,2 136,13,,,,,,,17,7,229,8 196,12,,,,,
23/04/2019 22:21,27/04/2019 01:45,Elapsed Time,42.9258399,-85.5550471,105,,,1.80,312,223,44,16,On,True,True,00000011000000000000000000000001,000000000000000000,,,,,3 987,,2 091,13,,,,,,,17,7,230,8 219,12,,,,,
23/04/2019 22:24,27/04/2019 01:45,Elapsed Time,42.9568465,-85.5707807,102,,,3.24,324,234,43,21,On,True,True,00000011000000000000000000000001,000000000000000000,,,,,3 989,,2 095,13,,,,,,,17,7,231,8 253,12,,,,,
23/04/2019 22:26,27/04/2019 01:45,Elapsed Time,42.9748241,-85.5902765,23,,,2.52,268,258,40,15,On,True,True,00000011000000000000000000000001,000000000000000000,,,,,3 986,,2 123,13,,,,,,,17,7,232,8 266,12,,,,,
23/04/2019 22:28,27/04/2019 01:45,Elapsed Time,42.9953898,-85.5901552,83,,,2.16,358,277,40,14,On,True,True,00000011000000000000000000000001,000000000000000000,,,,,3 988,,2 102,13,,,,,,,17,7,233,8 286,12,,,,,
23/04/2019 22:30,27/04/2019 01:45,Elapsed Time,43.0146262,-85.5902204,0,,,2.16,0,241,43,16,On,True,True,00000011000000000000000000000001,000000000000000000,,,,,3 983,,2 126,13,,,,,,,17,7,234,8 293,12,,,,,
23/04/2019 22:32,27/04/2019 01:45,Elapsed Time,43.0141019,-85.5920423,0,,,2.88,0,240,39,18,On,True,True,00000011000000000000000000000001,000000000000000000,,,,,3 991,,2 068,13,,,,,,,17,7,235,8 297,12,,,,,
23/04/2019 22:34,27/04/2019 01:45,Elapsed Time,43.0140293,-85.5919907,0,,,1.80,0,246,30,21,On,True,True,00000011000000000000000000000001,000000000000000000,,,,,3 992,,2 043,13,,,,,,,17,7,236,8 308,12,,,,,
23/04/2019 22:36,27/04/2019 01:45,Elapsed Time,43.0143362,-85.5922315,22,,,2.88,288,254,34,17,On,True,True,00000011000000000000000000000001,000000000000000000,,,,,3 988,,2 069,13,,,,,,,17,7,237,8 312,12,,,,,
23/04/2019 22:39,27/04/2019 01:45,Elapsed Time,43.0069005,-85.6009897,31,,,1.08,262,272,44,18,On,True,True,00000011000000000000000000000001,000000000000000000,,,,,3 988,,2 065,13,,,,,,,17,7,238,8 329,12,,,,,
23/04/2019 22:41,27/04/2019 01:45,Elapsed Time,43.0074648,-85.6033695,0,,,2.88,0,229,48,23,On,True,True,00000011000000000000000000000001,000000000000000000,,,,,3 991,,2 034,13,,,,,,,17,7,239,8 342,12,,,,,
23/04/2019 22:43,27/04/2019 01:45,Elapsed Time,43.0072953,-85.6037407,0,,,2.88,0,256,46,19,On,True,True,00000011000000000000000000000001,000000000000000000,,,,,3 988,,2 054,13,,,,,,,17,7,240,8 347,12,,,,,
23/04/2019 22:45,27/04/2019 01:45,Elapsed Time,43.0111642,-85.6003452,58,,,2.52,0,159,48,22,On,True,True,00000011000000000000000000000001,000000000000000000,,,,,3 991,,2 024,13,,,,,,,17,7,241,8 353,12,,,,,
23/04/2019 22:49,27/04/2019 01:45,Elapsed Time,43.0255032,-85.6097593,76,,,1.44,50,212,43,18,On,True,True,00000011000000000000000000000001,000000000000000000,,,,,3 984,,2 111,13,,,,,,,17,8,242,8 383,12,,,,,
23/04/2019 22:51,27/04/2019 01:45,Elapsed Time,43.0264579,-85.6028812,0,,,1.44,178,262,25,20,On,True,True,00000011000000000000000000000001,000000000000000000,,,,,3 986,,2 066,13,,,,,,,17,8,243,8 395,12,,,,,
23/04/2019 22:53,27/04/2019 01:45,Elapsed Time,43.0281602,-85.5956998,68,,,2.88,88,247,49,22,On,True,True,00000011000000000000000000000001,000000000000000000,,,,,3 987,,2 048,13,,,,,,,17,8,244,8 399,12,,,,,
23/04/2019 22:55,27/04/2019 01:45,Elapsed Time,43.0277050,-85.5922345,0,,,3.96,0,250,44,17,On,True,True,00000011000000000000000000000001,000000000000000000,,,,,3 988,,2 031,13,,,,,,,17,8,245,8 412,12,,,,,
23/04/2019 22:58,27/04/2019 01:45,Elapsed Time,43.0276544,-85.5920972,0,,,4.68,112,244,33,19,On,True,True,00000011000000000000000000000001,000000000000000000,,,,,3 987,,2 023,13,,,,,,,17,8,246,8 416,12,,,,,
23/04/2019 23:00,27/04/2019 01:45,End Of Trip,43.0276087,-85.5923482,0,,,4.68,222,246,34,20,Off,True,True,00000010000000000000000000000000,000000000000000000,,,,,3 986,,2 015,13,,,,,,,17,8,247,8 460,12,,,,,
24/04/2019 07:14,27/04/2019 01:45,Start Of Trip,43.0276087,-85.5923482,0,,,4.68,222,246,34,20,On,True,True,00000011000000000000000000000001,000000000000000000,,,,,3 981,,2 320,13,,,,,,,17,9,271,9 337,13,,,,,
24/04/2019 07:32,27/04/2019 01:45,Distance Travelled,42.9802617,-85.5906889,53,,,0.72,180,244,11,15,On,True,True,00000011000000000000000000000001,000000000000000000,,,,,3 981,,2 320,13,,,,,,,17,9,271,9 337,13,,,,,
24/04/2019 07:35,27/04/2019 01:45,Elapsed Time,42.9725253,-85.5906533,6,,,1.80,214,225,39,15,On,True,True,00000011000000000000000000000001,000000000000000000,,,,,3 980,,2 333,13,,,,,,,17,10,272,9 344,13,,,,,
24/04/2019 07:37,27/04/2019 01:45,Elapsed Time,42.9564696,-85.5708378,113,,,1.08,144,242,21,16,On,True,True,00000011000000000000000000000001,000000000000000000,,,,,3 985,,2 288,13,,,,,,,17,10,273,9 347,13,,,,,
24/04/2019 07:39,27/04/2019 01:45,Elapsed Time,42.9246850,-85.5537586,114,,,1.44,132,207,33,19,On,True,True,00000011000000000000000000000001,000000000000000000,,,,,3 986,,2 276,13,,,,,,,17,10,274,9 351,13,,,,,
24/04/2019 07:41,27/04/2019 01:45,Elapsed Time,42.9011526,-85.5213555,75,,,1.44,132,224,33,18,On,True,True,00000011000000000000000000000001,000000000000000000,,,,,3 985,,2 292,13,,,,,,,17,10,275,9 355,13,,,,,
24/04/2019 07:43,27/04/2019 01:45,Elapsed Time,42.8983079,-85.5358346,79,,,1.08,268,232,27,18,On,True,True,00000011000000000000000000000001,000000000000000000,,,,,3 984,,2 281,13,,,,,,,17,10,276,9 358,13,,,,,
24/04/2019 07:45,27/04/2019 01:45,Elapsed Time,42.8846673,-85.5471232,72,,,2.16,174,253,45,22,On,True,True,00000011000000000000000000000001,000000000000000000,,,,,3 985,,2 268,13,,,,,,,17,10,277,9 362,13,,,,,
24/04/2019 07:47,27/04/2019 01:45,Elapsed Time,42.8839977,-85.5308806,20,,,0.72,36,238,27,22,On,True,True,00000011000000000000000000000001,000000000000000000,,,,,3 983,,2 292,13,,,,,,,17,10,278,9 364,13,,,,,
24/04/2019 07:49,27/04/2019 01:45,Elapsed Time,42.8861570,-85.5288315,38,,,0.72,36,227,37,15,On,True,True,00000011000000000000000000000001,000000000000000000,,,,,3 984,,2 296,13,,,,,,,17,10,279,9 367,13,,,,,
24/04/2019 07:51,27/04/2019 01:45,Elapsed Time,42.8837392,-85.5450065,51,,,3.24,268,232,43,19,On,True,True,00000011000000000000000000000001,000000000000000000,,,,,3 982,,2 295,13,,,,,,,17,10,280,9 372,13,,,,,
24/04/2019 07:53,27/04/2019 01:45,Elapsed Time,42.8986535,-85.5479753,61,,,1.80,356,232,35,16,On,True,True,00000011000000000000000000000001,000000000000000000,,,,,3 985,,2 254,13,,,,,,,17,10,281,9 375,13,,,,,
24/04/2019 07:55,27/04/2019 01:45,Elapsed Time,42.9126086,-85.5535057,71,,,1.44,270,226,23,15,On,True,True,00000011000000000000000000000001,000000000000000000,,,,,3 983,,2 290,13,,,,,,,17,10,282,9 377,13,,,,,
24/04/2019 07:58,27/04/2019 01:45,Elapsed Time,42.9126163,-85.5688033,41,,,1.08,268,224,35,15,On,True,True,00000011000000000000000000000001,000000000000000000,,,,,3 983,,2 276,13,,,,,,,17,10,283,9 418,13,,,,,
24/04/2019 08:00,27/04/2019 01:45,Elapsed Time,42.9137442,-85.5797639,0,,,1.08,0,210,22,16,On,True,True,00000011000000000000000000000001,000000000000000000,,,,,3 983,,2 282,13,,,,,,,17,10,284,9 421,13,,,,,
24/04/2019 08:02,27/04/2019 01:45,Elapsed Time,42.9137955,-85.5794064,0,,,2.52,0,192,45,15,On,True,True,00000011000000000000000000000001,000000000000000000,,,,,3 982,,2 290,13,,,,,,,17,10,285,9 424,13,,,,,
24/04/2019 08:05,27/04/2019 01:45,End Of Trip,42.9137208,-85.5796080,0,,,1.44,254,207,23,15,Off,True,True,00000010000000000000000000000000,000000000000000000,,,,,3 981,,2 326,13,,,,,,,17,11,286,9 426,13,,,,,
24/04/2019 08:11,27/04/2019 01:45,Start Of Trip,42.9137208,-85.5796080,0,,,1.44,254,207,23,15,On,True,True,00000011000000000000000000000001,000000000000000000,,,,,3 981,,2 291,13,,,,,,,17,12,288,9 433,14,,,,,
24/04/2019 08:11,27/04/2019 01:45,Distance Travelled,42.9142853,-85.5816748,30,,,0.72,268,224,11,14,On,True,True,00000011000000000000000000000001,000000000000000000,,,,,3 981,,2 291,13,,,,,,,17,12,288,9 433,14,,,,,
24/04/2019 08:14,27/04/2019 01:45,Elapsed Time,42.9472722,-85.5849736,88,,,1.08,342,221,37,23,On,True,True,00000011000000000000000000000001,000000000000000000,,,,,3 976,,2 377,13,,,,,,,17,13,289,9 440,14,,,,,
24/04/2019 08:16,27/04/2019 01:45,Elapsed Time,42.9689020,-85.5907015,81,,,1.44,352,245,38,18,On,True,True,00000011000000000000000000000001,000000000000000000,,,,,3 979,,2 340,13,,,,,,,17,13,290,9 442,14,,,,,
24/04/2019 08:18,27/04/2019 01:45,Elapsed Time,42.9959947,-85.5902730,88,,,1.44,0,250,32,15,On,True,True,00000011000000000000000000000001,000000000000000000,,,,,3 980,,2 331,13,,,,,,,17,13,291,9 444,14,,,,,
24/04/2019 08:20,27/04/2019 01:45,Elapsed Time,43.0119949,-85.5902209,58,,,2.16,0,227,40,15,On,True,True,00000011000000000000000000000001,000000000000000000,,,,,3 982,,2 313,13,,,,,,,17,13,292,9 446,14,,,,,
24/04/2019 08:22,27/04/2019 01:45,Elapsed Time,43.0132906,-85.6016239,78,,,0.72,270,236,23,14,On,True,True,00000011000000000000000000000001,000000000000000000,,,,,3 981,,2 318,13,,,,,,,17,13,293,9 483,14,,,,,
24/04/2019 08:25,27/04/2019 01:45,Elapsed Time,43.0248691,-85.6147516,70,,,1.80,2,227,44,15,On,True,True,00000011000000000000000000000001,000000000000000000,,,,,3 981,,2 305,13,,,,,,,17,13,294,9 486,14,,,,,
24/04/2019 08:27,27/04/2019 01:45,Elapsed Time,43.0365828,-85.6167746,33,,,1.80,352,211,48,20,On,True,True,00000011000000000000000000000001,000000000000000000,,,,,3 979,,2 316,13,,,,,,,17,13,295,9 490,14,,,,,
24/04/2019 08:29,27/04/2019 01:45,Elapsed Time,43.0402924,-85.6163913,2,,,1.80,124,254,30,14,On,True,True,00000011000000000000000000000001,000000000000000000,,,,,3 982,,2 291,13,,,,,,,17,13,296,9 492,14,,,,,
24/04/2019 08:31,27/04/2019 01:45,Elapsed Time,43.0401582,-85.6162944,0,,,2.52,0,213,30,13,On,True,True,00000011000000000000000000000001,000000000000000000,,,,,3 979,,2 322,13,,,,,,,17,13,297,9 495,14,,,,,
24/04/2019 08:33,27/04/2019 01:45,Elapsed Time,43.0402178,-85.6164192,0,,,1.44,0,220,32,15,On,True,True,00000011000000000000000000000001,000000000000000000,,,,,3 981,,2 299,13,,,,,,,17,13,298,9 498,14,,,,,
24/04/2019 08:35,27/04/2019 01:45,End Of Trip,43.0401216,-85.6164022,0,,,1.08,0,214,25,13,Off,True,True,00000010000000000000000000000000,000000000000000000,,,,,3 984,,2 248,13,,,,,,,17,13,299,9 500,14,,,,,
24/04/2019 08:52,27/04/2019 01:45,Start Of Trip,43.0401216,-85.6164022,0,,,1.08,0,214,25,13,On,True,True,00000011000000000000000000000001,000000000000000000,,,,,3 982,,2 284,13,,,,,,,17,14,301,9 506,15,,,,,
24/04/2019 08:53,27/04/2019 01:45,Distance Travelled,43.0384191,-85.6162099,31,,,1.08,176,219,11,13,On,True,True,00000011000000000000000000000001,000000000000000000,,,,,3 982,,2 284,13,,,,,,,17,14,301,9 506,15,,,,,
24/04/2019 08:56,27/04/2019 01:45,Elapsed Time,43.0356358,-85.6168353,0,,,1.08,0,231,19,20,On,True,True,00000011000000000000000000000001,000000000000000000,,,,,3 978,,2 347,13,,,,,,,17,15,302,9 549,15,,,,,
24/04/2019 08:58,27/04/2019 01:45,Elapsed Time,43.0359775,-85.6170106,0,,,1.80,0,193,42,17,On,True,True,00000011000000000000000000000001,000000000000000000,,,,,3 977,,2 337,13,,,,,,,17,15,303,9 553,15,,,,,
24/04/2019 09:00,27/04/2019 01:45,Elapsed Time,43.0421081,-85.6005893,46,,,0.72,180,235,24,13,On,True,True,00000011000000000000000000000001,000000000000000000,,,,,3 981,,2 311,13,,,,,,,17,15,304,9 555,15,,,,,
24/04/2019 09:02,27/04/2019 01:45,Elapsed Time,43.0320086,-85.5971062,50,,,1.08,182,249,44,15,On,True,True,00000011000000000000000000000001,000000000000000000,,,,,3 982,,2 307,13,,,,,,,17,15,305,9 558,15,,,,,
24/04/2019 09:05,27/04/2019 01:45,Elapsed Time,43.0272185,-85.5947218,0,,,2.52,0,235,44,19,On,True,True,00000011000000000000000000000001,000000000000000000,,,,,3 977,,2 351,13,,,,,,,17,15,306,9 562,15,,,,,
24/04/2019 09:07,27/04/2019 01:45,Elapsed Time,43.0268901,-85.5946042,0,,,1.44,0,281,33,19,On,True,True,00000011000000000000000000000001,000000000000000000,,,,,3 978,,2 333,13,,,,,,,17,15,307,9 566,15,,,,,
24/04/2019 09:09,27/04/2019 01:45,Elapsed Time,43.0270542,-85.5949867,0,,,2.52,0,312,41,15,On,True,True,00000011000000000000000000000001,000000000000000000,,,,,3 980,,2 313,13,,,,,,,17,15,308,9 572,15,,,,,
24/04/2019 09:11,27/04/2019 01:45,End Of Trip,43.0271284,-85.5946259,0,,,3.60,182,242,47,14,Off,True,True,00000010000000000000000000000000,000000000000000000,,,,,3 978,,2 337,13,,,,,,,17,15,309,9 575,15,,,,,
24/04/2019 09:35,27/04/2019 01:45,Start Of Trip,43.0271284,-85.5946259,0,,,3.60,182,242,47,14,On,True,True,00000011000000000000000000000001,000000000000000000,,,,,3 981,,2 294,13,,,,,,,17,16,313,9 626,16,,,,,
24/04/2019 09:36,27/04/2019 01:45,Distance Travelled,43.0281228,-85.5949609,26,,,1.44,244,249,15,15,On,True,True,00000011000000000000000000000001,000000000000000000,,,,,3 981,,2 294,13,,,,,,,17,16,313,9 626,16,,,,,
24/04/2019 09:39,27/04/2019 01:45,Elapsed Time,43.0271598,-85.5946458,1,,,2.88,6,265,49,21,On,True,True,00000011000000000000000000000001,000000000000000000,,,,,3 975,,2 369,13,,,,,,,17,17,314,9 632,16,,,,,
24/04/2019 09:41,27/04/2019 01:45,End Of Trip,43.0271796,-85.5946137,1,,,4.68,0,261,49,21,Off,True,True,00000010000000000000000000000000,000000000000000000,,,,,3 977,,2 349,13,,,,,,,17,17,315,9 635,16,,,,,
24/04/2019 10:28,27/04/2019 01:45,Start Of Trip,43.0271796,-85.5946137,1,,,4.68,0,261,49,21,On,True,True,00000011000000000000000000000001,000000000000000000,,,,,3 975,,2 339,13,,,,,,,17,18,327,9 774,17,,,,,
24/04/2019 10:29,27/04/2019 01:45,Distance Travelled,43.0282413,-85.5974659,54,,,0.72,270,250,19,13,On,True,True,00000011000000000000000000000001,000000000000000000,,,,,3 975,,2 339,13,,,,,,,17,18,327,9 774,17,,,,,
24/04/2019 10:32,27/04/2019 01:45,Elapsed Time,43.0285488,-85.6245630,67,,,1.44,268,202,33,20,On,True,True,00000011000000000000000000000001,000000000000000000,,,,,3 974,,2 386,13,,,,,,,17,19,328,9 783,17,,,,,
24/04/2019 10:34,27/04/2019 01:45,Elapsed Time,43.0207652,-85.6386677,81,,,1.08,276,204,32,15,On,True,True,00000011000000000000000000000001,000000000000000000,,,,,3 977,,2 333,13,,,,,,,17,19,329,9 789,17,,,,,
24/04/2019 10:36,27/04/2019 01:45,Elapsed Time,43.0189549,-85.6702414,102,,,1.44,216,188,23,16,On,True,True,00000011000000000000000000000001,000000000000000000,,,,,3 977,,2 358,13,,,,,,,17,19,330,9 802,17,,,,,
24/04/2019 10:39,27/04/2019 01:45,Elapsed Time,42.9873153,-85.6772948,111,,,1.44,178,176,43,16,On,True,True,00000011000000000000000000000001,000000000000000000,,,,,3 977,,2 328,13,,,,,,,17,19,331,9 805,17,,,,,
24/04/2019 10:41,27/04/2019 01:45,Elapsed Time,42.9667383,-85.6781479,32,,,1.08,18,195,28,18,On,True,True,00000011000000000000000000000001,000000000000000000,,,,,3 974,,2 356,13,,,,,,,17,19,332,9 807,17,,,,,
24/04/2019 10:43,27/04/2019 01:45,Elapsed Time,42.9706015,-85.6788589,18,,,1.80,266,198,47,16,On,True,True,00000011000000000000000000000001,000000000000000000,,,,,3 974,,2 361,13,,,,,,,17,19,333,9 832,17,,,,,
24/04/2019 10:49,27/04/2019 01:45,End Of Trip,42.9706015,-85.6788589,18,,,1.80,266,198,47,16,Off,True,True,00000010000000000000000000000000,000000000000000000,,,,,3 975,,2 369,13,,,,,,,17,19,335,9 897,17,,,,,
24/04/2019 12:43,27/04/2019 01:45,Start Of Trip,42.9706015,-85.6788589,18,,,1.80,266,198,47,16,On,True,True,00000011000000000000000000000001,000000000000000000,,,,,3 971,,2 435,13,,,,,,,17,20,358,11 260,18,,,,,
24/04/2019 12:45,27/04/2019 01:45,Distance Travelled,42.9659683,-85.6777344,0,,,1.44,0,166,26,16,On,True,True,00000011000000000000000000000001,000000000000000000,,,,,3 971,,2 435,13,,,,,,,17,20,358,11 260,18,,,,,
24/04/2019 12:49,27/04/2019 01:45,Elapsed Time,42.9659823,-85.6782298,1,,,3.60,130,210,45,17,On,True,True,00000011000000000000000000000001,000000000000000000,,,,,3 970,,2 443,13,,,,,,,17,21,359,11 306,18,,,,,
24/04/2019 12:51,27/04/2019 01:45,End Of Trip,42.9660781,-85.6780046,0,,,2.88,0,222,45,18,Off,True,True,00000010000000000000000000000000,000000000000000000,,,,,3 972,,2 420,13,,,,,,,17,21,360,11 331,18,,,,,
24/04/2019 23:25,27/04/2019 01:45,Start Of Trip,42.9660781,-85.6780046,0,,,2.88,0,222,45,18,On,True,True,00000011000000000000000000000001,000000000000000000,,,,,3 973,,2 097,13,,,,,,,17,22,368,11 613,19,,,,,
24/04/2019 23:34,27/04/2019 01:45,Distance Travelled,42.9910104,-85.6770997,113,,,1.08,358,191,15,18,On,True,True,00000011000000000000000000000001,000000000000000000,,,,,3 973,,2 097,13,,,,,,,17,22,368,11 613,19,,,,,
24/04/2019 23:38,27/04/2019 01:45,Elapsed Time,43.0197827,-85.6888683,42,,,0.72,358,235,20,19,On,True,True,00000011000000000000000000000001,000000000000000000,,,,,3 968,,2 163,13,,,,,,,17,23,369,11 621,19,,,,,
24/04/2019 23:40,27/04/2019 01:45,Elapsed Time,43.0229426,-85.6893951,0,,,0.72,0,211,36,19,On,True,True,00000011000000000000000000000001,000000000000000000,,,,,3 972,,2 135,13,,,,,,,17,23,370,11 625,19,,,,,
24/04/2019 23:42,27/04/2019 01:45,Elapsed Time,43.0229837,-85.6892076,0,,,2.52,0,252,36,19,On,True,True,00000011000000000000000000000001,000000000000000000,,,,,3 970,,2 132,13,,,,,,,17,23,371,11 630,19,,,,,
24/04/2019 23:44,27/04/2019 01:45,Elapsed Time,43.0225711,-85.6891732,36,,,1.80,178,210,43,19,On,True,True,00000011000000000000000000000001,000000000000000000,,,,,3 974,,2 102,13,,,,,,,17,23,372,11 635,19,,,,,
24/04/2019 23:46,27/04/2019 01:45,Elapsed Time,43.0192854,-85.7014478,111,,,1.80,280,237,35,20,On,True,True,00000011000000000000000000000001,000000000000000000,,,,,3 973,,2 116,13,,,,,,,17,23,373,11 637,19,,,,,
24/04/2019 23:48,27/04/2019 01:45,Elapsed Time,43.0180561,-85.7493988,116,,,0.72,270,244,27,14,On,True,True,00000011000000000000000000000001,000000000000000000,,,,,3 973,,2 093,13,,,,,,,17,23,374,11 642,19,,,,,
24/04/2019 23:51,27/04/2019 01:45,Elapsed Time,43.0364975,-85.7633271,75,,,0.72,0,225,6,13,On,True,True,00000011000000000000000000000001,000000000000000000,,,,,3 976,,2 082,13,,,,,,,17,23,375,11 684,19,,,,,
24/04/2019 23:53,27/04/2019 01:45,Elapsed Time,43.0606283,-85.7680052,80,,,2.16,0,254,46,16,On,True,True,00000011000000000000000000000001,000000000000000000,,,,,3 973,,2 095,13,,,,,,,17,23,376,11 712,19,,,,,
24/04/2019 23:55,27/04/2019 01:45,Elapsed Time,43.0870363,-85.7680956,85,,,1.08,358,247,26,14,On,True,True,00000011000000000000000000000001,000000000000000000,,,,,3 973,,2 086,13,,,,,,,17,23,377,11 714,19,,,,,
24/04/2019 23:57,27/04/2019 01:45,Elapsed Time,43.1103711,-85.7685030,17,,,0.72,50,270,32,13,On,True,True,00000011000000000000000000000001,000000000000000000,,,,,3 971,,2 110,13,,,,,,,17,23,378,11 717,19,,,,,
24/04/2019 23:59,27/04/2019 01:45,Elapsed Time,43.1107499,-85.7686645,11,,,1.08,0,263,25,12,On,True,True,00000011000000000000000000000001,000000000000000000,,,,,3 972,,2 088,13,,,,,,,17,23,379,11 720,19,,,,,
25/04/2019 00:01,27/04/2019 01:45,Elapsed Time,43.1108806,-85.7683991,0,,,2.16,50,273,34,15,On,True,True,00000011000000000000000000000001,000000000000000000,,,,,3 975,,2 070,13,,,,,,,17,23,380,11 725,19,,,,,
25/04/2019 00:03,27/04/2019 01:45,End Of Trip,43.1106912,-85.7686434,0,,,1.80,0,258,37,15,Off,True,True,00000010000000000000000000000000,000000000000000000,,,,,3 975,,2 070,13,,,,,,,17,23,381,11 729,19,,,,,
25/04/2019 03:54,27/04/2019 01:45,External Power Change,43.1111116,-85.7688828,0,,,3.96,146,229,42,17,Off,True,True,00000110000000000000000000000000,000000000000000000,,,,,4 032,,2 166,13,,,,,,,0,0,0,0,0,,,,,
25/04/2019 03:55,27/04/2019 01:45,Heartbeat Status,43.1112235,-85.7689515,2,,,3.96,0,256,39,13,Off,True,True,00000110000000000000000000000000,000000000000000000,,,,,4 057,,2 250,13,,,,,,,0,0,0,0,0,,,,,
25/04/2019 04:22,27/04/2019 01:45,External Power Change,43.1111311,-85.7688312,0,,,3.60,0,262,48,16,Off,True,True,00000010000000000000000000000000,000000000000000000,,,,,4 069,,2 906,13,,,,,,,0,0,0,0,0,,,,,
25/04/2019 04:22,27/04/2019 01:45,Heartbeat Status,43.1110815,-85.7689109,0,,,2.16,0,265,46,17,Off,True,True,00000010000000000000000000000000,000000000000000000,,,,,4 050,,2 945,13,,,,,,,0,0,1,45,0,,,,,
25/04/2019 06:24,27/04/2019 01:45,Start Of Trip,43.1110815,-85.7689109,0,,,2.16,0,265,46,17,On,True,True,00000011000000000000000000000001,000000000000000000,,,,,4 033,,2 445,13,,,,,,,0,1,27,785,1,,,,,
25/04/2019 06:26,27/04/2019 01:45,Distance Travelled,43.1061662,-85.7684209,82,,,1.80,178,268,23,15,On,True,True,00000011000000000000000000000001,000000000000000000,,,,,4 033,,2 445,13,,,,,,,0,1,27,785,1,,,,,
25/04/2019 06:29,27/04/2019 01:45,Elapsed Time,43.0739363,-85.7584322,79,,,1.08,90,233,37,13,On,True,True,00000011000000000000000000000001,000000000000000000,,,,,4 027,,2 527,13,,,,,,,0,2,28,797,1,,,,,
25/04/2019 06:31,27/04/2019 01:45,Elapsed Time,43.0728545,-85.7217479,77,,,1.08,92,243,31,13,On,True,True,00000011000000000000000000000001,000000000000000000,,,,,4 026,,2 529,13,,,,,,,0,2,29,802,1,,,,,
25/04/2019 06:33,27/04/2019 01:45,Elapsed Time,43.0726482,-85.6910179,30,,,1.08,90,231,41,17,On,True,True,00000011000000000000000000000001,000000000000000000,,,,,4 029,,2 474,13,,,,,,,0,2,30,834,1,,,,,
25/04/2019 06:36,27/04/2019 01:45,Elapsed Time,43.0725905,-85.6636940,81,,,1.80,90,238,46,17,On,True,True,00000011000000000000000000000001,000000000000000000,,,,,4 034,,2 456,13,,,,,,,0,2,31,837,1,,,,,
25/04/2019 06:38,27/04/2019 01:45,Elapsed Time,43.0685078,-85.6419765,74,,,2.16,92,239,35,15,On,True,True,00000011000000000000000000000001,000000000000000000,,,,,4 033,,2 465,13,,,,,,,0,2,32,846,1,,,,,
25/04/2019 06:40,27/04/2019 01:45,Elapsed Time,43.0655654,-85.6166391,95,,,1.44,100,184,37,15,On,True,True,00000011000000000000000000000001,000000000000000000,,,,,4 034,,2 432,13,,,,,,,0,2,33,852,1,,,,,
25/04/2019 06:42,27/04/2019 01:45,Elapsed Time,43.0471211,-85.6127203,80,,,2.16,198,228,47,15,On,True,True,00000011000000000000000000000001,000000000000000000,,,,,4 030,,2 472,13,,,,,,,0,2,34,856,1,,,,,
25/04/2019 06:44,27/04/2019 01:45,Elapsed Time,43.0305265,-85.6158416,39,,,3.24,180,210,49,15,On,True,True,00000011000000000000000000000001,000000000000000000,,,,,4 030,,2 487,13,,,,,,,0,2,35,864,1,,,,,
25/04/2019 06:46,27/04/2019 01:45,Elapsed Time,43.0254854,-85.6098194,77,,,1.44,50,226,39,19,On,True,True,00000011000000000000000000000001,000000000000000000,,,,,4 026,,2 523,13,,,,,,,0,2,36,869,1,,,,,
25/04/2019 06:48,27/04/2019 01:45,Elapsed Time,43.0279230,-85.5925925,0,,,1.08,0,256,39,18,On,True,True,00000011000000000000000000000001,000000000000000000,,,,,4 032,,2 477,13,,,,,,,0,2,37,874,1,,,,,
25/04/2019 06:50,27/04/2019 01:45,Elapsed Time,43.0279609,-85.5925707,0,,,2.52,0,261,39,19,On,True,True,00000011000000000000000000000001,000000000000000000,,,,,4 032,,2 470,13,,,,,,,0,2,38,878,1,,,,,
25/04/2019 06:52,27/04/2019 01:45,Elapsed Time,43.0279368,-85.5926271,0,,,2.16,0,241,26,15,On,True,True,00000011000000000000000000000001,000000000000000000,,,,,4 034,,2 467,13,,,,,,,0,2,39,918,1,,,,,
25/04/2019 06:55,27/04/2019 01:45,End Of Trip,43.0279371,-85.5925189,0,,,2.52,288,247,33,16,Off,True,True,00000010000000000000000000000000,000000000000000000,,,,,4 030,,2 497,13,,,,,,,0,2,40,923,1,,,,,
25/04/2019 07:44,27/04/2019 01:45,Start Of Trip,43.0279371,-85.5925189,0,,,2.52,288,247,33,16,On,True,True,00000011000000000000000000000001,000000000000000000,,,,,4 031,,2 550,13,,,,,,,0,3,43,977,2,,,,,
25/04/2019 07:45,27/04/2019 01:45,Distance Travelled,43.0281808,-85.5944588,49,,,1.08,270,237,20,14,On,True,True,00000011000000000000000000000001,000000000000000000,,,,,4 031,,2 550,13,,,,,,,0,3,43,977,2,,,,,
25/04/2019 07:48,27/04/2019 01:45,Elapsed Time,43.0271317,-85.5948820,0,,,3.24,0,277,43,14,On,True,True,00000011000000000000000000000001,000000000000000000,,,,,4 026,,2 650,13,,,,,,,0,4,44,986,2,,,,,
25/04/2019 07:50,27/04/2019 01:45,End Of Trip,43.0270140,-85.5947376,0,,,2.52,0,263,34,20,Off,True,True,00000010000000000000000000000000,000000000000000000,,,,,4 027,,2 635,13,,,,,,,0,4,45,1 026,2,,,,,
25/04/2019 07:53,27/04/2019 01:45,Start Of Trip,43.0270140,-85.5947376,0,,,2.52,0,263,34,20,On,True,True,00000011000000000000000000000001,000000000000000000,,,,,4 026,,2 660,13,,,,,,,0,5,46,1 035,3,,,,,
25/04/2019 07:54,27/04/2019 01:45,Distance Travelled,43.0281224,-85.5908255,41,,,0.72,92,252,17,11,On,True,True,00000011000000000000000000000001,000000000000000000,,,,,4 026,,2 660,13,,,,,,,0,5,46,1 035,3,,,,,
25/04/2019 07:57,27/04/2019 01:45,Elapsed Time,43.0023078,-85.5911304,0,,,2.16,0,251,26,14,On,True,True,00000011000000000000000000000001,000000000000000000,,,,,4 023,,2 730,13,,,,,,,0,6,47,1 044,3,,,,,
25/04/2019 07:59,27/04/2019 01:45,Elapsed Time,43.0024366,-85.5913167,0,,,3.96,0,211,42,22,On,True,True,00000011000000000000000000000001,000000000000000000,,,,,4 028,,2 673,13,,,,,,,0,6,48,1 050,3,,,,,
25/04/2019 08:01,27/04/2019 01:45,Elapsed Time,43.0023627,-85.5912472,0,,,2.52,0,220,37,17,On,True,True,00000011000000000000000000000001,000000000000000000,,,,,4 027,,2 690,13,,,,,,,0,6,49,1 054,3,,,,,
25/04/2019 08:03,27/04/2019 01:45,End Of Trip,43.0023856,-85.5911923,0,,,2.52,0,243,33,14,Off,True,True,00000010000000000000000000000000,000000000000000000,,,,,4 026,,2 688,13,,,,,,,0,6,50,1 058,3,,,,,
25/04/2019 09:35,27/04/2019 01:45,Start Of Trip,43.0023856,-85.5911923,0,,,2.52,0,243,33,14,On,True,True,00000011000000000000000000000001,000000000000000000,,,,,4 028,,2 679,13,,,,,,,0,7,54,1 118,4,,,,,
25/04/2019 09:37,27/04/2019 01:45,Distance Travelled,43.0053963,-85.5902298,95,,,1.44,0,226,20,16,On,True,True,00000011000000000000000000000001,000000000000000000,,,,,4 028,,2 679,13,,,,,,,0,7,54,1 118,4,,,,,
25/04/2019 09:40,27/04/2019 01:45,Elapsed Time,43.0425728,-85.5903971,43,,,1.08,274,235,45,22,On,True,True,00000011000000000000000000000001,000000000000000000,,,,,4 019,,2 836,13,,,,,,,0,8,55,1 126,4,,,,,
25/04/2019 09:42,27/04/2019 01:45,Elapsed Time,43.0391633,-85.6102710,78,,,2.16,232,228,32,16,On,True,True,00000011000000000000000000000001,000000000000000000,,,,,4 023,,2 752,13,,,,,,,0,8,56,1 131,4,,,,,
25/04/2019 09:44,27/04/2019 01:45,Elapsed Time,43.0280053,-85.6317074,65,,,1.80,204,200,44,15,On,True,True,00000011000000000000000000000001,000000000000000000,,,,,4 026,,2 717,13,,,,,,,0,8,57,1 135,4,,,,,
25/04/2019 09:47,27/04/2019 01:45,Elapsed Time,43.0213744,-85.6592004,108,,,0.72,270,200,37,12,On,True,True,00000011000000000000000000000001,000000000000000000,,,,,4 026,,2 738,13,,,,,,,0,8,58,1 176,4,,,,,
25/04/2019 09:49,27/04/2019 01:45,Elapsed Time,43.0047095,-85.6761162,108,,,1.44,178,187,33,14,On,True,True,00000011000000000000000000000001,000000000000000000,,,,,4 023,,2 758,13,,,,,,,0,8,59,1 181,4,,,,,
25/04/2019 09:51,27/04/2019 01:45,Elapsed Time,42.9720634,-85.6775266,76,,,1.80,202,197,43,12,On,True,True,00000011000000000000000000000001,000000000000000000,,,,,4 023,,2 769,13,,,,,,,0,8,60,1 185,4,,,,,
25/04/2019 09:53,27/04/2019 01:45,Elapsed Time,42.9661967,-85.6777222,0,,,3.24,0,175,46,17,On,True,True,00000011000000000000000000000001,000000000000000000,,,,,4 020,,2 782,13,,,,,,,0,8,61,1 189,4,,,,,
25/04/2019 09:55,27/04/2019 01:45,Elapsed Time,42.9661276,-85.6778775,0,,,4.32,0,148,49,18,On,True,True,00000011000000000000000000000001,000000000000000000,,,,,4 025,,2 738,13,,,,,,,0,8,62,1 192,4,,,,,
25/04/2019 09:57,27/04/2019 01:45,Elapsed Time,42.9659372,-85.6778520,0,,,4.32,174,172,35,12,On,True,True,00000011000000000000000000000001,000000000000000000,,,,,4 023,,2 749,13,,,,,,,0,8,63,1 237,4,,,,,
25/04/2019 09:59,27/04/2019 01:45,End Of Trip,42.9661992,-85.6781594,0,,,3.96,0,198,43,16,Off,True,True,00000010000000000000000000000000,000000000000000000,,,,,4 027,,2 730,13,,,,,,,0,8,64,1 247,4,,,,,
25/04/2019 22:00,27/04/2019 01:45,Heartbeat Status,42.9660278,-85.6775924,0,,,4.68,0,188,46,21,Off,True,True,00000010000000000000000000000000,000000000000000000,,,,,4 025,,2 076,13,,,,,,,0,9,68,1 349,4,,,,,
26/04/2019 00:42,27/04/2019 01:45,Start Of Trip,42.9660278,-85.6775924,0,,,4.68,0,188,46,21,On,True,True,00000011000000000000000000000001,000000000000000000,,,,,4 019,,2 215,13,,,,,,,0,10,81,1 967,5,,,,,
26/04/2019 00:44,27/04/2019 01:45,Distance Travelled,42.9699382,-85.6780883,89,,,1.08,2,195,17,16,On,True,True,00000011000000000000000000000001,000000000000000000,,,,,4 019,,2 215,13,,,,,,,0,10,81,1 967,5,,,,,
26/04/2019 00:47,27/04/2019 01:45,Elapsed Time,43.0171377,-85.6867720,108,,,1.44,282,210,28,16,On,True,True,00000011000000000000000000000001,000000000000000000,,,,,4 016,,2 288,13,,,,,,,0,11,82,1 975,5,,,,,
26/04/2019 00:49,27/04/2019 01:45,Elapsed Time,43.0207103,-85.6888982,0,,,2.16,0,215,33,23,On,True,True,00000011000000000000000000000001,000000000000000000,,,,,4 018,,2 261,13,,,,,,,0,11,83,1 983,5,,,,,
26/04/2019 00:51,27/04/2019 01:45,Elapsed Time,43.0312659,-85.6888045,2,,,4.32,86,224,35,23,On,True,True,00000011000000000000000000000001,000000000000000000,,,,,4 016,,2 283,13,,,,,,,0,11,84,1 986,5,,,,,
26/04/2019 00:53,27/04/2019 01:45,Elapsed Time,43.0314081,-85.6885400,0,,,2.52,0,178,35,23,On,True,True,00000011000000000000000000000001,000000000000000000,,,,,4 018,,2 273,13,,,,,,,0,11,85,1 992,5,,,,,
26/04/2019 00:55,27/04/2019 01:45,Elapsed Time,43.0314285,-85.6888040,0,,,1.08,0,221,22,23,On,True,True,00000011000000000000000000000001,000000000000000000,,,,,4 018,,2 284,13,,,,,,,0,11,86,1 998,5,,,,,
26/04/2019 00:57,27/04/2019 01:45,End Of Trip,43.0312512,-85.6888088,0,,,2.16,0,237,42,23,Off,True,True,00000010000000000000000000000000,000000000000000000,,,,,4 020,,2 260,13,,,,,,,0,11,87,2 002,5,,,,,
26/04/2019 01:02,27/04/2019 01:45,Start Of Trip,43.0312512,-85.6888088,0,,,2.16,0,237,42,23,On,True,True,00000011000000000000000000000001,000000000000000000,,,,,4 019,,2 268,13,,,,,,,0,12,90,2 048,6,,,,,
26/04/2019 01:06,27/04/2019 01:45,Distance Travelled,43.0218186,-85.6892070,33,,,1.44,168,232,15,17,On,True,True,00000011000000000000000000000001,000000000000000000,,,,,4 019,,2 268,13,,,,,,,0,12,90,2 048,6,,,,,
26/04/2019 01:09,27/04/2019 01:45,Elapsed Time,43.0208157,-85.6872973,0,,,2.52,182,220,23,17,On,True,True,00000011000000000000000000000001,000000000000000000,,,,,4 016,,2 348,13,,,,,,,0,13,91,2 055,6,,,,,
26/04/2019 01:11,27/04/2019 01:45,End Of Trip,43.0209412,-85.6872819,0,,,1.08,0,230,24,20,Off,True,True,00000010000000000000000000000000,000000000000000000,,,,,4 021,,2 295,13,,,,,,,0,13,92,2 061,6,,,,,
26/04/2019 01:16,27/04/2019 01:45,Start Of Trip,43.0209412,-85.6872819,0,,,1.08,0,230,24,20,On,True,True,00000011000000000000000000000001,000000000000000000,,,,,4 016,,2 340,13,,,,,,,0,14,95,2 069,7,,,,,
26/04/2019 01:16,27/04/2019 01:45,Distance Travelled,43.0223844,-85.6889839,67,,,1.80,356,218,19,20,On,True,True,00000011000000000000000000000001,000000000000000000,,,,,4 016,,2 340,13,,,,,,,0,14,95,2 069,7,,,,,
26/04/2019 01:19,27/04/2019 01:45,Elapsed Time,43.0386964,-85.6896199,76,,,1.08,0,228,24,17,On,True,True,00000011000000000000000000000001,000000000000000000,,,,,4 014,,2 415,13,,,,,,,0,15,96,2 076,7,,,,,
26/04/2019 01:22,27/04/2019 01:45,Elapsed Time,43.0609850,-85.6898340,91,,,1.08,358,222,28,17,On,True,True,00000011000000000000000000000001,000000000000000000,,,,,4 016,,2 373,13,,,,,,,0,15,97,2 079,7,,,,,
26/04/2019 01:24,27/04/2019 01:45,Elapsed Time,43.0942556,-85.6916958,110,,,1.08,334,235,34,23,On,True,True,00000011000000000000000000000001,000000000000000000,,,,,4 015,,2 380,13,,,,,,,0,15,98,2 082,7,,,,,
26/04/2019 01:26,27/04/2019 01:45,Elapsed Time,43.1244887,-85.7097406,86,,,1.44,344,240,48,23,On,True,True,00000011000000000000000000000001,000000000000000000,,,,,4 018,,2 342,13,,,,,,,0,15,99,2 087,7,,,,,
26/04/2019 01:28,27/04/2019 01:45,Elapsed Time,43.1482704,-85.7099165,65,,,1.44,358,205,36,20,On,True,True,00000011000000000000000000000001,000000000000000000,,,,,4 015,,2 355,13,,,,,,,0,15,100,2 090,7,,,,,
26/04/2019 01:30,27/04/2019 01:45,Elapsed Time,43.1606918,-85.7089394,0,,,3.24,0,232,40,20,On,True,True,00000011000000000000000000000001,000000000000000000,,,,,4 014,,2 373,13,,,,,,,0,15,101,2 120,7,,,,,
26/04/2019 01:32,27/04/2019 01:45,Elapsed Time,43.1606988,-85.7089872,0,,,1.44,44,246,23,23,On,True,True,00000011000000000000000000000001,000000000000000000,,,,,4 016,,2 335,13,,,,,,,0,15,102,2 122,7,,,,,
26/04/2019 01:34,27/04/2019 01:45,Elapsed Time,43.1607335,-85.7088356,0,,,1.44,0,256,17,24,On,True,True,00000011000000000000000000000001,000000000000000000,,,,,4 016,,2 343,13,,,,,,,0,15,103,2 125,7,,,,,
26/04/2019 01:36,27/04/2019 01:45,End Of Trip,43.1607497,-85.7088947,0,,,1.44,0,254,17,24,Off,True,True,00000010000000000000000000000000,000000000000000000,,,,,4 015,,2 361,13,,,,,,,0,15,104,2 131,7,,,,,
26/04/2019 01:42,27/04/2019 01:45,Start Of Trip,43.1607497,-85.7088947,0,,,1.44,0,254,17,24,On,True,True,00000011000000000000000000000001,000000000000000000,,,,,4 016,,2 341,13,,,,,,,0,16,106,2 142,8,,,,,
26/04/2019 01:44,27/04/2019 01:45,Distance Travelled,43.1609041,-85.7147068,49,,,1.08,270,243,18,26,On,True,True,00000011000000000000000000000001,000000000000000000,,,,,4 016,,2 341,13,,,,,,,0,16,106,2 142,8,,,,,
26/04/2019 01:47,27/04/2019 01:45,Elapsed Time,43.1614587,-85.7495875,46,,,0.72,270,253,19,27,On,True,True,00000011000000000000000000000001,000000000000000000,,,,,4 014,,2 384,13,,,,,,,0,17,107,2 153,8,,,,,
26/04/2019 01:49,27/04/2019 01:45,Elapsed Time,43.1469079,-85.7545544,72,,,1.80,270,236,19,28,On,True,True,00000011000000000000000000000001,000000000000000000,,,,,4 011,,2 409,13,,,,,,,0,17,108,2 161,8,,,,,
26/04/2019 01:51,27/04/2019 01:45,Elapsed Time,43.1376038,-85.7698992,86,,,1.44,178,272,37,21,On,True,True,00000011000000000000000000000001,000000000000000000,,,,,4 013,,2 405,13,,,,,,,0,17,109,2 167,8,,,,,
26/04/2019 01:53,27/04/2019 01:45,Elapsed Time,43.1142597,-85.7686680,79,,,1.08,178,287,34,21,On,True,True,00000011000000000000000000000001,000000000000000000,,,,,4 016,,2 365,13,,,,,,,0,17,110,2 206,8,,,,,
26/04/2019 01:55,27/04/2019 01:45,Elapsed Time,43.1108347,-85.7688382,0,,,4.68,0,222,42,16,On,True,True,00000011000000000000000000000001,000000000000000000,,,,,4 014,,2 378,13,,,,,,,0,17,111,2 209,8,,,,,
26/04/2019 01:58,27/04/2019 01:45,Elapsed Time,43.1110069,-85.7689774,0,,,3.24,140,256,37,15,On,True,True,00000011000000000000000000000001,000000000000000000,,,,,4 015,,2 383,13,,,,,,,0,17,112,2 219,8,,,,,
26/04/2019 02:00,27/04/2019 01:45,End Of Trip,43.1110868,-85.7687207,0,,,4.68,0,259,39,16,Off,True,True,00000010000000000000000000000000,000000000000000000,,,,,4 014,,2 375,13,,,,,,,0,17,113,2 232,8,,,,,
26/04/2019 02:52,27/04/2019 01:45,External Power Change,43.1110702,-85.7688758,0,,,4.68,0,270,42,15,Off,True,True,00000110000000000000000000000000,000000000000000000,,,,,4 075,,2 294,13,,,,,,,0,0,0,0,0,,,,,
26/04/2019 02:52,27/04/2019 01:45,Heartbeat Status,43.1111252,-85.7687118,0,,,4.68,120,278,37,18,Off,True,True,00000110000000000000000000000000,000000000000000000,,,,,4 075,,2 322,13,,,,,,,0,0,0,0,0,,,,,
26/04/2019 04:31,27/04/2019 01:45,External Power Change,43.1111352,-85.7692077,0,,,2.16,0,240,15,15,Off,True,True,00000010000000000000000000000000,000000000000000000,,,,,4 209,,2 531,13,,,,,,,0,0,0,0,0,,,,,
26/04/2019 04:32,27/04/2019 01:45,Heartbeat Status,43.1110647,-85.7688872,0,,,1.80,0,268,44,21,Off,True,True,00000010000000000000000000000000,000000000000000000,,,,,4 204,,2 588,13,,,,,,,0,0,1,54,0,,,,,
26/04/2019 04:32,27/04/2019 01:45,Start Of Trip,43.1110647,-85.7688872,0,,,1.80,0,268,44,21,On,True,True,00000011000000000000000000000001,000000000000000000,,,,,4 200,,2 501,13,,,,,,,0,1,6,139,1,,,,,
26/04/2019 04:44,27/04/2019 01:45,Distance Travelled,43.1171444,-85.7151115,101,,,0.72,90,271,12,12,On,True,True,00000011000000000000000000000001,000000000000000000,,,,,4 200,,2 501,13,,,,,,,0,1,6,139,1,,,,,
26/04/2019 04:48,27/04/2019 01:45,Elapsed Time,43.1167041,-85.6852765,66,,,1.08,90,235,30,12,On,True,True,00000011000000000000000000000001,000000000000000000,,,,,4 198,,2 550,13,,,,,,,0,2,7,146,1,,,,,
26/04/2019 04:50,27/04/2019 01:45,Elapsed Time,43.1166485,-85.6522718,21,,,0.72,90,247,35,18,On,True,True,00000011000000000000000000000001,000000000000000000,,,,,4 199,,2 521,13,,,,,,,0,2,8,150,1,,,,,
26/04/2019 04:52,27/04/2019 01:45,Elapsed Time,43.1168201,-85.6281799,93,,,0.72,88,223,31,14,On,True,True,00000011000000000000000000000001,000000000000000000,,,,,4 196,,2 531,13,,,,,,,0,2,9,154,1,,,,,
26/04/2019 04:54,27/04/2019 01:45,Elapsed Time,43.1169854,-85.5967528,80,,,2.16,88,264,33,18,On,True,True,00000011000000000000000000000001,000000000000000000,,,,,4 197,,2 545,13,,,,,,,0,2,10,193,1,,,,,
26/04/2019 04:56,27/04/2019 01:45,Elapsed Time,43.1173534,-85.5637653,61,,,0.72,90,228,30,15,On,True,True,00000011000000000000000000000001,000000000000000000,,,,,4 197,,2 529,13,,,,,,,0,2,11,197,1,,,,,
26/04/2019 04:58,27/04/2019 01:45,Elapsed Time,43.1173361,-85.5493959,0,,,2.52,0,244,37,14,On,True,True,00000011000000000000000000000001,000000000000000000,,,,,4 200,,2 524,13,,,,,,,0,2,12,201,1,,,,,
26/04/2019 05:00,27/04/2019 01:45,Elapsed Time,43.0911644,-85.5505915,90,,,1.08,180,261,41,23,On,True,True,00000011000000000000000000000001,000000000000000000,,,,,4 194,,2 566,13,,,,,,,0,2,13,204,1,,,,,
26/04/2019 05:02,27/04/2019 01:45,Elapsed Time,43.0717408,-85.5790810,24,,,1.08,204,198,32,14,On,True,True,00000011000000000000000000000001,000000000000000000,,,,,4 197,,2 554,13,,,,,,,0,2,14,207,1,,,,,
26/04/2019 05:04,27/04/2019 01:45,Elapsed Time,43.0594691,-85.5800209,57,,,1.08,178,184,34,15,On,True,True,00000011000000000000000000000001,000000000000000000,,,,,4 196,,2 560,13,,,,,,,0,2,15,210,1,,,,,
26/04/2019 05:06,27/04/2019 01:45,Elapsed Time,43.0347274,-85.5901503,100,,,1.08,180,225,36,20,On,True,True,00000011000000000000000000000001,000000000000000000,,,,,4 199,,2 542,13,,,,,,,0,2,16,213,1,,,,,
26/04/2019 05:08,27/04/2019 01:45,Elapsed Time,43.0280130,-85.5924354,0,,,1.44,0,249,27,20,On,True,True,00000011000000000000000000000001,000000000000000000,,,,,4 199,,2 549,13,,,,,,,0,2,17,216,1,,,,,
26/04/2019 05:10,27/04/2019 01:45,Elapsed Time,43.0279353,-85.5926570,2,,,1.44,14,242,32,22,On,True,True,00000011000000000000000000000001,000000000000000000,,,,,4 199,,2 529,13,,,,,,,0,2,18,220,1,,,,,
26/04/2019 05:12,27/04/2019 01:45,Elapsed Time,43.0279697,-85.5926273,0,,,1.80,0,247,31,23,On,True,True,00000011000000000000000000000001,000000000000000000,,,,,4 198,,2 535,13,,,,,,,0,2,19,224,1,,,,,
26/04/2019 05:15,27/04/2019 01:45,End Of Trip,43.0280219,-85.5926953,0,,,2.88,0,234,45,23,Off,True,True,00000010000000000000000000000000,000000000000000000,,,,,4 200,,2 530,13,,,,,,,0,2,20,227,1,,,,,
26/04/2019 05:20,27/04/2019 01:45,Start Of Trip,43.0280219,-85.5926953,0,,,2.88,0,234,45,23,On,True,True,00000011000000000000000000000001,000000000000000000,,,,,4 194,,2 603,13,,,,,,,0,3,21,230,2,,,,,
26/04/2019 05:21,27/04/2019 01:45,Distance Travelled,43.0275377,-85.5902902,57,,,1.08,180,242,14,20,On,True,True,00000011000000000000000000000001,000000000000000000,,,,,4 194,,2 603,13,,,,,,,0,3,21,230,2,,,,,
26/04/2019 05:24,27/04/2019 01:45,Elapsed Time,42.9844089,-85.5908599,79,,,1.44,180,240,49,16,On,True,True,00000011000000000000000000000001,000000000000000000,,,,,4 192,,2 669,13,,,,,,,0,4,22,239,2,,,,,
26/04/2019 05:26,27/04/2019 01:45,Elapsed Time,42.9640936,-85.5902832,18,,,1.08,182,230,34,22,On,True,True,00000011000000000000000000000001,000000000000000000,,,,,4 192,,2 636,13,,,,,,,0,4,23,242,2,,,,,
26/04/2019 05:28,27/04/2019 01:45,Elapsed Time,42.9594902,-85.6136315,72,,,1.44,256,201,33,20,On,True,True,00000011000000000000000000000001,000000000000000000,,,,,4 190,,2 679,13,,,,,,,0,4,24,246,2,,,,,
26/04/2019 05:30,27/04/2019 01:45,Elapsed Time,42.9557370,-85.6271690,27,,,1.44,182,227,47,20,On,True,True,00000011000000000000000000000001,000000000000000000,,,,,4 192,,2 651,13,,,,,,,0,4,25,250,2,,,,,
26/04/2019 05:32,27/04/2019 01:45,Elapsed Time,42.9556157,-85.6323128,0,,,1.80,152,221,29,18,On,True,True,00000011000000000000000000000001,000000000000000000,,,,,4 190,,2 667,13,,,,,,,0,4,26,253,2,,,,,
26/04/2019 05:34,27/04/2019 01:45,Elapsed Time,42.9555163,-85.6320936,0,,,1.80,0,238,36,20,On,True,True,00000011000000000000000000000001,000000000000000000,,,,,4 194,,2 643,13,,,,,,,0,4,27,256,2,,,,,
26/04/2019 05:36,27/04/2019 01:45,Elapsed Time,42.9555023,-85.6320930,0,,,2.52,0,240,43,17,On,True,True,00000011000000000000000000000001,000000000000000000,,,,,4 194,,2 648,13,,,,,,,0,4,28,259,2,,,,,
26/04/2019 05:38,27/04/2019 01:45,End Of Trip,42.9555097,-85.6321895,0,,,1.44,0,224,37,18,Off,True,True,00000010000000000000000000000000,000000000000000000,,,,,4 192,,2 636,13,,,,,,,0,4,29,261,2,,,,,
26/04/2019 05:53,27/04/2019 01:45,Start Of Trip,42.9555097,-85.6321895,0,,,1.44,0,224,37,18,On,True,True,00000011000000000000000000000001,000000000000000000,,,,,4 191,,2 677,13,,,,,,,0,5,30,264,3,,,,,
26/04/2019 05:54,27/04/2019 01:45,Distance Travelled,42.9555035,-85.6362364,32,,,0.72,272,216,15,12,On,True,True,00000011000000000000000000000001,000000000000000000,,,,,4 191,,2 677,13,,,,,,,0,5,30,264,3,,,,,
26/04/2019 05:57,27/04/2019 01:45,Elapsed Time,42.9555782,-85.6491435,0,,,1.44,286,227,28,23,On,True,True,00000011000000000000000000000001,000000000000000000,,,,,4 187,,2 747,13,,,,,,,0,6,31,272,3,,,,,
26/04/2019 05:59,27/04/2019 01:45,Elapsed Time,42.9558730,-85.6624765,38,,,1.08,270,190,36,17,On,True,True,00000011000000000000000000000001,000000000000000000,,,,,4 190,,2 697,13,,,,,,,0,6,32,311,3,,,,,
26/04/2019 06:01,27/04/2019 01:45,Elapsed Time,42.9486735,-85.6651739,0,,,2.16,0,186,36,18,On,True,True,00000011000000000000000000000001,000000000000000000,,,,,4 189,,2 717,13,,,,,,,0,6,33,315,3,,,,,
26/04/2019 06:03,27/04/2019 01:45,Elapsed Time,42.9488141,-85.6705889,43,,,0.72,268,191,31,13,On,True,True,00000011000000000000000000000001,000000000000000000,,,,,4 190,,2 709,13,,,,,,,0,6,34,318,3,,,,,
26/04/2019 06:05,27/04/2019 01:45,Elapsed Time,42.9623756,-85.6777955,92,,,3.60,328,193,46,13,On,True,True,00000011000000000000000000000001,000000000000000000,,,,,4 189,,2 714,13,,,,,,,0,6,35,321,3,,,,,
26/04/2019 06:07,27/04/2019 01:45,Elapsed Time,42.9661261,-85.6776029,3,,,3.96,180,168,44,20,On,True,True,00000011000000000000000000000001,000000000000000000,,,,,4 189,,2 716,13,,,,,,,0,6,36,323,3,,,,,
26/04/2019 06:10,27/04/2019 01:45,Elapsed Time,42.9659346,-85.6780257,0,,,2.52,346,182,47,20,On,True,True,00000011000000000000000000000001,000000000000000000,,,,,4 191,,2 700,13,,,,,,,0,6,37,327,3,,,,,
26/04/2019 06:12,27/04/2019 01:45,Elapsed Time,42.9667467,-85.6779184,0,,,3.24,126,213,37,16,On,True,True,00000011000000000000000000000001,000000000000000000,,,,,4 190,,2 701,13,,,,,,,0,6,38,345,3,,,,,
26/04/2019 06:14,27/04/2019 01:45,Elapsed Time,42.9659148,-85.6780446,0,,,4.32,180,181,41,26,On,True,True,00000011000000000000000000000001,000000000000000000,,,,,4 186,,2 742,13,,,,,,,0,6,39,398,3,,,,,
26/04/2019 06:16,27/04/2019 01:45,Elapsed Time,42.9660430,-85.6780413,3,,,3.60,188,209,44,16,On,True,True,00000011000000000000000000000001,000000000000000000,,,,,4 189,,2 711,13,,,,,,,0,6,40,443,3,,,,,
26/04/2019 06:19,27/04/2019 01:45,End Of Trip,42.9658629,-85.6779032,0,,,4.32,356,161,34,19,Off,True,True,00000010000000000000000000000000,000000000000000000,,,,,4 191,,2 696,13,,,,,,,0,6,41,451,3,,,,,
26/04/2019 15:10,27/04/2019 01:45,Heartbeat Status,42.9660548,-85.6778981,0,,,1.44,172,189,45,25,Off,True,True,00000010000000000000000000000000,000000000000000000,,,,,4 182,,2 242,,,,,,,,0,0,0,0,0,,,,,
26/04/2019 21:20,27/04/2019 01:45,Start Of Trip,42.9660548,-85.6778981,0,,,1.44,172,189,45,25,On,True,True,00000011000000000000000000000001,000000000000000000,,,,,4 186,,2 124,,,,,,,,0,1,7,306,1,,,,,
26/04/2019 21:40,27/04/2019 01:45,Distance Travelled,43.0192132,-85.7010320,119,,,1.08,280,244,24,19,On,True,True,00000011000000000000000000000001,000000000000000000,,,,,4 186,,2 124,,,,,,,,0,1,7,306,1,,,,,
26/04/2019 21:44,27/04/2019 01:45,Elapsed Time,43.0278605,-85.7636507,73,,,3.60,358,222,46,19,On,True,True,00000011000000000000000000000001,000000000000000000,,,,,4 182,,2 172,,,,,,,,0,2,8,351,1,,,,,
26/04/2019 21:46,27/04/2019 01:45,Elapsed Time,43.0478811,-85.7681692,85,,,2.52,0,212,46,23,On,True,True,00000011000000000000000000000001,000000000000000000,,,,,4 184,,2 151,,,,,,,,0,2,9,357,1,,,,,
26/04/2019 21:48,27/04/2019 01:45,Elapsed Time,43.0734048,-85.7679871,90,,,1.80,0,226,36,19,On,True,True,00000011000000000000000000000001,000000000000000000,,,,,4 181,,2 178,,,,,,,,0,2,10,361,1,,,,,
26/04/2019 21:50,27/04/2019 01:45,Elapsed Time,43.1019979,-85.7681968,90,,,2.52,358,244,41,21,On,True,True,00000011000000000000000000000001,000000000000000000,,,,,4 182,,2 182,,,,,,,,0,2,11,365,1,,,,,
26/04/2019 21:52,27/04/2019 01:45,Elapsed Time,43.1109244,-85.7688050,0,,,2.88,352,281,41,21,On,True,True,00000011000000000000000000000001,000000000000000000,,,,,4 186,,2 122,,,,,,,,0,2,12,370,1,,,,,
26/04/2019 21:55,27/04/2019 01:45,Elapsed Time,43.1108001,-85.7688594,0,,,2.16,190,266,40,23,On,True,True,00000011000000000000000000000001,000000000000000000,,,,,4 189,,2 081,,,,,,,,0,2,13,374,1,,,,,
26/04/2019 21:57,27/04/2019 01:45,Elapsed Time,43.1108300,-85.7688949,0,,,1.80,186,276,25,22,On,True,True,00000011000000000000000000000001,000000000000000000,,,,,4 187,,2 101,,,,,,,,0,2,14,377,1,,,,,
26/04/2019 21:59,27/04/2019 01:45,End Of Trip,43.1108525,-85.7688029,0,,,2.16,0,272,30,21,Off,True,True,00000010000000000000000000000000,000000000000000000,,,,,4 186,,2 117,,,,,,,,0,2,15,380,1,,,,,
27/04/2019 01:13,27/04/2019 01:45,Start Of Trip,43.1108525,-85.7688029,0,,,2.16,0,272,30,21,On,True,True,00000011000000000000000000000001,000000000000000000,,,,,4 186,,2 040,,,,,,,,0,3,19,469,2,,,,,
27/04/2019 01:14,27/04/2019 01:45,Distance Travelled,43.1067678,-85.7683742,82,,,0.72,178,255,13,15,On,True,True,00000011000000000000000000000001,000000000000000000,,,,,4 186,,2 040,,,,,,,,0,3,19,469,2,,,,,
27/04/2019 01:17,27/04/2019 01:45,Elapsed Time,43.0648898,-85.7680830,71,,,1.08,178,226,37,21,On,True,True,00000011000000000000000000000001,000000000000000000,,,,,4 179,,2 155,,,,,,,,0,4,20,476,2,,,,,
27/04/2019 01:19,27/04/2019 01:45,Elapsed Time,43.0376817,-85.7634086,95,,,0.72,178,224,29,15,On,True,True,00000011000000000000000000000001,000000000000000000,,,,,4 180,,2 146,,,,,,,,0,4,21,480,2,,,,,
27/04/2019 01:21,27/04/2019 01:45,Elapsed Time,43.0164685,-85.7636996,32,,,1.08,262,211,38,14,On,True,True,00000011000000000000000000000001,000000000000000000,,,,,4 185,,2 078,,,,,,,,0,4,22,483,2,,,,,
27/04/2019 01:24,27/04/2019 01:45,Elapsed Time,43.0211281,-85.7253644,122,,,1.80,72,197,43,17,On,True,True,00000011000000000000000000000001,000000000000000000,,,,,4 182,,2 109,,,,,,,,0,4,23,488,2,,,,,
27/04/2019 01:26,27/04/2019 01:45,Elapsed Time,43.0131926,-85.6778292,108,,,1.08,140,202,27,17,On,True,True,00000011000000000000000000000001,000000000000000000,,,,,4 185,,2 075,,,,,,,,0,4,24,493,2,,,,,
27/04/2019 01:28,27/04/2019 01:45,Elapsed Time,42.9792731,-85.6775681,102,,,2.16,186,202,33,20,On,True,True,00000011000000000000000000000001,000000000000000000,,,,,4 183,,2 107,,,,,,,,0,4,25,533,2,,,,,
27/04/2019 01:30,27/04/2019 01:45,Elapsed Time,42.9527475,-85.6725484,109,,,1.08,202,195,35,21,On,True,True,00000011000000000000000000000001,000000000000000000,,,,,4 186,,2 082,,,,,,,,0,4,26,536,2,,,,,
27/04/2019 01:32,27/04/2019 01:45,Elapsed Time,42.9173808,-85.6793876,127,,,1.08,160,202,38,21,On,True,True,00000011000000000000000000000001,000000000000000000,,,,,4 183,,2 103,,,,,,,,0,4,27,539,2,,,,,
27/04/2019 01:34,27/04/2019 01:45,Elapsed Time,42.8774822,-85.6821998,122,,,2.16,178,209,40,21,On,True,True,00000011000000000000000000000001,000000000000000000,,,,,4 184,,2 117,,,,,,,,0,4,28,542,2,,,,,
27/04/2019 01:36,27/04/2019 01:45,Elapsed Time,42.8382962,-85.6776564,131,,,1.44,168,205,33,23,On,True,True,00000011000000000000000000000001,000000000000000000,,,,,4 187,,2 072,,,,,,,,0,4,29,543,2,,,,,
27/04/2019 01:38,27/04/2019 01:45,Elapsed Time,42.8015039,-85.6688655,122,,,1.08,178,256,39,23,On,True,True,00000011000000000000000000000001,000000000000000000,,,,,4 180,,2 129,,,,,,,,0,4,30,546,2,,,,,
27/04/2019 01:40,27/04/2019 01:45,Elapsed Time,42.7615259,-85.6736419,134,,,1.08,184,231,23,22,On,True,True,00000011000000000000000000000001,000000000000000000,,,,,4 183,,2 107,,,,,,,,0,4,31,549,2,,,,,
27/04/2019 01:42,27/04/2019 01:45,Elapsed Time,42.7224187,-85.6711095,131,,,0.72,152,243,26,22,On,True,True,00000011000000000000000000000001,000000000000000000,,,,,4 182,,2 107,,,,,,,,0,4,32,554,2,,,,,
27/04/2019 01:44,27/04/2019 01:45,Elapsed Time,42.6839089,-85.6607238,125,,,1.08,182,225,23,22,On,True,True,00000011000000000000000000000001,000000000000000000,,,,,4 185,,2 086,,,,,,,,0,4,33,558,2,,,,,
27/04/2019 01:45,27/04/2019 01:46,Sensor Value Elapsed Time,42.6839089,-85.6607238,125,,,1.08,182,225,23,22,On,True,True,00000011000000000000000000001001,000000000000000000,,,,,4 176,,2 156,,2 115,6 726,,,,,0,4,34,562,2,,,,,
27/04/2019 01:46,27/04/2019 01:47,Elapsed Time,42.6471728,-85.6622676,128,,,2.52,180,223,35,28,On,True,True,00000011000000000000000000001001,000000000000000000,,,,,4 176,,2 156,22,2 132,6 718,,,,,0,4,34,562,2,,,,,
27/04/2019 01:48,27/04/2019 02:17,Elapsed Time,42.6111834,-85.6607651,119,,,1.08,170,260,36,19,On,True,True,00000011000000000000000000001001,000000000000000000,,,,,4 179,,2 153,12,2 140,6 691,,,,,0,4,35,620,2,,,,,
27/04/2019 01:50,27/04/2019 02:17,Elapsed Time,42.5727212,-85.6626382,125,,,1.44,178,261,33,20,On,True,True,00000011000000000000000000001001,000000000000000000,,,,,4 184,,2 109,12,2 134,6 707,,,,,0,4,36,624,2,,,,,
27/04/2019 01:52,27/04/2019 02:17,Elapsed Time,42.5353266,-85.6597595,120,,,0.72,170,262,35,17,On,True,True,00000011000000000000000000001001,000000000000000000,,,,,4 182,,2 115,12,2 129,6 723,,,,,0,4,37,628,2,,,,,
27/04/2019 01:55,27/04/2019 02:17,Elapsed Time,42.4950407,-85.6520022,135,,,1.08,174,245,35,17,On,True,True,00000011000000000000000000001001,000000000000000000,,,,,4 186,,2 087,12,2 126,6 729,,,,,0,4,38,630,2,,,,,
27/04/2019 01:57,27/04/2019 02:17,Elapsed Time,42.4540130,-85.6542141,131,,,1.08,198,226,32,16,On,True,True,00000011000000000000000000001001,000000000000000000,,,,,4 183,,2 102,12,2 124,6 738,,,,,0,4,39,634,2,,,,,
27/04/2019 01:59,27/04/2019 02:17,Elapsed Time,42.4179625,-85.6604713,122,,,1.08,178,245,47,18,On,True,True,00000011000000000000000000001001,000000000000000000,,,,,4 185,,2 095,12,2 126,6 723,,,,,0,4,40,673,2,,,,,
27/04/2019 02:01,27/04/2019 02:17,Elapsed Time,42.3802194,-85.6569853,125,,,1.08,172,302,34,17,On,True,True,00000011000000000000000000001001,000000000000000000,,,,,4 182,,2 134,12,2 123,6 741,,,,,0,4,41,676,2,,,,,
27/04/2019 02:03,27/04/2019 02:17,Elapsed Time,42.3409735,-85.6641729,131,,,1.08,202,278,30,17,On,True,True,00000011000000000000000000001001,000000000000000000,,,,,4 181,,2 126,12,2 121,6 748,,,,,0,4,42,679,2,,,,,
27/04/2019 02:05,27/04/2019 02:17,Elapsed Time,42.3012876,-85.6638988,128,,,1.08,178,308,16,20,On,True,True,00000011000000000000000000001001,000000000000000000,,,,,4 184,,2 080,12,2 117,6 755,,,,,0,4,43,683,2,,,,,
27/04/2019 02:07,27/04/2019 02:17,Elapsed Time,42.2633907,-85.6525829,119,,,1.08,168,277,39,18,On,True,True,00000011000000000000000000001001,000000000000000000,,,,,4 184,,2 095,12,2 113,6 760,,,,,0,4,44,688,2,,,,,
27/04/2019 02:09,27/04/2019 02:17,Elapsed Time,42.2362040,-85.6358079,85,,,1.08,48,273,41,15,On,True,True,00000011000000000000000000001001,000000000000000000,,,,,4 182,,2 095,12,2 115,6 770,,,,,0,4,45,691,2,,,,,
27/04/2019 02:11,27/04/2019 02:17,Elapsed Time,42.2366599,-85.5857112,124,,,0.72,88,269,32,16,On,True,True,00000011000000000000000000001001,000000000000000000,,,,,4 185,,2 096,12,2 114,6 778,,,,,0,4,46,695,2,,,,,
27/04/2019 02:13,27/04/2019 02:17,Elapsed Time,42.2535375,-85.5389512,129,,,1.08,46,250,45,14,On,True,True,00000011000000000000000000001001,000000000000000000,,,,,4 184,,2 110,12,2 109,6 782,,,,,0,4,47,699,2,,,,,
27/04/2019 02:15,27/04/2019 02:17,Elapsed Time,42.2697057,-85.4939757,130,,,1.08,86,248,42,20,On,True,True,00000011000000000000000000001001,000000000000000000,,,,,4 181,,2 123,12,2 109,6 796,,,,,0,4,48,702,2,,,,,
27/04/2019 02:17,27/04/2019 02:43,Elapsed Time,42.2703745,-85.4426811,107,,,1.08,76,246,49,23,On,True,True,00000011000000000000000000001001,000000000000000000,,,,,4 180,,2 142,11,2 124,6 804,,,,,0,4,49,707,2,,,,,
27/04/2019 02:19,27/04/2019 02:43,Elapsed Time,42.2795308,-85.3948877,117,,,1.08,76,243,48,23,On,True,True,00000011000000000000000000001001,000000000000000000,,,,,4 186,,2 090,11,2 120,6 805,,,,,0,4,50,712,2,,,,,
27/04/2019 02:22,27/04/2019 02:43,Elapsed Time,42.2818647,-85.3458963,120,,,0.72,102,306,45,17,On,True,True,00000011000000000000000000001001,000000000000000000,,,,,4 180,,2 138,11,2 122,6 800,,,,,0,4,51,752,2,,,,,
27/04/2019 02:24,27/04/2019 02:43,Elapsed Time,42.2722551,-85.2949592,123,,,0.72,104,348,45,18,On,True,True,00000011000000000000000000001001,000000000000000000,,,,,4 180,,2 131,11,2 120,6 818,,,,,0,4,52,755,2,,,,,
27/04/2019 02:26,27/04/2019 02:43,Elapsed Time,42.2651209,-85.2427353,120,,,0.72,88,291,30,17,On,True,True,00000011000000000000000000001001,000000000000000000,,,,,4 178,,2 165,11,2 119,6 823,,,,,0,4,53,759,2,,,,,
27/04/2019 02:28,27/04/2019 02:43,Elapsed Time,42.2618106,-85.1949668,108,,,0.72,84,272,33,18,On,True,True,00000011000000000000000000001001,000000000000000000,,,,,4 181,,2 114,11,2 116,6 832,,,,,0,4,54,763,2,,,,,
27/04/2019 02:30,27/04/2019 02:43,Elapsed Time,42.2756842,-85.1785951,117,,,1.08,358,279,45,22,On,True,True,00000011000000000000000000001001,000000000000000000,,,,,4 181,,2 115,11,2 114,6 834,,,,,0,4,55,766,2,,,,,
27/04/2019 02:32,27/04/2019 02:43,Elapsed Time,42.3093753,-85.1846176,88,,,1.08,24,283,47,13,On,True,True,00000011000000000000000000001001,000000000000000000,,,,,4 182,,2 115,11,2 114,6 843,,,,,0,4,56,770,2,,,,,
27/04/2019 02:34,27/04/2019 02:43,Elapsed Time,42.3118136,-85.1840251,72,,,1.08,270,246,48,22,On,True,True,00000011000000000000000000001001,000000000000000000,,,,,4 179,,2 134,11,2 112,6 843,,,,,0,4,57,774,2,,,,,
27/04/2019 02:36,27/04/2019 02:43,Elapsed Time,42.3142018,-85.1895447,4,,,1.08,72,263,35,14,On,True,True,00000011000000000000000000001001,000000000000000000,,,,,4 181,,2 114,11,2 111,6 845,,,,,0,4,58,777,2,,,,,
27/04/2019 02:38,27/04/2019 02:43,Elapsed Time,42.3141391,-85.1893004,0,,,1.80,0,262,35,16,On,True,True,00000011000000000000000000001001,000000000000000000,,,,,4 179,,2 126,11,2 110,6 852,,,,,0,4,59,781,2,,,,,
27/04/2019 02:40,27/04/2019 02:43,Elapsed Time,42.3141286,-85.1891918,0,,,3.24,0,235,47,15,On,True,True,00000011000000000000000000001001,000000000000000000,,,,,4 182,,2 096,11,2 112,6 859,,,,,0,4,60,784,2,,,,,
27/04/2019 02:42,27/04/2019 02:43,End Of Trip,42.3141274,-85.1893157,0,,,2.52,0,271,35,16,Off,True,True,00000010000000000000000000001000,000000000000000000,,,,,4 180,,2 106,11,2 110,6 866,,,,,0,4,61,787,2,,,,,
27/04/2019 03:43,27/04/2019 03:44,Start Of Trip,42.3141274,-85.1893157,0,,,2.52,0,271,35,16,On,True,True,00000011000000000000000000001001,000000000000000000,,,,,4 180,,2 119,23,2 136,6 893,,,,,0,4,74,965,3,,,,,
27/04/2019 03:44,27/04/2019 03:44,Distance Travelled,42.3158460,-85.1888184,31,,,0.72,52,245,12,12,On,True,True,00000011000000000000000000001001,000000000000000000,,,,,4 180,,2 119,23,2 136,6 893,,,,,0,4,74,965,3,,,,,
27/04/2019 03:46,27/04/2019 04:14,Elapsed Time,42.3233786,-85.1909586,33,,,1.80,20,252,37,13,On,True,True,00000011000000000000000000001001,000000000000000000,,,,,4 182,,2 141,27,2 145,6 894,,,,,0,4,75,972,3,,,,,
27/04/2019 03:48,27/04/2019 04:14,Elapsed Time,42.3254943,-85.1950547,59,,,0.72,290,251,38,14,On,True,True,00000011000000000000000000001001,000000000000000000,,,,,4 181,,2 128,27,2 146,6 900,,,,,0,4,76,977,3,,,,,
27/04/2019 03:50,27/04/2019 04:14,Elapsed Time,42.3347863,-85.2133660,67,,,0.72,324,265,34,23,On,True,True,00000011000000000000000000001001,000000000000000000,,,,,4 181,,2 131,27,2 143,6 906,,,,,0,4,77,981,3,,,,,
27/04/2019 03:52,27/04/2019 04:14,Elapsed Time,42.3451950,-85.2298883,50,,,1.44,0,262,42,17,On,True,True,00000011000000000000000000001001,000000000000000000,,,,,4 178,,2 160,27,2 145,6 905,,,,,0,4,78,985,3,,,,,
27/04/2019 03:54,27/04/2019 04:14,Elapsed Time,42.3662639,-85.2349250,87,,,1.08,346,256,31,19,On,True,True,00000011000000000000000000001001,000000000000000000,,,,,4 181,,2 130,27,2 145,6 906,,,,,0,4,79,988,3,,,,,
27/04/2019 03:57,27/04/2019 04:14,Elapsed Time,42.3934027,-85.2326291,66,,,1.44,10,276,32,21,On,True,True,00000011000000000000000000001001,000000000000000000,,,,,4 181,,2 152,27,2 144,6 907,,,,,0,4,80,992,3,,,,,
27/04/2019 03:59,27/04/2019 04:14,Elapsed Time,42.4162438,-85.2370783,88,,,1.44,336,277,39,14,On,True,True,00000011000000000000000000001001,000000000000000000,,,,,4 181,,2 127,27,2 145,6 911,,,,,0,4,81,997,3,,,,,
27/04/2019 04:01,27/04/2019 04:14,Elapsed Time,42.4438747,-85.2412337,88,,,1.08,348,292,40,19,On,True,True,00000011000000000000000000001001,000000000000000000,,,,,4 178,,2 166,27,2 145,6 913,,,,,0,4,82,1 002,3,,,,,
27/04/2019 04:03,27/04/2019 04:14,Elapsed Time,42.4680180,-85.2527555,91,,,1.44,314,283,30,18,On,True,True,00000011000000000000000000001001,000000000000000000,,,,,4 180,,2 152,27,2 146,6 916,,,,,0,4,83,1 007,3,,,,,
27/04/2019 04:05,27/04/2019 04:14,Elapsed Time,42.4934990,-85.2588001,93,,,1.44,4,304,40,16,On,True,True,00000011000000000000000000001001,000000000000000000,,,,,4 180,,2 151,27,2 147,6 919,,,,,0,4,84,1 011,3,,,,,
27/04/2019 04:07,27/04/2019 04:14,Elapsed Time,42.5209646,-85.2536916,79,,,1.44,10,287,42,19,On,True,True,00000011000000000000000000001001,000000000000000000,,,,,4 176,,2 178,27,2 146,6 926,,,,,0,4,85,1 014,3,,,,,
27/04/2019 04:09,27/04/2019 04:14,Elapsed Time,42.5470628,-85.2532305,89,,,1.08,352,287,31,15,On,True,True,00000011000000000000000000001001,000000000000000000,,,,,4 175,,2 188,27,2 145,6 929,,,,,0,4,86,1 017,3,,,,,
27/04/2019 04:11,27/04/2019 04:14,Elapsed Time,42.5743600,-85.2636466,96,,,1.08,330,280,32,15,On,True,True,00000011000000000000000000001001,000000000000000000,,,,,4 180,,2 162,27,2 150,6 939,,,,,0,4,87,1 022,3,,,,,
27/04/2019 04:13,27/04/2019 04:14,Elapsed Time,42.6023396,-85.2705918,90,,,1.08,358,267,49,16,On,True,True,00000011000000000000000000001001,000000000000000000,,,,,4 180,,2 156,27,2 147,6 938,,,,,0,4,88,1 027,3,,,,,
27/04/2019 04:15,27/04/2019 08:38,Elapsed Time,42.6289019,-85.2833931,77,,,1.08,340,247,40,16,On,True,True,00000011000000000000000000001001,000000000000000000,,,,,4 177,,2 177,13,2 162,6 943,,,,,0,4,89,1 031,3,,,,,
27/04/2019 04:17,27/04/2019 08:38,Elapsed Time,42.6459195,-85.2857089,0,,,2.52,214,232,44,15,On,True,True,00000011000000000000000000001001,000000000000000000,,,,,4 179,,2 148,13,2 157,6 942,,,,,0,4,90,1 036,3,,,,,
27/04/2019 04:19,27/04/2019 08:38,Elapsed Time,42.6438729,-85.3032092,65,,,1.80,242,237,39,20,On,True,True,00000011000000000000000000001001,000000000000000000,,,,,4 182,,2 128,13,2 159,6 945,,,,,0,4,91,1 039,3,,,,,
27/04/2019 04:22,27/04/2019 08:38,Elapsed Time,42.6457953,-85.3339043,64,,,1.44,272,256,36,22,On,True,True,00000011000000000000000000001001,000000000000000000,,,,,4 177,,2 183,13,2 157,6 950,,,,,0,4,92,1 043,3,,,,,
27/04/2019 04:24,27/04/2019 08:38,Elapsed Time,42.6612852,-85.3640494,99,,,1.08,296,222,41,21,On,True,True,00000011000000000000000000001001,000000000000000000,,,,,4 179,,2 155,13,2 157,6 957,,,,,0,4,93,1 046,3,,,,,
27/04/2019 04:26,27/04/2019 08:38,Elapsed Time,42.6749526,-85.3994588,99,,,1.08,270,245,35,15,On,True,True,00000011000000000000000000001001,000000000000000000,,,,,4 178,,2 181,13,2 155,6 964,,,,,0,4,94,1 050,3,,,,,
27/04/2019 04:28,27/04/2019 08:38,Elapsed Time,42.6748969,-85.4408589,92,,,1.08,270,231,32,15,On,True,True,00000011000000000000000000001001,000000000000000000,,,,,4 178,,2 153,13,2 157,6 970,,,,,0,4,95,1 053,3,,,,,
27/04/2019 04:30,27/04/2019 08:38,Elapsed Time,42.6957054,-85.4651182,94,,,1.44,336,219,42,15,On,True,True,00000011000000000000000000001001,000000000000000000,,,,,4 178,,2 163,13,2 157,6 974,,,,,0,4,96,1 057,3,,,,,
27/04/2019 04:32,27/04/2019 08:38,Elapsed Time,42.7171729,-85.4703213,82,,,1.08,342,231,29,13,On,True,True,00000011000000000000000000001001,000000000000000000,,,,,4 178,,2 176,13,2 157,6 978,,,,,0,4,97,1 062,3,,,,,
27/04/2019 04:34,27/04/2019 08:38,Elapsed Time,42.7407833,-85.4877270,89,,,1.44,330,214,44,15,On,True,True,00000011000000000000000000001001,000000000000000000,,,,,4 179,,2 153,13,2 157,6 980,,,,,0,4,98,1 067,3,,,,,
27/04/2019 04:36,27/04/2019 08:38,Elapsed Time,42.7634943,-85.5064472,87,,,1.44,358,248,44,15,On,True,True,00000011000000000000000000001001,000000000000000000,,,,,4 179,,2 159,13,2 157,6 980,,,,,0,4,99,1 070,3,,,,,
27/04/2019 04:38,27/04/2019 08:38,Elapsed Time,42.7869923,-85.5068481,74,,,1.80,0,241,43,15,On,True,True,00000011000000000000000000001001,000000000000000000,,,,,4 179,,2 159,13,2 157,6 988,,,,,0,4,100,1 074,3,,,,,
27/04/2019 04:40,27/04/2019 08:38,Elapsed Time,42.8052983,-85.5071282,69,,,3.96,0,234,25,16,On,True,True,00000011000000000000000000001001,000000000000000000,,,,,4 178,,2 166,13,2 168,6 962,,,,,0,4,101,1 114,3,,,,,
27/04/2019 04:42,27/04/2019 08:38,Elapsed Time,42.8166896,-85.5132094,66,,,1.44,332,227,36,15,On,True,True,00000011000000000000000000001001,000000000000000000,,,,,4 180,,2 165,13,2 161,6 987,,,,,0,4,102,1 121,3,,,,,
27/04/2019 04:47,27/04/2019 08:38,Elapsed Time,42.8533030,-85.5409646,63,,,2.16,328,223,31,13,On,True,True,00000011000000000000000000001001,000000000000000000,,,,,4 176,,2 218,13,2 196,6 987,,,,,0,5,103,1 124,3,,,,,
27/04/2019 04:49,27/04/2019 08:38,Elapsed Time,42.8728123,-85.5466184,74,,,1.80,358,236,34,19,On,True,True,00000011000000000000000000001001,000000000000000000,,,,,4 180,,2 173,13,2 188,6 987,,,,,0,5,104,1 130,3,,,,,
27/04/2019 04:51,27/04/2019 08:38,Elapsed Time,42.8837144,-85.5329566,53,,,1.08,86,238,48,17,On,True,True,00000011000000000000000000001001,000000000000000000,,,,,4 181,,2 152,13,2 189,6 987,,,,,0,5,105,1 149,3,,,,,
27/04/2019 04:56,27/04/2019 08:38,Sensor Value Elapsed Time,42.8840926,-85.5305173,0,,,8.28,0,330,33,24,On,True,True,00000011000000000000000000001001,000000000000000000,,,,,4 175,,2 227,13,2 215,6 871,,,,,0,5,107,1 212,3,,,,,
27/04/2019 04:57,27/04/2019 08:38,End Of Trip,42.8840926,-85.5305173,0,,,8.28,0,330,33,24,Off,True,True,00000010000000000000000000001000,000000000000000000,,,,,4 175,,2 227,13,2 215,6 871,,,,,0,5,107,1 212,3,,,,,
27/04/2019 07:58,27/04/2019 08:38,Sensor Value Elapsed Time,42.8855496,-85.5272645,0,,,4.68,0,268,35,30,Off,True,True,00000010000000000000000000001000,000000000000000000,,,,,4 173,,2 115,13,2 114,7 009,,,,,0,6,140,2 481,3,,,,,
27/04/2019 08:37,27/04/2019 08:38,Start Of Trip,41.9764846,-87.9014279,0,,,2.52,96,215,31,14,On,True,True,00000011000000000000000000001001,000000000000000000,,,,,4 171,,2 089,13,2 080,7 317,,,,,0,6,146,2 841,4,,,,,
27/04/2019 08:43,27/04/2019 08:44,End Of Trip,41.9764846,-87.9014279,0,,,2.88,96,215,26,14,Off,True,True,00000010000000000000000000001000,000000000000000000,,,,,4 168,,2 128,30,2 140,7 429,,,,,0,6,148,2 937,4,,,,,
27/04/2019 09:48,27/04/2019 14:40,Sensor Value Elapsed Time,41.9740806,-87.8983773,1,,,4.68,0,193,43,19,Off,True,True,00000010000000000000000000001000,000000000000000000,,,,,4 165,,2 203,13,2 216,7 788,,,,,0,6,168,4 123,4,,,,,
27/04/2019 11:55,27/04/2019 14:40,Sensor Value Elapsed Time,41.9740806,-87.8983773,1,,,4.68,0,193,43,19,Off,True,True,00000010000000000000000000001000,000000000000000000,,,,,4 157,,2 126,13,2 115,8 351,,,,,0,6,212,6 763,4,,,,,
27/04/2019 14:39,27/04/2019 14:40,Start Of Trip,33.9427253,-118.4067799,0,,,3.24,30,64,35,15,On,True,True,00000011000000000000000000001001,000000000000000000,,,,,4 142,,2 129,13,2 191,8 110,,,,,0,6,290,11 443,5,,,,,
27/04/2019 14:41,27/04/2019 14:46,Elapsed Time,33.9426112,-118.4070279,4,,,2.88,226,32,42,18,On,True,True,00000011000000000000000000001001,000000000000000000,,,,,4 142,,2 176,21,2 188,8 124,,,,,0,6,291,11 504,5,,,,,
27/04/2019 14:43,27/04/2019 14:46,Elapsed Time,33.9423235,-118.4077217,0,,,3.60,0,29,49,22,On,True,True,00000011000000000000000000001001,000000000000000000,,,,,4 141,,2 159,21,2 182,8 040,,,,,0,6,292,11 556,5,,,,,
27/04/2019 14:45,27/04/2019 14:46,End Of Trip,33.9427075,-118.4060813,2,,,1.80,64,56,46,20,Off,True,True,00000010000000000000000000001000,000000000000000000,,,,,4 141,,2 171,21,2 173,8 143,,,,,0,6,293,11 593,5,,,,,
27/04/2019 14:49,27/04/2019 14:52,Start Of Trip,33.9427075,-118.4060813,2,,,1.80,64,56,46,20,On,True,True,00000011000000000000000000001001,000000000000000000,,,,,4 141,,2 142,21,2 172,8 260,,,,,0,6,298,11 667,6,,,,,
27/04/2019 14:51,27/04/2019 14:52,Distance Travelled,33.9433943,-118.3989093,22,,,1.08,82,31,28,25,On,True,True,00000011000000000000000000001001,000000000000000000,,,,,4 141,,2 142,21,2 172,8 260,,,,,0,6,298,11 667,6,,,,,
27/04/2019 14:53,27/04/2019 15:21,Elapsed Time,33.9493528,-118.3941447,32,,,1.44,138,30,41,17,On,True,True,00000011000000000000000000001001,000000000000000000,,,,,4 141,,2 155,18,2 173,8 309,,,,,0,6,299,11 677,6,,,,,
27/04/2019 14:56,27/04/2019 15:21,Elapsed Time,33.9589526,-118.3961526,3,,,2.88,352,53,47,17,On,True,True,00000011000000000000000000001001,000000000000000000,,,,,4 139,,2 164,18,2 168,8 315,,,,,0,6,300,11 683,6,,,,,
27/04/2019 14:58,27/04/2019 15:21,Elapsed Time,33.9714621,-118.3947977,4,,,2.52,4,82,41,19,On,True,True,00000011000000000000000000001001,000000000000000000,,,,,4 140,,2 152,18,2 164,8 326,,,,,0,6,301,11 690,6,,,,,
27/04/2019 15:00,27/04/2019 15:21,Elapsed Time,33.9806927,-118.3933508,106,,,1.44,326,33,42,17,On,True,True,00000011000000000000000000001001,000000000000000000,,,,,4 142,,2 142,18,2 159,8 333,,,,,0,6,302,11 695,6,,,,,
27/04/2019 15:02,27/04/2019 15:21,Elapsed Time,34.0086466,-118.4153642,105,,,2.16,326,29,46,17,On,True,True,00000011000000000000000000001001,000000000000000000,,,,,4 137,,2 172,18,2 157,8 338,,,,,0,6,303,11 701,6,,,,,
27/04/2019 15:04,27/04/2019 15:21,Elapsed Time,34.0312024,-118.4298020,66,,,1.08,66,40,39,17,On,True,True,00000011000000000000000000001001,000000000000000000,,,,,4 140,,2 144,18,2 159,8 284,,,,,0,6,304,11 746,6,,,,,
27/04/2019 15:06,27/04/2019 15:21,Elapsed Time,34.0291163,-118.3982335,97,,,0.72,96,29,46,19,On,True,True,00000011000000000000000000001001,000000000000000000,,,,,4 135,,2 184,18,2 150,8 257,,,,,0,6,305,11 752,6,,,,,
27/04/2019 15:08,27/04/2019 15:21,Elapsed Time,34.0360620,-118.3702590,51,,,1.08,92,25,40,20,On,True,True,00000011000000000000000000001001,000000000000000000,,,,,4 139,,2 156,18,2 145,8 271,,,,,0,6,306,11 756,6,,,,,
27/04/2019 15:10,27/04/2019 15:21,Elapsed Time,34.0439849,-118.3590022,33,,,1.08,78,31,40,17,On,True,True,00000011000000000000000000001001,000000000000000000,,,,,4 141,,2 132,18,2 143,8 295,,,,,0,6,307,11 765,6,,,,,
27/04/2019 15:13,27/04/2019 15:21,Elapsed Time,34.0540611,-118.3546176,33,,,2.16,16,80,49,16,On,True,True,00000011000000000000000000001001,000000000000000000,,,,,4 140,,2 130,18,2 138,8 295,,,,,0,6,308,11 773,6,,,,,
27/04/2019 15:15,27/04/2019 15:21,Elapsed Time,34.0616206,-118.3485402,26,,,4.68,14,57,49,22,On,True,True,00000011000000000000000000001001,000000000000000000,,,,,4 140,,2 152,18,2 136,8 310,,,,,0,6,309,11 778,6,,,,,
27/04/2019 15:17,27/04/2019 15:21,Elapsed Time,34.0618295,-118.3490164,1,,,3.24,246,113,48,19,On,True,True,00000011000000000000000000001001,000000000000000000,,,,,4 140,,2 142,18,2 135,8 252,,,,,0,6,310,11 789,6,,,,,
27/04/2019 15:20,27/04/2019 15:21,End Of Trip,34.0618295,-118.3490164,1,,,3.24,246,113,48,19,Off,True,True,00000010000000000000000000001000,000000000000000000,,,,,4 138,,2 132,18,2 145,8 181,,,,,0,6,311,11 796,6,,,,,
27/04/2019 16:07,28/04/2019 03:23,Sensor Value Elapsed Time,34.0618295,-118.3490164,1,,,3.24,246,113,48,19,Off,True,True,00000010000000000000000000001000,000000000000000000,,,,,4 137,,2 198,5,2 224,8 115,,,,,0,6,315,12 036,6,,,,,
28/04/2019 03:21,28/04/2019 03:23,Heartbeat Status,34.0618295,-118.3490164,1,,,3.24,246,113,48,19,Off,True,True,00000010000000000000000000001000,000000000000000000,,,,,4 136,,2 149,5,2 197,8 963,,,,,0,6,328,12 816,6,,,,,
28/04/2019 04:25,28/04/2019 15:24,Sensor Value Elapsed Time,34.0618295,-118.3490164,1,,,3.24,246,113,48,19,Off,True,True,00000010000000000000000000001000,000000000000000000,,,,,4 133,,2 102,5,2 122,8 322,,,,,360,6,332,13 056,6,,,,,
28/04/2019 11:50,28/04/2019 15:24,Sensor Value Elapsed Time,34.0618295,-118.3490164,1,,,3.24,246,113,48,19,Off,True,True,00000010000000000000000000001000,000000000000000000,,,,,4 133,,2 031,5,2 022,7 826,,,,,0,6,332,13 056,6,,,,,
28/04/2019 15:22,28/04/2019 15:24,Heartbeat Status,34.0618295,-118.3490164,1,,,3.24,246,113,48,19,Off,True,True,00000010000000000000000000001000,000000000000000000,,,,,4 133,,2 052,5,2 066,8 295,,,,,0,6,335,13 236,6,,,,,
