SensorId,Latitude,Longitude,Battery (%),Temperature (C),Temperature (F),Pressure (hPa),Ambient (%),Tilt Shock (°),Relative Humidity (%),Tamper,Altitude (m),Altitude (feet),SHK,X,Y,Z,Resultant,Address,Date Logged (AET (+10:00)),Time (PDT),Time (UTC +00:00)
221226,43.05885,-85.74356,92,12.8,55,975.09,0,4.25,36,0,98.35,322.67,,,,,,"5164 Peach Ridge Ave NW, Grand Rapids, MI 49544, USA",26/04/2019 5:49,"Apr 26, 2019 5:49 AM ","Apr 26, 2019 12:49 PM"
221226,43.05885,-85.74356,92,12.8,55,975.09,0,4.25,36,,98.35,322.67,,,,,,"5164 Peach Ridge Ave NW, Grand Rapids, MI 49544, USA",26/04/2019 5:49,"Apr 26, 2019 5:49 AM ","Apr 26, 2019 12:49 PM"
221226,43.01443,-85.67993,92,11.1,52,976.47,0,12.08,38,1,94.74,310.82,,,,,,"2791 Hillside Dr NW, Grand Rapids, MI 49544, USA",26/04/2019 5:59,"Apr 26, 2019 5:59 AM ","Apr 26, 2019 12:59 PM"
221226,43.01443,-85.67993,92,11.1,52,976.47,0,12.08,38,,94.74,310.82,,,,,,"2791 Hillside Dr NW, Grand Rapids, MI 49544, USA",26/04/2019 5:59,"Apr 26, 2019 5:59 AM ","Apr 26, 2019 12:59 PM"
221226,42.94,-85.69302,92,10,50,980.36,22,7.36,40,1,84.58,277.5,,,,,,"1305 Terminal Dr SW, Grand Rapids, MI 49503, USA",26/04/2019 6:09,"Apr 26, 2019 6:09 AM ","Apr 26, 2019 1:09 PM"
221226,42.94,-85.69302,92,10,50,980.36,22,7.36,40,,84.58,277.5,,,,,,"1305 Terminal Dr SW, Grand Rapids, MI 49503, USA",26/04/2019 6:09,"Apr 26, 2019 6:09 AM ","Apr 26, 2019 1:09 PM"
221226,42.94009,-85.6933,92,9.4,48.9,980.66,1,4.22,44,1,83.8,274.94,,,,,,"1281 Terminal Dr SW, Grand Rapids, MI 49503, USA",26/04/2019 6:20,"Apr 26, 2019 6:20 AM ","Apr 26, 2019 1:20 PM"
221226,42.94009,-85.6933,92,9.4,48.9,980.66,1,4.22,44,,83.8,274.94,,,,,,"1281 Terminal Dr SW, Grand Rapids, MI 49503, USA",26/04/2019 6:20,"Apr 26, 2019 6:20 AM ","Apr 26, 2019 1:20 PM"
221226,42.93087,-85.68587,92,9.5,49.1,980.59,0,4.45,45,1,83.98,275.54,,,,,,"1856 Clyde Park Ave SW, Grand Rapids, MI 49509, USA",26/04/2019 6:30,"Apr 26, 2019 6:30 AM ","Apr 26, 2019 1:30 PM"
221226,42.93087,-85.68587,92,9.5,49.1,980.59,0,4.45,45,,83.98,275.54,,,,,,"1856 Clyde Park Ave SW, Grand Rapids, MI 49509, USA",26/04/2019 6:30,"Apr 26, 2019 6:30 AM ","Apr 26, 2019 1:30 PM"
221226,42.81198,-85.70238,90,9.8,49.6,977.41,0,3.17,45,1,92.28,302.76,,,,,,"8374 Burlingame Ave SW, Byron Center, MI 49315, USA",26/04/2019 6:57,"Apr 26, 2019 6:57 AM ","Apr 26, 2019 1:57 PM"
221226,42.81198,-85.70238,90,9.8,49.6,977.41,0,3.17,45,,92.28,302.76,,,,,,"8374 Burlingame Ave SW, Byron Center, MI 49315, USA",26/04/2019 6:57,"Apr 26, 2019 6:57 AM ","Apr 26, 2019 1:57 PM"
221226,42.81042,-85.72713,90,9.7,49.5,976.59,0,3.98,42,1,94.42,309.79,,,,,,"2630 Prescott St SW, Byron Center, MI 49315, USA",26/04/2019 7:07,"Apr 26, 2019 7:07 AM ","Apr 26, 2019 2:07 PM"
221226,42.81042,-85.72713,90,9.7,49.5,976.59,0,3.98,42,,94.42,309.79,,,,,,"2630 Prescott St SW, Byron Center, MI 49315, USA",26/04/2019 7:07,"Apr 26, 2019 7:07 AM ","Apr 26, 2019 2:07 PM"
221226,42.7863,-85.66843,90,9.4,48.9,974.44,0,4.02,44,1,100.05,328.25,,,,,,"9765 Division Ave S, Byron Center, MI 49315, USA",26/04/2019 7:17,"Apr 26, 2019 7:17 AM ","Apr 26, 2019 2:17 PM"
221226,42.7863,-85.66843,90,9.4,48.9,974.44,0,4.02,44,,100.05,328.25,,,,,,"9765 Division Ave S, Byron Center, MI 49315, USA",26/04/2019 7:17,"Apr 26, 2019 7:17 AM ","Apr 26, 2019 2:17 PM"
221226,42.62434,-85.6629,90,9.4,48.9,975.48,0,7.53,45,1,97.33,319.32,,,,,,"2804 12th St, Shelbyville, MI 49344, USA",26/04/2019 7:28,"Apr 26, 2019 7:28 AM ","Apr 26, 2019 2:28 PM"
221226,42.62434,-85.6629,90,9.4,48.9,975.48,0,7.53,45,,97.33,319.32,,,,,,"2804 12th St, Shelbyville, MI 49344, USA",26/04/2019 7:28,"Apr 26, 2019 7:28 AM ","Apr 26, 2019 2:28 PM"
221226,42.59468,-85.66355,90,9.4,48.9,974.71,0,4.99,42,1,99.34,325.93,,,,,,"2412 12th St, Shelbyville, MI 49344, USA",26/04/2019 7:38,"Apr 26, 2019 7:38 AM ","Apr 26, 2019 2:38 PM"
221226,42.59468,-85.66355,90,9.4,48.9,974.71,0,4.99,42,,99.34,325.93,,,,,,"2412 12th St, Shelbyville, MI 49344, USA",26/04/2019 7:38,"Apr 26, 2019 7:38 AM ","Apr 26, 2019 2:38 PM"
221226,42.42815,-85.66092,88,9,48.2,976.22,0,7.27,44,1,95.39,312.97,,,,,,"US-131, Plainwell, MI 49080, USA",26/04/2019 7:48,"Apr 26, 2019 7:48 AM ","Apr 26, 2019 2:48 PM"
221226,42.42815,-85.66092,88,9,48.2,976.22,0,7.27,44,,95.39,312.97,,,,,,"US-131, Plainwell, MI 49080, USA",26/04/2019 7:48,"Apr 26, 2019 7:48 AM ","Apr 26, 2019 2:48 PM"
221226,42.25349,-85.64603,90,9.3,48.7,969.55,0,3.21,45,1,112.89,370.36,,,,,,"3911 S 12th St, Kalamazoo, MI 49009, USA",26/04/2019 7:59,"Apr 26, 2019 7:59 AM ","Apr 26, 2019 2:59 PM"
221226,42.25349,-85.64603,90,9.3,48.7,969.55,0,3.21,45,,112.89,370.36,,,,,,"3911 S 12th St, Kalamazoo, MI 49009, USA",26/04/2019 7:59,"Apr 26, 2019 7:59 AM ","Apr 26, 2019 2:59 PM"
221226,42.26962,-85.44782,90,9.1,48.4,973.3,0,6.71,43,1,103.04,338.05,,,,,,"I-94, Galesburg, MI 49053, USA",26/04/2019 8:09,"Apr 26, 2019 8:09 AM ","Apr 26, 2019 3:09 PM"
221226,42.26962,-85.44782,90,9.1,48.4,973.3,0,6.71,43,,103.04,338.05,,,,,,"I-94, Galesburg, MI 49053, USA",26/04/2019 8:09,"Apr 26, 2019 8:09 AM ","Apr 26, 2019 3:09 PM"
221226,42.26265,-85.20635,90,9,48.2,967.67,0,5.04,44,1,117.83,386.59,,,,,,"232 Knapp Dr, Battle Creek, MI 49015, USA",26/04/2019 8:19,"Apr 26, 2019 8:19 AM ","Apr 26, 2019 3:19 PM"
221226,42.26265,-85.20635,90,9,48.2,967.67,0,5.04,44,,117.83,386.59,,,,,,"232 Knapp Dr, Battle Creek, MI 49015, USA",26/04/2019 8:19,"Apr 26, 2019 8:19 AM ","Apr 26, 2019 3:19 PM"
221226,42.31413,-85.18908,90,9.3,48.7,972.62,0,3.85,44,1,104.82,343.9,,,,,,"235 Capital Ave SW, Battle Creek, MI 49037, USA",26/04/2019 8:30,"Apr 26, 2019 8:30 AM ","Apr 26, 2019 3:30 PM"