{"api":
    {"v1":{
        "assets":"/api/v1/assets/",
        "blocks":"/api/v1/blocks/",
        "docs":"https://docs.bigchaindb.com/projects/server/en/v2.0.0b9/http-client-server-api.html",
        "metadata":"/api/v1/metadata/",
        "outputs":"/api/v1/outputs/",
        "streams":"wss://test.bigchaindb.com:443/api/v1/streams/valid_transactions",
        "transactions":"/api/v1/transactions/",
        "validators":"/api/v1/validators"
        }
    },
    "docs":"https://docs.bigchaindb.com/projects/server/en/v2.0.0b9/",
    "software":"BigchainDB",
    "version":"2.0.0b9"
}