{
    "Altitude (feet)": "Altitude_f",
    "Altitude (m)": "Altitude_m",
    "Ambient (%)": "Ambient",
    "Analog 1": "Analog_1",
    "Analog 10": "Analog_10",
    "Analog 11": "Analog_11",
    "Analog 12": "Analog_12",
    "Analog 13": "Analog_13",
    "Analog 14": "Analog_14",
    "Analog 15": "Analog_15",
    "Analog 16": "Analog_16",
    "Analog 17": "Analog_17",
    "Analog 18": "Analog_18",
    "Analog 19": "Analog_19",
    "Analog 2": "Analog_2",
    "Analog 20": "Analog_20",
    "Analog 3": "Analog_3",
    "Analog 4": "Analog_4",
    "Analog 5": "Analog_5",
    "Analog 6": "Analog_6",
    "Analog 7": "Analog_7",
    "Analog 8": "Analog_8",
    "Analog 9": "Analog_9",
    "Battery (%)": "Battery_Voltage_Percent",
    "Battery Voltage (V)": "Battery_Voltage_V",
    "BigChain_Hash": "BigChain_Hash",
    "Cellular Signal Strength": "Cellular_Signal_Strength",
    "Digital Inputs": "Digital_Inputs",
    "Digital Outputs": "Digital_Outputs",
    "Driver Id Data": "Driver_Id_Data",
    "Driver Id Type": "Driver_Id_Type",
    "Geo (lat,lng)": "Geo_Latitude_Longitude",
    "Gps Status Fix 3D": "Gps_Status_Fix_3D",
    "Gps Status Fix OK": "Gps_Status_Fix_OK",
    "Heading Degrees": "Heading_Degrees",
    "Ignition": "Ignition",
    "Input 3": "Input_3",
    "Input 4": "Input4",
    "Input 5": "Input_5",
    "Input 6": "Input_6",
    "Input 7": "Input_7",
    "Input 8": "Input_8",
    "Iota_Hash": "Iota_Hash",
    "Latitude": "Latitude",
    "Log Reason": "Status",
    "Longitude": "Longitude",
    "Luminosity": "Luminosity",
    "Output 1": "Output_1",
    "Output 2": "Output_2",
    "PDOP Raw": "PDOP_Raw",
    "Penta_Hash": "Penta_Hash",
    "Position Accuracy (ft)": "Position_Accuracy_f",
    "Position Accuracy (m)": "Position_Accuracy_m",
    "Project Code": "Project_Code",
    "Pressure (hPa)": "Pressure",
    "Relative Humidity (%)": "Relative_Humidity_Percent",
    "Speed Accuracy (KmH)": "Speed_Accuracy_KmH",
    "Speed Band": "Speed_Band",
    "Speed KmH": "Speed_KmH",
    "Speed MPH": "Speed_MpH",
    "Tamper": "Tamper",
    "Temperature (C)": "Temperature_C",
    "Temperature (F)": "Temperature_F",
    "Temperature Sensor (C)": "Temperature_Sensor_C",
    "Tilt Shock": "Tilt_Shock",
    "Time of the Reading": "Time_Stamp",
    "Trip Type Code": "Trip_Type_Code",
    "Used Speed Limit (MPH)": "Used_Speed_Limit_MpH"
}