{
    "Altitude_f": "Altitude (feet)",
    "Altitude_m": "Altitude (m)",
    "Ambient": "Ambient (%)",
    "Analog_1": "Analog 1",
    "Analog_2": "Analog 2",
    "Analog_3": "Analog 3",
    "Analog_4": "Analog 4",
    "Analog_5": "Analog 5",
    "Analog_6": "Analog 6",
    "Analog_7": "Analog 7",
    "Analog_8": "Analog 8",
    "Battery_Voltage_Percent": "Battery (%)",
    "Battery_Voltage_V": "Battery Voltage (V)",
    "BigChain_Hash": "BigChain_Hash",
    "Cellular_Signal_Strength": "Cellular Signal Strength",
    "Driver_Id_Data": "Driver Id Data",
    "Driver_Id_Type": "Driver Id Type",
    "Gps_Status_Fix_3D": "Gps Status Fix 3D",
    "Gps_Status_Fix_OK": "Gps Status Fix OK",
    "Heading_Degrees": "Heading Degrees",
    "Ignition": "Ignition",
    "Input4": "Input 4",
    "Input_3": "Input 3",
    "Input_5": "Input 5",
    "Input_6": "Input 6",
    "Input_7": "Input 7",
    "Input_8": "Input 8",
    "Iota_Hash": "Iota_Hash",
    "Latitude": "Latitude",
    "Longitude": "Longitude",
    "Luminosity": "Luminosity",
    "Output_1": "Output 1",
    "Output_2": "Output 2",
    "PDOP_Raw": "PDOP Raw",
    "Penta_Hash": "Penta_Hash",
    "Position_Accuracy_m": "Position Accuracy (m)",
    "Pressure": "Pressure (hPa)",
    "Relative_Humidity_Percent": "Relative Humidity (%)",
    "Speed_Accuracy_KmH": "Speed Accuracy (KmH)",
    "Speed_KmH": "Speed KmH",
    "Status": "Log Reason",
    "Tamper": "Tamper",
    "Temperature_C": "Temperature (C)",
    "Temperature_F": "Temperature (F)",
    "Temperature_Sensor_C": "Temperature Sensor (C)",
    "Tilt_Shock": "Tilt Shock",
    "Time_Stamp": "Time of the Reading",
    "Trip_Type_Code": "Trip Type Code"
}